{
  "main": {
    "cy": {
      "identity": {
        "version": {
          "_cldrVersion": "27.0.1",
          "_number": "$Revision: 11093 $"
        },
        "generation": {
          "_date": "$Date: 2015-01-02 21:36:02 -0600 (Fri, 02 Jan 2015) $"
        },
        "language": "cy"
      },
      "dates": {
        "calendars": {
          "gregorian": {
            "months": {
              "format": {
                "abbreviated": {
                  "1": "Ion",
                  "2": "Chwef",
                  "3": "Mawrth",
                  "4": "Ebrill",
                  "5": "Mai",
                  "6": "Meh",
                  "7": "Gorff",
                  "8": "Awst",
                  "9": "Medi",
                  "10": "Hyd",
                  "11": "Tach",
                  "12": "Rhag"
                },
                "narrow": {
                  "1": "I",
                  "2": "Ch",
                  "3": "M",
                  "4": "E",
                  "5": "M",
                  "6": "M",
                  "7": "G",
                  "8": "A",
                  "9": "M",
                  "10": "H",
                  "11": "T",
                  "12": "Rh"
                },
                "wide": {
                  "1": "Ionawr",
                  "2": "Chwefror",
                  "3": "Mawrth",
                  "4": "Ebrill",
                  "5": "Mai",
                  "6": "Mehefin",
                  "7": "Gorffennaf",
                  "8": "Awst",
                  "9": "Medi",
                  "10": "Hydref",
                  "11": "Tachwedd",
                  "12": "Rhagfyr"
                }
              },
              "stand-alone": {
                "abbreviated": {
                  "1": "Ion",
                  "2": "Chw",
                  "3": "Maw",
                  "4": "Ebr",
                  "5": "Mai",
                  "6": "Meh",
                  "7": "Gor",
                  "8": "Awst",
                  "9": "Medi",
                  "10": "Hyd",
                  "11": "Tach",
                  "12": "Rhag"
                },
                "narrow": {
                  "1": "I",
                  "2": "Ch",
                  "3": "M",
                  "4": "E",
                  "5": "M",
                  "6": "M",
                  "7": "G",
                  "8": "A",
                  "9": "M",
                  "10": "H",
                  "11": "T",
                  "12": "Rh"
                },
                "wide": {
                  "1": "Ionawr",
                  "2": "Chwefror",
                  "3": "Mawrth",
                  "4": "Ebrill",
                  "5": "Mai",
                  "6": "Mehefin",
                  "7": "Gorffennaf",
                  "8": "Awst",
                  "9": "Medi",
                  "10": "Hydref",
                  "11": "Tachwedd",
                  "12": "Rhagfyr"
                }
              }
            },
            "days": {
              "format": {
                "abbreviated": {
                  "sun": "Sul",
                  "mon": "Llun",
                  "tue": "Maw",
                  "wed": "Mer",
                  "thu": "Iau",
                  "fri": "Gwen",
                  "sat": "Sad"
                },
                "narrow": {
                  "sun": "S",
                  "mon": "Ll",
                  "tue": "M",
                  "wed": "M",
                  "thu": "I",
                  "fri": "G",
                  "sat": "S"
                },
                "short": {
                  "sun": "Su",
                  "mon": "Ll",
                  "tue": "Ma",
                  "wed": "Me",
                  "thu": "Ia",
                  "fri": "Gw",
                  "sat": "Sa"
                },
                "wide": {
                  "sun": "Dydd Sul",
                  "mon": "Dydd Llun",
                  "tue": "Dydd Mawrth",
                  "wed": "Dydd Mercher",
                  "thu": "Dydd Iau",
                  "fri": "Dydd Gwener",
                  "sat": "Dydd Sadwrn"
                }
              },
              "stand-alone": {
                "abbreviated": {
                  "sun": "Sul",
                  "mon": "Llun",
                  "tue": "Maw",
                  "wed": "Mer",
                  "thu": "Iau",
                  "fri": "Gwe",
                  "sat": "Sad"
                },
                "narrow": {
                  "sun": "S",
                  "mon": "Ll",
                  "tue": "M",
                  "wed": "M",
                  "thu": "I",
                  "fri": "G",
                  "sat": "S"
                },
                "short": {
                  "sun": "Su",
                  "mon": "Ll",
                  "tue": "Ma",
                  "wed": "Me",
                  "thu": "Ia",
                  "fri": "Gw",
                  "sat": "Sa"
                },
                "wide": {
                  "sun": "Dydd Sul",
                  "mon": "Dydd Llun",
                  "tue": "Dydd Mawrth",
                  "wed": "Dydd Mercher",
                  "thu": "Dydd Iau",
                  "fri": "Dydd Gwener",
                  "sat": "Dydd Sadwrn"
                }
              }
            },
            "quarters": {
              "format": {
                "abbreviated": {
                  "1": "Ch1",
                  "2": "Ch2",
                  "3": "Ch3",
                  "4": "Ch4"
                },
                "narrow": {
                  "1": "1",
                  "2": "2",
                  "3": "3",
                  "4": "4"
                },
                "wide": {
                  "1": "Chwarter 1af",
                  "2": "2il chwarter",
                  "3": "3ydd chwarter",
                  "4": "4ydd chwarter"
                }
              },
              "stand-alone": {
                "abbreviated": {
                  "1": "Ch1",
                  "2": "Ch2",
                  "3": "Ch3",
                  "4": "Ch4"
                },
                "narrow": {
                  "1": "1",
                  "2": "2",
                  "3": "3",
                  "4": "4"
                },
                "wide": {
                  "1": "chwarter 1af",
                  "2": "2il chwarter",
                  "3": "3ydd chwarter",
                  "4": "4ydd chwarter"
                }
              }
            },
            "dayPeriods": {
              "format": {
                "abbreviated": {
                  "am": "AM",
                  "noon": "hanner dydd",
                  "pm": "PM"
                },
                "narrow": {
                  "am": "AM",
                  "noon": "n",
                  "pm": "PM"
                },
                "wide": {
                  "am": "AM",
                  "noon": "hanner dydd",
                  "pm": "PM"
                }
              },
              "stand-alone": {
                "abbreviated": {
                  "am": "AM",
                  "noon": "hanner dydd",
                  "pm": "PM"
                },
                "narrow": {
                  "am": "AM",
                  "noon": "n",
                  "pm": "PM"
                },
                "wide": {
                  "am": "AM",
                  "noon": "hanner dydd",
                  "pm": "PM"
                }
              }
            },
            "eras": {
              "eraNames": {
                "0": "Cyn Crist",
                "0-alt-variant": "BCE",
                "1": "Oed Crist",
                "1-alt-variant": "CE"
              },
              "eraAbbr": {
                "0": "CC",
                "0-alt-variant": "BCE",
                "1": "OC",
                "1-alt-variant": "CE"
              },
              "eraNarrow": {
                "0": "C",
                "0-alt-variant": "BCE",
                "1": "O",
                "1-alt-variant": "CE"
              }
            },
            "dateFormats": {
              "full": "EEEE, d MMMM y",
              "long": "d MMMM y",
              "medium": "d MMM y",
              "short": "dd/MM/yy"
            },
            "timeFormats": {
              "full": "HH:mm:ss zzzz",
              "long": "HH:mm:ss z",
              "medium": "HH:mm:ss",
              "short": "HH:mm"
            },
            "dateTimeFormats": {
              "full": "{1} 'am' {0}",
              "long": "{1} 'am' {0}",
              "medium": "{1} {0}",
              "short": "{1} {0}",
              "availableFormats": {
                "E": "ccc",
                "EHm": "E, HH:mm",
                "EHms": "E, HH:mm:ss",
                "Ed": "E, d",
                "Ehm": "E, h.mm a",
                "Ehms": "E, h.mm.ss a",
                "Gy": "y G",
                "GyMMM": "MMM y G",
                "GyMMMEd": "E, d MMM y G",
                "GyMMMd": "d MMM y G",
                "H": "HH",
                "Hm": "HH:mm",
                "Hms": "HH:mm:ss",
                "Hmsv": "HH:mm:ss v",
                "Hmv": "HH:mm v",
                "M": "L",
                "MEd": "E, d/M",
                "MMM": "LLL",
                "MMMEd": "E, d MMM",
                "MMMd": "d MMM",
                "Md": "d/M",
                "d": "d",
                "h": "h a",
                "hm": "h.mm a",
                "hms": "h:mm:ss a",
                "hmsv": "h:mm:ss a v",
                "hmv": "h:mm a v",
                "ms": "mm:ss",
                "y": "y",
                "yM": "M/y",
                "yMEd": "E, d/M/y",
                "yMMM": "MMM y",
                "yMMMEd": "E, d MMM y",
                "yMMMd": "d MMM y",
                "yMd": "d/M/y",
                "yQ": "Q y",
                "yQQQ": "QQQ y",
                "yQQQQ": "QQQQ y"
              },
              "appendItems": {
                "Day": "{0} ({2}: {1})",
                "Day-Of-Week": "{0} {1}",
                "Era": "{1} {0}",
                "Hour": "{0} ({2}: {1})",
                "Minute": "{0} ({2}: {1})",
                "Month": "{0} ({2}: {1})",
                "Quarter": "{0} ({2}: {1})",
                "Second": "{0} ({2}: {1})",
                "Timezone": "{0} {1}",
                "Week": "{0} ({2}: {1})",
                "Year": "{1} {0}"
              },
              "intervalFormats": {
                "intervalFormatFallback": "{0} – {1}",
                "H": {
                  "H": "HH–HH"
                },
                "Hm": {
                  "H": "HH:mm–HH:mm",
                  "m": "HH:mm–HH:mm"
                },
                "Hmv": {
                  "H": "HH:mm–HH:mm v",
                  "m": "HH:mm–HH:mm v"
                },
                "Hv": {
                  "H": "HH–HH v"
                },
                "M": {
                  "M": "M–M"
                },
                "MEd": {
                  "M": "E, d/M – E, d/M",
                  "d": "E, d/M – E, d/M"
                },
                "MMM": {
                  "M": "MMM–MMM"
                },
                "MMMEd": {
                  "M": "E, d MMM – E, d MMM",
                  "d": "E, d MMM – E, d MMM"
                },
                "MMMM": {
                  "M": "LLLL–LLLL"
                },
                "MMMd": {
                  "M": "d MMM – d MMM",
                  "d": "d–d MMM"
                },
                "Md": {
                  "M": "d/M – d/M",
                  "d": "d/M – d/M"
                },
                "d": {
                  "d": "d–d"
                },
                "h": {
                  "a": "h a – h a",
                  "h": "h–h a"
                },
                "hm": {
                  "a": "h:mm a – h:mm a",
                  "h": "h:mm h:mm a",
                  "m": "h:mm – h:mm a"
                },
                "hmv": {
                  "a": "h:mm a – h:mm a v",
                  "h": "h:mm – h:mm a v",
                  "m": "h:mm–h:mm a v"
                },
                "hv": {
                  "a": "h a – h a v",
                  "h": "h–h a v"
                },
                "y": {
                  "y": "y–y"
                },
                "yM": {
                  "M": "M/y – M/y",
                  "y": "M/y – M/y"
                },
                "yMEd": {
                  "M": "E, d/M/y – E, d/M/y",
                  "d": "E, d/M/y – E, d/M/y",
                  "y": "E, d/M/y – E, d/M/y"
                },
                "yMMM": {
                  "M": "MMM – MMM y",
                  "y": "MMM y – MMM y"
                },
                "yMMMEd": {
                  "M": "E, d MMM – E, d MMM y",
                  "d": "E, d MMM – E, d MMM y",
                  "y": "E, d MMM, y – E, d MMM y"
                },
                "yMMMM": {
                  "M": "MMMM–MMMM y",
                  "y": "MMMM y – MMMM y"
                },
                "yMMMd": {
                  "M": "d MMM – d MMM y",
                  "d": "d–d MMM y",
                  "y": "d MMM, y – d MMM y"
                },
                "yMd": {
                  "M": "d/M/y – d/M/y",
                  "d": "d/M/y – d/M/y",
                  "y": "d/M/y – d/M/y"
                }
              }
            }
          }
        }
      }
    }
  }
}
