{
  "main": {
    "fur": {
      "identity": {
        "version": {
          "_cldrVersion": "27.0.1",
          "_number": "$Revision: 11093 $"
        },
        "generation": {
          "_date": "$Date: 2015-01-02 21:36:02 -0600 (Fri, 02 Jan 2015) $"
        },
        "language": "fur"
      },
      "dates": {
        "fields": {
          "era": {
            "displayName": "ere"
          },
          "year": {
            "displayName": "an",
            "relative-type--1": "last year",
            "relative-type-0": "this year",
            "relative-type-1": "next year",
            "relativeTime-type-future": {
              "relativeTimePattern-count-one": "ca di {0} an",
              "relativeTimePattern-count-other": "ca di {0} agns"
            },
            "relativeTime-type-past": {
              "relativeTimePattern-count-one": "{0} an indaûr",
              "relativeTimePattern-count-other": "{0} agns indaûr"
            }
          },
          "year-short": {
            "displayName": "an",
            "relative-type--1": "last year",
            "relative-type-0": "this year",
            "relative-type-1": "next year",
            "relativeTime-type-future": {
              "relativeTimePattern-count-one": "ca di {0} agns",
              "relativeTimePattern-count-other": "ca di {0} agns"
            },
            "relativeTime-type-past": {
              "relativeTimePattern-count-one": "{0} agns indaûr",
              "relativeTimePattern-count-other": "{0} agns indaûr"
            }
          },
          "year-narrow": {
            "displayName": "an",
            "relative-type--1": "last year",
            "relative-type-0": "this year",
            "relative-type-1": "next year",
            "relativeTime-type-future": {
              "relativeTimePattern-count-one": "ca di {0} agns",
              "relativeTimePattern-count-other": "ca di {0} agns"
            },
            "relativeTime-type-past": {
              "relativeTimePattern-count-one": "{0} agns indaûr",
              "relativeTimePattern-count-other": "{0} agns indaûr"
            }
          },
          "quarter": {
            "displayName": "Quarter",
            "relative-type--1": "last quarter",
            "relative-type-0": "this quarter",
            "relative-type-1": "next quarter",
            "relativeTime-type-future": {
              "relativeTimePattern-count-other": "+{0} Q"
            },
            "relativeTime-type-past": {
              "relativeTimePattern-count-other": "-{0} Q"
            }
          },
          "quarter-short": {
            "displayName": "Quarter",
            "relative-type--1": "last quarter",
            "relative-type-0": "this quarter",
            "relative-type-1": "next quarter",
            "relativeTime-type-future": {
              "relativeTimePattern-count-other": "+{0} Q"
            },
            "relativeTime-type-past": {
              "relativeTimePattern-count-other": "-{0} Q"
            }
          },
          "quarter-narrow": {
            "displayName": "Quarter",
            "relative-type--1": "last quarter",
            "relative-type-0": "this quarter",
            "relative-type-1": "next quarter",
            "relativeTime-type-future": {
              "relativeTimePattern-count-other": "+{0} Q"
            },
            "relativeTime-type-past": {
              "relativeTimePattern-count-other": "-{0} Q"
            }
          },
          "month": {
            "displayName": "mês",
            "relative-type--1": "last month",
            "relative-type-0": "this month",
            "relative-type-1": "next month",
            "relativeTime-type-future": {
              "relativeTimePattern-count-one": "ca di {0} mês",
              "relativeTimePattern-count-other": "ca di {0} mês"
            },
            "relativeTime-type-past": {
              "relativeTimePattern-count-one": "{0} mês indaûr",
              "relativeTimePattern-count-other": "{0} mês indaûr"
            }
          },
          "month-short": {
            "displayName": "mês",
            "relative-type--1": "last month",
            "relative-type-0": "this month",
            "relative-type-1": "next month",
            "relativeTime-type-future": {
              "relativeTimePattern-count-one": "ca di {0} mês",
              "relativeTimePattern-count-other": "ca di {0} mês"
            },
            "relativeTime-type-past": {
              "relativeTimePattern-count-one": "{0} mês indaûr",
              "relativeTimePattern-count-other": "{0} mês indaûr"
            }
          },
          "month-narrow": {
            "displayName": "mês",
            "relative-type--1": "last month",
            "relative-type-0": "this month",
            "relative-type-1": "next month",
            "relativeTime-type-future": {
              "relativeTimePattern-count-one": "ca di {0} mês",
              "relativeTimePattern-count-other": "ca di {0} mês"
            },
            "relativeTime-type-past": {
              "relativeTimePattern-count-one": "{0} mês indaûr",
              "relativeTimePattern-count-other": "{0} mês indaûr"
            }
          },
          "week": {
            "displayName": "setemane",
            "relative-type--1": "last week",
            "relative-type-0": "this week",
            "relative-type-1": "next week",
            "relativeTime-type-future": {
              "relativeTimePattern-count-one": "ca di {0} setemane",
              "relativeTimePattern-count-other": "ca di {0} setemanis"
            },
            "relativeTime-type-past": {
              "relativeTimePattern-count-one": "{0} setemane indaûr",
              "relativeTimePattern-count-other": "{0} setemanis indaûr"
            }
          },
          "week-short": {
            "displayName": "setemane",
            "relative-type--1": "last week",
            "relative-type-0": "this week",
            "relative-type-1": "next week",
            "relativeTime-type-future": {
              "relativeTimePattern-count-one": "ca di {0} setemanis",
              "relativeTimePattern-count-other": "ca di {0} setemanis"
            },
            "relativeTime-type-past": {
              "relativeTimePattern-count-one": "{0} setemanis indaûr",
              "relativeTimePattern-count-other": "{0} setemanis indaûr"
            }
          },
          "week-narrow": {
            "displayName": "setemane",
            "relative-type--1": "last week",
            "relative-type-0": "this week",
            "relative-type-1": "next week",
            "relativeTime-type-future": {
              "relativeTimePattern-count-one": "ca di {0} setemanis",
              "relativeTimePattern-count-other": "ca di {0} setemanis"
            },
            "relativeTime-type-past": {
              "relativeTimePattern-count-one": "{0} setemanis indaûr",
              "relativeTimePattern-count-other": "{0} setemanis indaûr"
            }
          },
          "day": {
            "displayName": "dì",
            "relative-type--1": "îr",
            "relative-type--2": "îr l’altri",
            "relative-type-0": "vuê",
            "relative-type-1": "doman",
            "relative-type-2": "passantdoman",
            "relativeTime-type-future": {
              "relativeTimePattern-count-one": "ca di {0} zornade",
              "relativeTimePattern-count-other": "ca di {0} zornadis"
            },
            "relativeTime-type-past": {
              "relativeTimePattern-count-one": "{0} zornade indaûr",
              "relativeTimePattern-count-other": "{0} zornadis indaûr"
            }
          },
          "day-short": {
            "displayName": "dì",
            "relative-type--1": "îr",
            "relative-type--2": "îr l’altri",
            "relative-type-0": "vuê",
            "relative-type-1": "doman",
            "relative-type-2": "passantdoman",
            "relativeTime-type-future": {
              "relativeTimePattern-count-one": "ca di {0} zornadis",
              "relativeTimePattern-count-other": "ca di {0} zornadis"
            },
            "relativeTime-type-past": {
              "relativeTimePattern-count-one": "{0} zornadis indaûr",
              "relativeTimePattern-count-other": "{0} zornadis indaûr"
            }
          },
          "day-narrow": {
            "displayName": "dì",
            "relative-type--1": "îr",
            "relative-type--2": "îr l’altri",
            "relative-type-0": "vuê",
            "relative-type-1": "doman",
            "relative-type-2": "passantdoman",
            "relativeTime-type-future": {
              "relativeTimePattern-count-one": "ca di {0} zornadis",
              "relativeTimePattern-count-other": "ca di {0} zornadis"
            },
            "relativeTime-type-past": {
              "relativeTimePattern-count-one": "{0} zornadis indaûr",
              "relativeTimePattern-count-other": "{0} zornadis indaûr"
            }
          },
          "weekday": {
            "displayName": "dì de setemane"
          },
          "sun": {
            "relative-type--1": "last Sunday",
            "relative-type-0": "this Sunday",
            "relative-type-1": "next Sunday"
          },
          "sun-short": {
            "relative-type--1": "last Sunday",
            "relative-type-0": "this Sunday",
            "relative-type-1": "next Sunday"
          },
          "sun-narrow": {
            "relative-type--1": "last Sunday",
            "relative-type-0": "this Sunday",
            "relative-type-1": "next Sunday"
          },
          "mon": {
            "relative-type--1": "last Monday",
            "relative-type-0": "this Monday",
            "relative-type-1": "next Monday"
          },
          "mon-short": {
            "relative-type--1": "last Monday",
            "relative-type-0": "this Monday",
            "relative-type-1": "next Monday"
          },
          "mon-narrow": {
            "relative-type--1": "last Monday",
            "relative-type-0": "this Monday",
            "relative-type-1": "next Monday"
          },
          "tue": {
            "relative-type--1": "last Tuesday",
            "relative-type-0": "this Tuesday",
            "relative-type-1": "next Tuesday"
          },
          "tue-short": {
            "relative-type--1": "last Tuesday",
            "relative-type-0": "this Tuesday",
            "relative-type-1": "next Tuesday"
          },
          "tue-narrow": {
            "relative-type--1": "last Tuesday",
            "relative-type-0": "this Tuesday",
            "relative-type-1": "next Tuesday"
          },
          "wed": {
            "relative-type--1": "last Wednesday",
            "relative-type-0": "this Wednesday",
            "relative-type-1": "next Wednesday"
          },
          "wed-short": {
            "relative-type--1": "last Wednesday",
            "relative-type-0": "this Wednesday",
            "relative-type-1": "next Wednesday"
          },
          "wed-narrow": {
            "relative-type--1": "last Wednesday",
            "relative-type-0": "this Wednesday",
            "relative-type-1": "next Wednesday"
          },
          "thu": {
            "relative-type--1": "last Thursday",
            "relative-type-0": "this Thursday",
            "relative-type-1": "next Thursday"
          },
          "thu-short": {
            "relative-type--1": "last Thursday",
            "relative-type-0": "this Thursday",
            "relative-type-1": "next Thursday"
          },
          "thu-narrow": {
            "relative-type--1": "last Thursday",
            "relative-type-0": "this Thursday",
            "relative-type-1": "next Thursday"
          },
          "fri": {
            "relative-type--1": "last Friday",
            "relative-type-0": "this Friday",
            "relative-type-1": "next Friday"
          },
          "fri-short": {
            "relative-type--1": "last Friday",
            "relative-type-0": "this Friday",
            "relative-type-1": "next Friday"
          },
          "fri-narrow": {
            "relative-type--1": "last Friday",
            "relative-type-0": "this Friday",
            "relative-type-1": "next Friday"
          },
          "sat": {
            "relative-type--1": "last Saturday",
            "relative-type-0": "this Saturday",
            "relative-type-1": "next Saturday"
          },
          "sat-short": {
            "relative-type--1": "last Saturday",
            "relative-type-0": "this Saturday",
            "relative-type-1": "next Saturday"
          },
          "sat-narrow": {
            "relative-type--1": "last Saturday",
            "relative-type-0": "this Saturday",
            "relative-type-1": "next Saturday"
          },
          "dayperiod": {
            "displayName": "toc dal dì"
          },
          "hour": {
            "displayName": "ore",
            "relativeTime-type-future": {
              "relativeTimePattern-count-one": "ca di {0} ore",
              "relativeTimePattern-count-other": "ca di {0} oris"
            },
            "relativeTime-type-past": {
              "relativeTimePattern-count-one": "{0} ore indaûr",
              "relativeTimePattern-count-other": "{0} oris indaûr"
            }
          },
          "hour-short": {
            "displayName": "ore",
            "relativeTime-type-future": {
              "relativeTimePattern-count-one": "ca di {0} oris",
              "relativeTimePattern-count-other": "ca di {0} oris"
            },
            "relativeTime-type-past": {
              "relativeTimePattern-count-one": "{0} oris indaûr",
              "relativeTimePattern-count-other": "{0} oris indaûr"
            }
          },
          "hour-narrow": {
            "displayName": "ore",
            "relativeTime-type-future": {
              "relativeTimePattern-count-one": "ca di {0} oris",
              "relativeTimePattern-count-other": "ca di {0} oris"
            },
            "relativeTime-type-past": {
              "relativeTimePattern-count-one": "{0} oris indaûr",
              "relativeTimePattern-count-other": "{0} oris indaûr"
            }
          },
          "minute": {
            "displayName": "minût",
            "relativeTime-type-future": {
              "relativeTimePattern-count-one": "ca di {0} minût",
              "relativeTimePattern-count-other": "ca di {0} minûts"
            },
            "relativeTime-type-past": {
              "relativeTimePattern-count-one": "{0} minût indaûr",
              "relativeTimePattern-count-other": "{0} minûts indaûr"
            }
          },
          "minute-short": {
            "displayName": "minût",
            "relativeTime-type-future": {
              "relativeTimePattern-count-one": "ca di {0} minûts",
              "relativeTimePattern-count-other": "ca di {0} minûts"
            },
            "relativeTime-type-past": {
              "relativeTimePattern-count-one": "{0} minûts indaûr",
              "relativeTimePattern-count-other": "{0} minûts indaûr"
            }
          },
          "minute-narrow": {
            "displayName": "minût",
            "relativeTime-type-future": {
              "relativeTimePattern-count-one": "ca di {0} minûts",
              "relativeTimePattern-count-other": "ca di {0} minûts"
            },
            "relativeTime-type-past": {
              "relativeTimePattern-count-one": "{0} minûts indaûr",
              "relativeTimePattern-count-other": "{0} minûts indaûr"
            }
          },
          "second": {
            "displayName": "secont",
            "relative-type-0": "now",
            "relativeTime-type-future": {
              "relativeTimePattern-count-one": "ca di {0} secont",
              "relativeTimePattern-count-other": "ca di {0} seconts"
            },
            "relativeTime-type-past": {
              "relativeTimePattern-count-one": "{0} secont indaûr",
              "relativeTimePattern-count-other": "{0} seconts indaûr"
            }
          },
          "second-short": {
            "displayName": "secont",
            "relative-type-0": "now",
            "relativeTime-type-future": {
              "relativeTimePattern-count-one": "ca di {0} seconts",
              "relativeTimePattern-count-other": "ca di {0} seconts"
            },
            "relativeTime-type-past": {
              "relativeTimePattern-count-one": "{0} seconts indaûr",
              "relativeTimePattern-count-other": "{0} seconts indaûr"
            }
          },
          "second-narrow": {
            "displayName": "secont",
            "relative-type-0": "now",
            "relativeTime-type-future": {
              "relativeTimePattern-count-one": "ca di {0} seconts",
              "relativeTimePattern-count-other": "ca di {0} seconts"
            },
            "relativeTime-type-past": {
              "relativeTimePattern-count-one": "{0} seconts indaûr",
              "relativeTimePattern-count-other": "{0} seconts indaûr"
            }
          },
          "zone": {
            "displayName": "zone"
          }
        }
      }
    }
  }
}
