{
  "main": {
    "ee-TG": {
      "identity": {
        "version": {
          "_cldrVersion": "27.0.1",
          "_number": "$Revision: 10669 $"
        },
        "generation": {
          "_date": "$Date: 2014-07-23 16:10:33 -0500 (Wed, 23 Jul 2014) $"
        },
        "language": "ee",
        "territory": "TG"
      },
      "dates": {
        "calendars": {
          "gregorian": {
            "months": {
              "format": {
                "abbreviated": {
                  "1": "dzv",
                  "2": "dzd",
                  "3": "ted",
                  "4": "afɔ",
                  "5": "dam",
                  "6": "mas",
                  "7": "sia",
                  "8": "dea",
                  "9": "any",
                  "10": "kel",
                  "11": "ade",
                  "12": "dzm"
                },
                "narrow": {
                  "1": "d",
                  "2": "d",
                  "3": "t",
                  "4": "a",
                  "5": "d",
                  "6": "m",
                  "7": "s",
                  "8": "d",
                  "9": "a",
                  "10": "k",
                  "11": "a",
                  "12": "d"
                },
                "wide": {
                  "1": "dzove",
                  "2": "dzodze",
                  "3": "tedoxe",
                  "4": "afɔfĩe",
                  "5": "dama",
                  "6": "masa",
                  "7": "siamlɔm",
                  "8": "deasiamime",
                  "9": "anyɔnyɔ",
                  "10": "kele",
                  "11": "adeɛmekpɔxe",
                  "12": "dzome"
                }
              },
              "stand-alone": {
                "abbreviated": {
                  "1": "dzv",
                  "2": "dzd",
                  "3": "ted",
                  "4": "afɔ",
                  "5": "dam",
                  "6": "mas",
                  "7": "sia",
                  "8": "dea",
                  "9": "any",
                  "10": "kel",
                  "11": "ade",
                  "12": "dzm"
                },
                "narrow": {
                  "1": "d",
                  "2": "d",
                  "3": "t",
                  "4": "a",
                  "5": "d",
                  "6": "m",
                  "7": "s",
                  "8": "d",
                  "9": "a",
                  "10": "k",
                  "11": "a",
                  "12": "d"
                },
                "wide": {
                  "1": "dzove",
                  "2": "dzodze",
                  "3": "tedoxe",
                  "4": "afɔfĩe",
                  "5": "dama",
                  "6": "masa",
                  "7": "siamlɔm",
                  "8": "deasiamime",
                  "9": "anyɔnyɔ",
                  "10": "kele",
                  "11": "adeɛmekpɔxe",
                  "12": "dzome"
                }
              }
            },
            "days": {
              "format": {
                "abbreviated": {
                  "sun": "kɔs",
                  "mon": "dzo",
                  "tue": "bla",
                  "wed": "kuɖ",
                  "thu": "yaw",
                  "fri": "fiɖ",
                  "sat": "mem"
                },
                "narrow": {
                  "sun": "k",
                  "mon": "d",
                  "tue": "b",
                  "wed": "k",
                  "thu": "y",
                  "fri": "f",
                  "sat": "m"
                },
                "short": {
                  "sun": "kɔs",
                  "mon": "dzo",
                  "tue": "bla",
                  "wed": "kuɖ",
                  "thu": "yaw",
                  "fri": "fiɖ",
                  "sat": "mem"
                },
                "wide": {
                  "sun": "kɔsiɖa",
                  "mon": "dzoɖa",
                  "tue": "blaɖa",
                  "wed": "kuɖa",
                  "thu": "yawoɖa",
                  "fri": "fiɖa",
                  "sat": "memleɖa"
                }
              },
              "stand-alone": {
                "abbreviated": {
                  "sun": "kɔs",
                  "mon": "dzo",
                  "tue": "bla",
                  "wed": "kuɖ",
                  "thu": "yaw",
                  "fri": "fiɖ",
                  "sat": "mem"
                },
                "narrow": {
                  "sun": "k",
                  "mon": "d",
                  "tue": "b",
                  "wed": "k",
                  "thu": "y",
                  "fri": "f",
                  "sat": "m"
                },
                "short": {
                  "sun": "kɔs",
                  "mon": "dzo",
                  "tue": "bla",
                  "wed": "kuɖ",
                  "thu": "yaw",
                  "fri": "fiɖ",
                  "sat": "mem"
                },
                "wide": {
                  "sun": "kɔsiɖa",
                  "mon": "dzoɖa",
                  "tue": "blaɖa",
                  "wed": "kuɖa",
                  "thu": "yawoɖa",
                  "fri": "fiɖa",
                  "sat": "memleɖa"
                }
              }
            },
            "quarters": {
              "format": {
                "abbreviated": {
                  "1": "k1",
                  "2": "k2",
                  "3": "k3",
                  "4": "k4"
                },
                "narrow": {
                  "1": "1",
                  "2": "2",
                  "3": "3",
                  "4": "4"
                },
                "wide": {
                  "1": "kɔta gbãtɔ",
                  "2": "kɔta evelia",
                  "3": "kɔta etɔ̃lia",
                  "4": "kɔta enelia"
                }
              },
              "stand-alone": {
                "abbreviated": {
                  "1": "k1",
                  "2": "k2",
                  "3": "k3",
                  "4": "k4"
                },
                "narrow": {
                  "1": "1",
                  "2": "2",
                  "3": "3",
                  "4": "4"
                },
                "wide": {
                  "1": "kɔta gbãtɔ",
                  "2": "kɔta evelia",
                  "3": "kɔta etɔ̃lia",
                  "4": "kɔta enelia"
                }
              }
            },
            "dayPeriods": {
              "format": {
                "abbreviated": {
                  "afternoon": "ɣetrɔ",
                  "am": "ŋdi",
                  "earlyAfternoon": "ŋdɔ",
                  "earlyMorning": "fɔŋli",
                  "evening": "fiẽ",
                  "morning": "ŋdi",
                  "night": "zã",
                  "noon": "noon",
                  "pm": "ɣetrɔ"
                },
                "narrow": {
                  "am": "a",
                  "noon": "n",
                  "pm": "p"
                },
                "wide": {
                  "afternoon": "ɣetrɔ",
                  "am": "ŋdi",
                  "earlyAfternoon": "ŋdɔ",
                  "earlyMorning": "fɔŋli",
                  "evening": "fiẽ",
                  "morning": "ŋdi",
                  "night": "zã",
                  "noon": "noon",
                  "pm": "ɣetrɔ"
                }
              },
              "stand-alone": {
                "abbreviated": {
                  "afternoon": "ɣetrɔ",
                  "am": "ŋdi",
                  "earlyAfternoon": "ŋdɔ",
                  "earlyMorning": "fɔŋli",
                  "evening": "fiẽ",
                  "morning": "ŋdi",
                  "night": "zã",
                  "noon": "noon",
                  "pm": "ɣetrɔ"
                },
                "narrow": {
                  "am": "a",
                  "noon": "n",
                  "pm": "p"
                },
                "wide": {
                  "afternoon": "ɣetrɔ",
                  "am": "ŋdi",
                  "earlyAfternoon": "ŋdɔ",
                  "earlyMorning": "fɔŋli",
                  "evening": "fiẽ",
                  "morning": "ŋdi",
                  "night": "zã",
                  "noon": "noon",
                  "pm": "ɣetrɔ"
                }
              }
            },
            "eras": {
              "eraNames": {
                "0": "Hafi Yesu Va Do ŋgɔ",
                "0-alt-variant": "BCE",
                "1": "Yesu Ŋɔli",
                "1-alt-variant": "CE"
              },
              "eraAbbr": {
                "0": "hY",
                "0-alt-variant": "BCE",
                "1": "Yŋ",
                "1-alt-variant": "CE"
              },
              "eraNarrow": {
                "0": "hY",
                "0-alt-variant": "BCE",
                "1": "Yŋ",
                "1-alt-variant": "CE"
              }
            },
            "dateFormats": {
              "full": "EEEE, MMMM d 'lia' y",
              "long": "MMMM d 'lia' y",
              "medium": "MMM d 'lia', y",
              "short": "M/d/yy"
            },
            "timeFormats": {
              "full": "a h:mm:ss zzzz",
              "long": "a 'ga' h:mm:ss z",
              "medium": "a 'ga' h:mm:ss",
              "short": "a 'ga' h:mm"
            },
            "dateTimeFormats": {
              "full": "{0} {1}",
              "long": "{0} {1}",
              "medium": "{0} {1}",
              "short": "{0} {1}",
              "availableFormats": {
                "E": "ccc",
                "EHm": "E HH:mm",
                "EHms": "E HH:mm:ss",
                "Ed": "E d",
                "Ehm": "E h:mm a",
                "Ehms": "E h:mm:ss a",
                "Gy": "y G",
                "GyMMM": "MMM y G",
                "GyMMMEd": "E, MMM d 'lia' y G",
                "GyMMMd": "MMM d 'lia', y G",
                "H": "HH",
                "Hm": "HH:mm",
                "Hms": "HH:mm:ss",
                "Hmsv": "HH:mm:ss v",
                "Hmv": "HH:mm v",
                "M": "L",
                "MEd": "E, M/d",
                "MMM": "LLL",
                "MMMEd": "E, MMM d 'lia'",
                "MMMMEd": "E, MMMM d 'lia'",
                "MMMMd": "MMMM d 'lia'",
                "MMMd": "MMM d 'lia'",
                "Md": "M/d",
                "d": "d",
                "h": "a 'ga' h",
                "hm": "a 'ga' h:mm",
                "hms": "a 'ga' h:mm:ss",
                "hmsv": "h:mm:ss a v",
                "hmv": "h:mm a v",
                "ms": "'aɖabaƒoƒo' mm:ss",
                "y": "y",
                "yM": "M/y",
                "yMEd": "E, M/d/y",
                "yMMM": "MMM y",
                "yMMMEd": "E, MMM d, y",
                "yMMMM": "MMMM y",
                "yMMMd": "MMM d 'lia', y",
                "yMd": "M/d/y",
                "yQQQ": "QQQ y",
                "yQQQQ": "QQQQ y"
              },
              "appendItems": {
                "Day": "{0} ({2}: {1})",
                "Day-Of-Week": "{0} {1}",
                "Era": "{1} {0}",
                "Hour": "{0} ({2}: {1})",
                "Minute": "{0} ({2}: {1})",
                "Month": "{0} ({2}: {1})",
                "Quarter": "{0} ({2}: {1})",
                "Second": "{0} ({2}: {1})",
                "Timezone": "{0} {1}",
                "Week": "{0} ({2}: {1})",
                "Year": "{1} {0}"
              },
              "intervalFormats": {
                "intervalFormatFallback": "{0} - {1}",
                "H": {
                  "H": "HH–HH"
                },
                "Hm": {
                  "H": "HH:mm–HH:mm",
                  "m": "HH:mm–HH:mm"
                },
                "Hmv": {
                  "H": "HH:mm–HH:mm v",
                  "m": "HH:mm–HH:mm v"
                },
                "Hv": {
                  "H": "HH–HH v"
                },
                "M": {
                  "M": "'ɣleti' M 'lia' – 'ɣleti' M 'lia'"
                },
                "MEd": {
                  "M": "E, M/d – E, M/d",
                  "d": "E, M/d – E, M/d"
                },
                "MMM": {
                  "M": "MMM–MMM"
                },
                "MMMEd": {
                  "M": "E, MMM d 'lia' – E, MMM d 'lia'",
                  "d": "E, MMM d 'lia' – E, MMM d 'lia'"
                },
                "MMMd": {
                  "M": "MMM d 'lia' – MMM d 'lia'",
                  "d": "MMM d 'lia' – d 'lia'"
                },
                "Md": {
                  "M": "M/d – M/d",
                  "d": "M/d – M/d"
                },
                "d": {
                  "d": "d–d"
                },
                "h": {
                  "a": "a h – a h",
                  "h": "a h–h"
                },
                "hm": {
                  "a": "a 'ga' h:mm – a 'ga' h:mm",
                  "h": "a 'ga' h:mm - 'ga' h:mm",
                  "m": "a 'ga' h:mm – 'ga' h:mm"
                },
                "hmv": {
                  "a": "a 'ga' h:mm – a 'ga' h:mm v",
                  "h": "a 'ga' h:mm–h:mm v",
                  "m": "a h:mm–h:mm v"
                },
                "hv": {
                  "a": "a h – a h v",
                  "h": "a 'ga' h–h v"
                },
                "y": {
                  "y": "y–y"
                },
                "yM": {
                  "M": "M/y – M/y",
                  "y": "M/y – M/y"
                },
                "yMEd": {
                  "M": "E, M/d/y – E, M/d/y",
                  "d": "E, M/d/y – E, M/d/y",
                  "y": "E, M/d/y – E, M/d/y"
                },
                "yMMM": {
                  "M": "MMM–MMM y",
                  "y": "MMM y – MMM y"
                },
                "yMMMEd": {
                  "M": "E, MMM d 'lia' – E, MMM d 'lia', y",
                  "d": "E, MMM d 'lia' – E, MMM d 'lia', y",
                  "y": "E, MMM d 'lia', y – E, MMM d 'lia', y"
                },
                "yMMMM": {
                  "M": "MMMM–MMMM y",
                  "y": "MMMM y – MMMM y"
                },
                "yMMMd": {
                  "M": "MMM d 'lia' – MMM d 'lia', y",
                  "d": "MMM d 'lia' – d 'lia' , y",
                  "y": "MMM d 'lia' , y – MMM d 'lia', y"
                },
                "yMd": {
                  "M": "M/d/y – M/d/y",
                  "d": "M/d/y – M/d/y",
                  "y": "M/d/y – M/d/y"
                }
              }
            }
          }
        }
      }
    }
  }
}
