{
  "main": {
    "nn": {
      "identity": {
        "version": {
          "_cldrVersion": "27.0.1",
          "_number": "$Revision: 11042 $"
        },
        "generation": {
          "_date": "$Date: 2014-10-31 12:11:19 -0500 (Fri, 31 Oct 2014) $"
        },
        "language": "nn"
      },
      "dates": {
        "calendars": {
          "generic": {
            "months": {
              "format": {
                "abbreviated": {
                  "1": "M01",
                  "2": "M02",
                  "3": "M03",
                  "4": "M04",
                  "5": "M05",
                  "6": "M06",
                  "7": "M07",
                  "8": "M08",
                  "9": "M09",
                  "10": "M10",
                  "11": "M11",
                  "12": "M12"
                },
                "narrow": {
                  "1": "1",
                  "2": "2",
                  "3": "3",
                  "4": "4",
                  "5": "5",
                  "6": "6",
                  "7": "7",
                  "8": "8",
                  "9": "9",
                  "10": "10",
                  "11": "11",
                  "12": "12"
                },
                "wide": {
                  "1": "M01",
                  "2": "M02",
                  "3": "M03",
                  "4": "M04",
                  "5": "M05",
                  "6": "M06",
                  "7": "M07",
                  "8": "M08",
                  "9": "M09",
                  "10": "M10",
                  "11": "M11",
                  "12": "M12"
                }
              },
              "stand-alone": {
                "abbreviated": {
                  "1": "M01",
                  "2": "M02",
                  "3": "M03",
                  "4": "M04",
                  "5": "M05",
                  "6": "M06",
                  "7": "M07",
                  "8": "M08",
                  "9": "M09",
                  "10": "M10",
                  "11": "M11",
                  "12": "M12"
                },
                "narrow": {
                  "1": "1",
                  "2": "2",
                  "3": "3",
                  "4": "4",
                  "5": "5",
                  "6": "6",
                  "7": "7",
                  "8": "8",
                  "9": "9",
                  "10": "10",
                  "11": "11",
                  "12": "12"
                },
                "wide": {
                  "1": "M01",
                  "2": "M02",
                  "3": "M03",
                  "4": "M04",
                  "5": "M05",
                  "6": "M06",
                  "7": "M07",
                  "8": "M08",
                  "9": "M09",
                  "10": "M10",
                  "11": "M11",
                  "12": "M12"
                }
              }
            },
            "days": {
              "format": {
                "abbreviated": {
                  "sun": "sø.",
                  "mon": "må.",
                  "tue": "ty.",
                  "wed": "on.",
                  "thu": "to.",
                  "fri": "fr.",
                  "sat": "la."
                },
                "narrow": {
                  "sun": "S",
                  "mon": "M",
                  "tue": "T",
                  "wed": "O",
                  "thu": "T",
                  "fri": "F",
                  "sat": "L"
                },
                "short": {
                  "sun": "sø.",
                  "mon": "må.",
                  "tue": "ty.",
                  "wed": "on.",
                  "thu": "to.",
                  "fri": "fr.",
                  "sat": "la."
                },
                "wide": {
                  "sun": "søndag",
                  "mon": "måndag",
                  "tue": "tysdag",
                  "wed": "onsdag",
                  "thu": "torsdag",
                  "fri": "fredag",
                  "sat": "laurdag"
                }
              },
              "stand-alone": {
                "abbreviated": {
                  "sun": "sø.",
                  "mon": "må.",
                  "tue": "ty.",
                  "wed": "on.",
                  "thu": "to.",
                  "fri": "fr.",
                  "sat": "la."
                },
                "narrow": {
                  "sun": "S",
                  "mon": "M",
                  "tue": "T",
                  "wed": "O",
                  "thu": "T",
                  "fri": "F",
                  "sat": "L"
                },
                "short": {
                  "sun": "sø.",
                  "mon": "må.",
                  "tue": "ty.",
                  "wed": "on.",
                  "thu": "to.",
                  "fri": "fr.",
                  "sat": "la."
                },
                "wide": {
                  "sun": "søndag",
                  "mon": "måndag",
                  "tue": "tysdag",
                  "wed": "onsdag",
                  "thu": "torsdag",
                  "fri": "fredag",
                  "sat": "laurdag"
                }
              }
            },
            "quarters": {
              "format": {
                "abbreviated": {
                  "1": "K1",
                  "2": "K2",
                  "3": "K3",
                  "4": "K4"
                },
                "narrow": {
                  "1": "1",
                  "2": "2",
                  "3": "3",
                  "4": "4"
                },
                "wide": {
                  "1": "1. kvartal",
                  "2": "2. kvartal",
                  "3": "3. kvartal",
                  "4": "4. kvartal"
                }
              },
              "stand-alone": {
                "abbreviated": {
                  "1": "K1",
                  "2": "K2",
                  "3": "K3",
                  "4": "K4"
                },
                "narrow": {
                  "1": "1",
                  "2": "2",
                  "3": "3",
                  "4": "4"
                },
                "wide": {
                  "1": "1. kvartal",
                  "2": "2. kvartal",
                  "3": "3. kvartal",
                  "4": "4. kvartal"
                }
              }
            },
            "dayPeriods": {
              "format": {
                "abbreviated": {
                  "am": "formiddag",
                  "noon": "noon",
                  "pm": "ettermiddag"
                },
                "narrow": {
                  "am": "a",
                  "noon": "n",
                  "pm": "p"
                },
                "wide": {
                  "am": "formiddag",
                  "noon": "noon",
                  "pm": "ettermiddag"
                }
              },
              "stand-alone": {
                "abbreviated": {
                  "am": "formiddag",
                  "noon": "noon",
                  "pm": "ettermiddag"
                },
                "narrow": {
                  "am": "a",
                  "noon": "n",
                  "pm": "p"
                },
                "wide": {
                  "am": "formiddag",
                  "noon": "noon",
                  "pm": "ettermiddag"
                }
              }
            },
            "eras": {
              "eraNames": {
                "0": "ERA0",
                "1": "ERA1"
              },
              "eraAbbr": {
                "0": "ERA0",
                "1": "ERA1"
              },
              "eraNarrow": {
                "0": "ERA0",
                "1": "ERA1"
              }
            },
            "dateFormats": {
              "full": "EEEE d. MMMM y G",
              "long": "d. MMMM y G",
              "medium": "d. MMM y G",
              "short": "d.M y G"
            },
            "timeFormats": {
              "full": "'kl'. HH:mm:ss zzzz",
              "long": "HH:mm:ss z",
              "medium": "HH:mm:ss",
              "short": "HH:mm"
            },
            "dateTimeFormats": {
              "full": "{1} {0}",
              "long": "{1} {0}",
              "medium": "{1} {0}",
              "short": "{1} {0}",
              "availableFormats": {
                "E": "ccc",
                "EHm": "E HH:mm",
                "EHms": "E HH:mm:ss",
                "Ed": "E d.",
                "Ehm": "E h:mm a",
                "Ehms": "E h:mm:ss a",
                "Gy": "y G",
                "GyMMM": "MMM y G",
                "GyMMMEd": "E d. MMM y G",
                "GyMMMd": "d. MMM y G",
                "H": "HH",
                "Hm": "HH:mm",
                "Hms": "HH:mm:ss",
                "M": "L",
                "MEd": "E d.M",
                "MMM": "LLL",
                "MMMEd": "E d. MMM",
                "MMMd": "d. MMM",
                "MMdd": "d.M.",
                "Md": "d.M.",
                "d": "d.",
                "h": "h a",
                "hm": "h:mm a",
                "hms": "h:mm:ss a",
                "ms": "mm:ss",
                "y": "y G",
                "yyyy": "y G",
                "yyyyM": "M y G",
                "yyyyMEd": "E d.M.y G",
                "yyyyMM": "MM.y G",
                "yyyyMMM": "MMM y G",
                "yyyyMMMEd": "E d. MMM y G",
                "yyyyMMMM": "MMMM y G",
                "yyyyMMMd": "d. MMM y G",
                "yyyyMd": "d.M.y G",
                "yyyyQQQ": "QQQ y G",
                "yyyyQQQQ": "QQQQ y G"
              },
              "appendItems": {
                "Day": "{0} ({2}: {1})",
                "Day-Of-Week": "{0} {1}",
                "Era": "{1} {0}",
                "Hour": "{0} ({2}: {1})",
                "Minute": "{0} ({2}: {1})",
                "Month": "{0} ({2}: {1})",
                "Quarter": "{0} ({2}: {1})",
                "Second": "{0} ({2}: {1})",
                "Timezone": "{0} {1}",
                "Week": "{0} ({2}: {1})",
                "Year": "{1} {0}"
              },
              "intervalFormats": {
                "intervalFormatFallback": "{0} – {1}",
                "H": {
                  "H": "HH–HH"
                },
                "Hm": {
                  "H": "HH:mm–HH:mm",
                  "m": "HH:mm–HH:mm"
                },
                "Hmv": {
                  "H": "HH:mm–HH:mm v",
                  "m": "HH:mm–HH:mm v"
                },
                "Hv": {
                  "H": "HH–HH v"
                },
                "M": {
                  "M": "M.–M."
                },
                "MEd": {
                  "M": "E dd.MM.–E dd.MM.",
                  "d": "E dd.MM.–E dd.MM."
                },
                "MMM": {
                  "M": "MMM–MMM"
                },
                "MMMEd": {
                  "M": "E d. MMM–E d. MMM",
                  "d": "E d.–E d. MMM"
                },
                "MMMd": {
                  "M": "d. MMM–d. MMM",
                  "d": "d.–d. MMM"
                },
                "Md": {
                  "M": "dd.MM.–dd.MM.",
                  "d": "dd.MM.–dd.MM."
                },
                "d": {
                  "d": "d.–d."
                },
                "h": {
                  "a": "h a – h a",
                  "h": "h–h a"
                },
                "hm": {
                  "a": "h:mm a – h:mm a",
                  "h": "h:mm–h:mm a",
                  "m": "h:mm–h:mm a"
                },
                "hmv": {
                  "a": "h:mm a – h:mm a v",
                  "h": "h:mm–h:mm a v",
                  "m": "h:mm–h:mm a v"
                },
                "hv": {
                  "a": "h a – h a v",
                  "h": "h–h a v"
                },
                "y": {
                  "y": "y–y G"
                },
                "yM": {
                  "M": "MM.y–MM.y G",
                  "y": "MM.y–MM.y G"
                },
                "yMEd": {
                  "M": "E dd.MM.y–E dd.MM.y G",
                  "d": "E dd.MM.y–E dd.MM.y G",
                  "y": "E dd.MM.y–E dd.MM.y G"
                },
                "yMMM": {
                  "M": "MMM–MMM y G",
                  "y": "MMM y–MMM y G"
                },
                "yMMMEd": {
                  "M": "E d. MMM–E d. MMM y G",
                  "d": "E d.–E d. MMM y G",
                  "y": "E d. MMM y–E d. MMM y G"
                },
                "yMMMM": {
                  "M": "MMMM–MMMM y G",
                  "y": "MMMM y–MMMM y G"
                },
                "yMMMd": {
                  "M": "d. MMM–d. MMM y G",
                  "d": "d.–d. MMM y G",
                  "y": "d. MMM y–d. MMM y G"
                },
                "yMd": {
                  "M": "dd.MM.y–dd.MM.y G",
                  "d": "dd.MM.y–dd.MM.y G",
                  "y": "dd.MM.y–dd.MM.y G"
                }
              }
            }
          }
        }
      }
    }
  }
}
