{
  "main": {
    "ks": {
      "identity": {
        "version": {
          "_cldrVersion": "27.0.1",
          "_number": "$Revision: 11294 $"
        },
        "generation": {
          "_date": "$Date: 2015-02-23 16:50:24 -0600 (Mon, 23 Feb 2015) $"
        },
        "language": "ks"
      },
      "numbers": {
        "currencies": {
          "ADP": {
            "displayName": "اٮ۪ڑورَن پیسِٹا",
            "symbol": "ADP"
          },
          "AED": {
            "displayName": "مُتحدہ عرب اِمارات دِرہم",
            "symbol": "AED"
          },
          "AFA": {
            "displayName": "AFA",
            "symbol": "AFA"
          },
          "AFN": {
            "displayName": "افغان افغٲنی",
            "symbol": "AFN"
          },
          "ALL": {
            "displayName": "اٮ۪لبینِیَن لِک",
            "symbol": "ALL"
          },
          "AMD": {
            "displayName": "اَرمانٮ۪ن ڈرٛٮ۪م",
            "symbol": "AMD"
          },
          "ANG": {
            "displayName": "نایدَرلینٛڑ اٮ۪نٹٕلیٖیَن گِلڑَر",
            "symbol": "ANG"
          },
          "AOA": {
            "displayName": "اٮ۪نگولَن کوانزا",
            "symbol": "AOA",
            "symbol-alt-narrow": "Kz"
          },
          "AOK": {
            "displayName": "AOK",
            "symbol": "AOK"
          },
          "AON": {
            "displayName": "AON",
            "symbol": "AON"
          },
          "AOR": {
            "displayName": "اٮ۪نگولَن کوانٛزا رٮ۪جِسٹاڑو",
            "symbol": "AOR"
          },
          "ARA": {
            "displayName": "أرجَنٹیٖن اَسٹرل",
            "symbol": "ARA"
          },
          "ARL": {
            "displayName": "ARL",
            "symbol": "ARL"
          },
          "ARM": {
            "displayName": "ARM",
            "symbol": "ARM"
          },
          "ARP": {
            "displayName": "ARP",
            "symbol": "ARP"
          },
          "ARS": {
            "displayName": "أرجَنٹیٖن پِسو",
            "symbol": "ARS",
            "symbol-alt-narrow": "$"
          },
          "ATS": {
            "displayName": "آسٹریَن شِلِنٛگ",
            "symbol": "ATS"
          },
          "AUD": {
            "displayName": "آسٹریلِیَن ڈالَر",
            "symbol": "A$",
            "symbol-alt-narrow": "$"
          },
          "AWG": {
            "displayName": "اَروبَن فِلورِن",
            "symbol": "AWG"
          },
          "AZM": {
            "displayName": "AZM",
            "symbol": "AZM"
          },
          "AZN": {
            "displayName": "آزَرباجانی مَنَٹ",
            "symbol": "AZN"
          },
          "BAD": {
            "displayName": "بوزنِیاہَرزِگووِنا دیٖنار",
            "symbol": "BAD"
          },
          "BAM": {
            "displayName": "بوزنِیاہَرزِگووِنا کَنوٲٹیبٕل مارٕک",
            "symbol": "BAM",
            "symbol-alt-narrow": "KM"
          },
          "BAN": {
            "displayName": "BAN",
            "symbol": "BAN"
          },
          "BBD": {
            "displayName": "بابیڑِیَن ڈالَر",
            "symbol": "BBD",
            "symbol-alt-narrow": "$"
          },
          "BDT": {
            "displayName": "بَنگلادیٖشی ٹَکا",
            "symbol": "BDT",
            "symbol-alt-narrow": "৳"
          },
          "BEC": {
            "displayName": "BEC",
            "symbol": "BEC"
          },
          "BEF": {
            "displayName": "بَلجِیَن فرینٛک",
            "symbol": "BEF"
          },
          "BEL": {
            "displayName": "BEL",
            "symbol": "BEL"
          },
          "BGL": {
            "displayName": "BGL",
            "symbol": "BGL"
          },
          "BGM": {
            "displayName": "BGM",
            "symbol": "BGM"
          },
          "BGN": {
            "displayName": "بیلگیرِیَن ہاڑ لِو",
            "symbol": "BGN"
          },
          "BGO": {
            "displayName": "BGO",
            "symbol": "BGO"
          },
          "BHD": {
            "displayName": "بحریٖنی دیٖنار",
            "symbol": "BHD"
          },
          "BIF": {
            "displayName": "بُرُنڑِین فرینٛک",
            "symbol": "BIF"
          },
          "BMD": {
            "displayName": "بٔرمیوٗڑَن ڈالَر",
            "symbol": "BMD",
            "symbol-alt-narrow": "$"
          },
          "BND": {
            "displayName": "برٛونی ڈالَر",
            "symbol": "BND",
            "symbol-alt-narrow": "$"
          },
          "BOB": {
            "displayName": "بولِوِیَن بولوینو",
            "symbol": "BOB",
            "symbol-alt-narrow": "Bs"
          },
          "BOL": {
            "displayName": "BOL",
            "symbol": "BOL"
          },
          "BOP": {
            "displayName": "بولویَن پِسو",
            "symbol": "BOP"
          },
          "BOV": {
            "displayName": "بولوِیَن مَوڈال",
            "symbol": "BOV"
          },
          "BRB": {
            "displayName": "برٛازیٖلین کرٛوزِرو نووو",
            "symbol": "BRB"
          },
          "BRC": {
            "displayName": "برٛازیٖلین کرٛوزیڑو",
            "symbol": "BRC"
          },
          "BRE": {
            "displayName": "برٛازیٖلین کرٛوزِرو",
            "symbol": "BRE"
          },
          "BRL": {
            "displayName": "برٛازیٖلین رِیَل",
            "symbol": "R$",
            "symbol-alt-narrow": "R$"
          },
          "BRN": {
            "displayName": "برٛازیٖلین کرٛوزیڑو نووو",
            "symbol": "BRN"
          },
          "BRR": {
            "displayName": "برٛازیٖلین کرٛوزیرو",
            "symbol": "BRR"
          },
          "BRZ": {
            "displayName": "BRZ",
            "symbol": "BRZ"
          },
          "BSD": {
            "displayName": "بہامِیَن ڈالر",
            "symbol": "BSD",
            "symbol-alt-narrow": "$"
          },
          "BTN": {
            "displayName": "بوٗٹینیٖز نگُلٹرٛم",
            "symbol": "BTN"
          },
          "BUK": {
            "displayName": "بٔرمیٖز کیٹ",
            "symbol": "BUK"
          },
          "BWP": {
            "displayName": "بوٹٕسوانَن پُلا",
            "symbol": "BWP",
            "symbol-alt-narrow": "P"
          },
          "BYB": {
            "displayName": "بِلیروشِیَن نِو رِبٕل",
            "symbol": "BYB"
          },
          "BYR": {
            "displayName": "بِلیروشِیَن رِبٕل",
            "symbol": "BYR",
            "symbol-alt-narrow": "р."
          },
          "BZD": {
            "displayName": "بِلِزی ڈالر",
            "symbol": "BZD",
            "symbol-alt-narrow": "$"
          },
          "CAD": {
            "displayName": "کینَڑِیَن ڈالر",
            "symbol": "CA$",
            "symbol-alt-narrow": "$"
          },
          "CDF": {
            "displayName": "کونٛگولیٖز فرٛیک",
            "symbol": "CDF"
          },
          "CHE": {
            "displayName": "وِر یوٗرو",
            "symbol": "CHE"
          },
          "CHF": {
            "displayName": "سُوِز فریک",
            "symbol": "CHF"
          },
          "CHW": {
            "displayName": "وِر فرٛیک",
            "symbol": "CHW"
          },
          "CLE": {
            "displayName": "CLE",
            "symbol": "CLE"
          },
          "CLF": {
            "displayName": "چِلِن یوٗنِڑیدیٖز ڑِ فومیٹو",
            "symbol": "CLF"
          },
          "CLP": {
            "displayName": "چِلِن پِسو",
            "symbol": "CLP",
            "symbol-alt-narrow": "$"
          },
          "CNY": {
            "displayName": "چینیٖز یَن رِنمِنبی",
            "symbol": "CN¥",
            "symbol-alt-narrow": "¥"
          },
          "COP": {
            "displayName": "کولَمبِین پِسو",
            "symbol": "COP",
            "symbol-alt-narrow": "$"
          },
          "COU": {
            "displayName": "ِٖیوٗنِڑیڑ ڑِ ویلور رِیل",
            "symbol": "COU"
          },
          "CRC": {
            "displayName": "کوسٹا رِکَن کولَن",
            "symbol": "CRC",
            "symbol-alt-narrow": "₡"
          },
          "CSD": {
            "displayName": "پرٛون سٔربِین ڈالر",
            "symbol": "CSD"
          },
          "CSK": {
            "displayName": "چِکوسولوواک ہاڑ کوروٗنا",
            "symbol": "CSK"
          },
          "CUC": {
            "displayName": "CUC",
            "symbol": "CUC",
            "symbol-alt-narrow": "$"
          },
          "CUP": {
            "displayName": "کیوٗبَن پِسو",
            "symbol": "CUP",
            "symbol-alt-narrow": "$"
          },
          "CVE": {
            "displayName": "CVE",
            "symbol": "CVE"
          },
          "CYP": {
            "displayName": "کیپروٹ پَوُڑ",
            "symbol": "CYP"
          },
          "CZK": {
            "displayName": "چیک کوریٖنا",
            "symbol": "CZK",
            "symbol-alt-narrow": "Kč"
          },
          "DDM": {
            "displayName": "مٔشرِقی جٔرمَن مارٕک",
            "symbol": "DDM"
          },
          "DEM": {
            "displayName": "جٔرمَن مارٕک",
            "symbol": "DEM"
          },
          "DJF": {
            "displayName": "DJF",
            "symbol": "DJF"
          },
          "DKK": {
            "displayName": "ڈٔنِش کرٛون",
            "symbol": "DKK",
            "symbol-alt-narrow": "kr"
          },
          "DOP": {
            "displayName": "ڈومِنِکَن پِسو",
            "symbol": "DOP",
            "symbol-alt-narrow": "$"
          },
          "DZD": {
            "displayName": "اٮ۪لجیرِیَن ڈیٖنار",
            "symbol": "DZD"
          },
          "ECS": {
            "displayName": "ECS",
            "symbol": "ECS"
          },
          "ECV": {
            "displayName": "ECV",
            "symbol": "ECV"
          },
          "EEK": {
            "displayName": "اٮ۪سٹونِیَن کرٛون",
            "symbol": "EEK"
          },
          "EGP": {
            "displayName": "اِجِپٹِیَن پَوُنڑ",
            "symbol": "EGP",
            "symbol-alt-narrow": "E£"
          },
          "ERN": {
            "displayName": "رِٹریٖن نَفکا",
            "symbol": "ERN"
          },
          "ESA": {
            "displayName": "ESA",
            "symbol": "ESA"
          },
          "ESB": {
            "displayName": "ESB",
            "symbol": "ESB"
          },
          "ESP": {
            "displayName": "سِپینِش پیسِٹا",
            "symbol": "ESP",
            "symbol-alt-narrow": "₧"
          },
          "ETB": {
            "displayName": "اِتھوپِیَن بِر",
            "symbol": "ETB"
          },
          "EUR": {
            "displayName": "یوٗرو",
            "symbol": "€",
            "symbol-alt-narrow": "€"
          },
          "FIM": {
            "displayName": "فِنِش مارکا",
            "symbol": "FIM"
          },
          "FJD": {
            "displayName": "فِجین ڈالر",
            "symbol": "FJD",
            "symbol-alt-narrow": "$"
          },
          "FKP": {
            "displayName": "فیکلینٛڑِس آیلینٛڑ پونٛڑ",
            "symbol": "FKP",
            "symbol-alt-narrow": "£"
          },
          "FRF": {
            "displayName": "فرٛانسِسی فرٛیک",
            "symbol": "FRF"
          },
          "GBP": {
            "displayName": "برطٲنوی پاونٛڑ سٹٔرلِنٛگ",
            "symbol": "£",
            "symbol-alt-narrow": "£"
          },
          "GEK": {
            "displayName": "جارجِیَن کیوٗپَن لَرِٹ",
            "symbol": "GEK"
          },
          "GEL": {
            "displayName": "جارجِیَن لاری",
            "symbol": "GEL"
          },
          "GHC": {
            "displayName": "گَنیٚیَن سٮ۪ڑی(۱۹۷۹–۲٠٠۷)",
            "symbol": "GHC"
          },
          "GHS": {
            "displayName": "گَنیٚیَن سٮ۪ڑی",
            "symbol": "GHS"
          },
          "GIP": {
            "displayName": "گِبریلٹَر پَاونٛڑ",
            "symbol": "GIP",
            "symbol-alt-narrow": "£"
          },
          "GMD": {
            "displayName": "گیمبِیاہُک دلاسی",
            "symbol": "GMD"
          },
          "GNF": {
            "displayName": "گِنِیَن فرٛینٛک",
            "symbol": "GNF",
            "symbol-alt-narrow": "FG"
          },
          "GNS": {
            "displayName": "گِنِیَن سِلی",
            "symbol": "GNS"
          },
          "GQE": {
            "displayName": "اِکویٹورِیَل گِنِیَن اٮ۪کویٖل",
            "symbol": "GQE"
          },
          "GRD": {
            "displayName": "گریٖسُک ڑرٛٮ۪کما",
            "symbol": "GRD"
          },
          "GTQ": {
            "displayName": "گواٹَمالَن قیوٗٹزَل",
            "symbol": "GTQ",
            "symbol-alt-narrow": "Q"
          },
          "GWE": {
            "displayName": "پورتگیٖزُک گِنی اٮ۪سکیوٗڑو",
            "symbol": "GWE"
          },
          "GWP": {
            "displayName": "گِنی بِساوُک پٮ۪سو",
            "symbol": "GWP"
          },
          "GYD": {
            "displayName": "گَیَنیٖزُک ڑالَر",
            "symbol": "GYD",
            "symbol-alt-narrow": "$"
          },
          "HKD": {
            "displayName": "حانٛگ کانٛگُک ڑالَر",
            "symbol": "HK$",
            "symbol-alt-narrow": "$"
          },
          "HNL": {
            "displayName": "حونڑورنُک لٮ۪مپیٖرا",
            "symbol": "HNL",
            "symbol-alt-narrow": "L"
          },
          "HRD": {
            "displayName": "کروایشنُک دیٖنار",
            "symbol": "HRD"
          },
          "HRK": {
            "displayName": "کروایشنُک کوٗنا",
            "symbol": "HRK",
            "symbol-alt-narrow": "kn"
          },
          "HTG": {
            "displayName": "حیشَنُک گوڑ",
            "symbol": "HTG"
          },
          "HUF": {
            "displayName": "حَنگیرِیَن فورِنٛٹ",
            "symbol": "HUF",
            "symbol-alt-narrow": "Ft"
          },
          "IDR": {
            "displayName": "اِنڑونیشیاہُک رُپِیاہ",
            "symbol": "IDR",
            "symbol-alt-narrow": "Rp"
          },
          "IEP": {
            "displayName": "اَیرلینڑُک پاونٛڑ",
            "symbol": "IEP"
          },
          "ILP": {
            "displayName": "اِزرٲیِلی پاونٛڑ",
            "symbol": "ILP"
          },
          "ILS": {
            "displayName": "اِزرٲیِلی نٔوۍ شٮ۪قٕل",
            "symbol": "₪",
            "symbol-alt-narrow": "₪"
          },
          "INR": {
            "displayName": "ہِندُستٲنۍ رۄپَے",
            "symbol": "₹",
            "symbol-alt-narrow": "₹"
          },
          "IQD": {
            "displayName": "ایٖراقُک دیٖنار",
            "symbol": "IQD"
          },
          "IRR": {
            "displayName": "ایٖرانُک رِیال",
            "symbol": "IRR"
          },
          "ISK": {
            "displayName": "اَیسلینٛڑُک کرٛونا",
            "symbol": "ISK",
            "symbol-alt-narrow": "kr"
          },
          "ITL": {
            "displayName": "اِٹلیٖ یُک لیٖرا",
            "symbol": "ITL"
          },
          "JMD": {
            "displayName": "جَمَیکاہُک ڑالَر",
            "symbol": "JMD",
            "symbol-alt-narrow": "$"
          },
          "JOD": {
            "displayName": "جَرڑینیاہُک دیٖنار",
            "symbol": "JOD"
          },
          "JPY": {
            "displayName": "جاپانُک یَن",
            "symbol": "JP¥",
            "symbol-alt-narrow": "¥"
          },
          "KES": {
            "displayName": "کٮ۪نیَن شِلِنٛگ",
            "symbol": "KES"
          },
          "KGS": {
            "displayName": "کِرگِستانُک سوم",
            "symbol": "KGS"
          },
          "KHR": {
            "displayName": "کَمبوڑِیاہُک رِیال",
            "symbol": "KHR",
            "symbol-alt-narrow": "៛"
          },
          "KMF": {
            "displayName": "کومورِیَن فرٛینٛک",
            "symbol": "KMF",
            "symbol-alt-narrow": "CF"
          },
          "KPW": {
            "displayName": "جنوٗبی کورِیَن وَن",
            "symbol": "KPW",
            "symbol-alt-narrow": "₩"
          },
          "KRH": {
            "displayName": "KRH",
            "symbol": "KRH"
          },
          "KRO": {
            "displayName": "KRO",
            "symbol": "KRO"
          },
          "KRW": {
            "displayName": "ساوتھ کورِیَن وَن",
            "symbol": "₩",
            "symbol-alt-narrow": "₩"
          },
          "KWD": {
            "displayName": "قُویتُک دیٖنار",
            "symbol": "KWD"
          },
          "KYD": {
            "displayName": "کیمین ججیٖرُک ڑالَر",
            "symbol": "KYD",
            "symbol-alt-narrow": "$"
          },
          "KZT": {
            "displayName": "کزاکِستان ٹینٛج",
            "symbol": "KZT",
            "symbol-alt-narrow": "₸"
          },
          "LAK": {
            "displayName": "لَوٹِیَن کِپ",
            "symbol": "LAK",
            "symbol-alt-narrow": "₭"
          },
          "LBP": {
            "displayName": "لیبنیٖزُک پاونٛڑ",
            "symbol": "LBP",
            "symbol-alt-narrow": "L£"
          },
          "LKR": {
            "displayName": "سری لَنکاہٕچ رۄپَے",
            "symbol": "LKR",
            "symbol-alt-narrow": "Rs"
          },
          "LRD": {
            "displayName": "لَیبیرِیَن ڑالَر",
            "symbol": "LRD",
            "symbol-alt-narrow": "$"
          },
          "LSL": {
            "displayName": "لِسوتھو لوٹی",
            "symbol": "LSL"
          },
          "LTL": {
            "displayName": "لِتھوینِیَن لِٹاس",
            "symbol": "LTL",
            "symbol-alt-narrow": "Lt"
          },
          "LTT": {
            "displayName": "لِتھوینِیَن ٹٮ۪لوناس",
            "symbol": "LTT"
          },
          "LUC": {
            "displayName": "لَکزٕمبورگِیَن کَنؤرٹِبٕل فرٛینٛک",
            "symbol": "LUC"
          },
          "LUF": {
            "displayName": "لَکزٕمبورگِیَن فرٛینٛک",
            "symbol": "LUF"
          },
          "LUL": {
            "displayName": "لَکزٕمبوگ فَینانشَل فرٛینٛک",
            "symbol": "LUL"
          },
          "LVL": {
            "displayName": "لَتوِیَن لیٹس",
            "symbol": "LVL",
            "symbol-alt-narrow": "Ls"
          },
          "LVR": {
            "displayName": "لَتوِیَن رَبٕل",
            "symbol": "LVR"
          },
          "LYD": {
            "displayName": "لِبیَن دیٖنار",
            "symbol": "LYD"
          },
          "MAD": {
            "displayName": "موروکَن دِرہَم",
            "symbol": "MAD"
          },
          "MAF": {
            "displayName": "موروکَن فرٛینٛک",
            "symbol": "MAF"
          },
          "MCF": {
            "displayName": "MCF",
            "symbol": "MCF"
          },
          "MDC": {
            "displayName": "MDC",
            "symbol": "MDC"
          },
          "MDL": {
            "displayName": "مولڑووین لیوٗ",
            "symbol": "MDL"
          },
          "MGA": {
            "displayName": "مٮ۪لٮ۪گیسی اٮ۪ریَری",
            "symbol": "MGA",
            "symbol-alt-narrow": "Ar"
          },
          "MGF": {
            "displayName": "مٮ۪لٮ۪گیسی فرٛینٛک",
            "symbol": "MGF"
          },
          "MKD": {
            "displayName": "مٮ۪کَڑونِیَن دیٖنار",
            "symbol": "MKD"
          },
          "MKN": {
            "displayName": "MKN",
            "symbol": "MKN"
          },
          "MLF": {
            "displayName": "میلِیَن فرٛینٛک",
            "symbol": "MLF"
          },
          "MMK": {
            "displayName": "مِیانما کیاٹ",
            "symbol": "MMK",
            "symbol-alt-narrow": "K"
          },
          "MNT": {
            "displayName": "مۄنگولِیَن ٹُگرِک",
            "symbol": "MNT",
            "symbol-alt-narrow": "₮"
          },
          "MOP": {
            "displayName": "مٮ۪کانیٖز پَٹاکا",
            "symbol": "MOP"
          },
          "MRO": {
            "displayName": "مورِٹینِیَن عوگیوٗیا",
            "symbol": "MRO"
          },
          "MTL": {
            "displayName": "مالٹیٖزُک لیٖرا",
            "symbol": "MTL"
          },
          "MTP": {
            "displayName": "مالٹیٖزُک پاونٛڑ",
            "symbol": "MTP"
          },
          "MUR": {
            "displayName": "مورٮ۪شِیاہٕچ رۄپَے",
            "symbol": "MUR",
            "symbol-alt-narrow": "Rs"
          },
          "MVR": {
            "displayName": "مالدِیٖوِیَن رُفِیا",
            "symbol": "MVR"
          },
          "MWK": {
            "displayName": "مٮ۪لیوِیَن کواچا",
            "symbol": "MWK"
          },
          "MXN": {
            "displayName": "مٮ۪کسِکَن پٮ۪سو",
            "symbol": "MX$",
            "symbol-alt-narrow": "$"
          },
          "MXP": {
            "displayName": "مٮ۪کسِکَن سِلوَر پٮ۪سو (۱۸۶۱–۱۹۹۲)",
            "symbol": "MXP"
          },
          "MXV": {
            "displayName": "MXV",
            "symbol": "MXV"
          },
          "MYR": {
            "displayName": "مَلیشِیَن رِنٛگِٹ",
            "symbol": "MYR",
            "symbol-alt-narrow": "RM"
          },
          "MZE": {
            "displayName": "موزیمبِکَن سکیوٗڑو",
            "symbol": "MZE"
          },
          "MZM": {
            "displayName": "پرٛون موزیمبِکَن مٮ۪ٹِکَل",
            "symbol": "MZM"
          },
          "MZN": {
            "displayName": "موزیمبِکَن مٮ۪ٹِکَل",
            "symbol": "MZN"
          },
          "NAD": {
            "displayName": "نامِبِیَن ڑالَر",
            "symbol": "NAD",
            "symbol-alt-narrow": "$"
          },
          "NGN": {
            "displayName": "نَیجیرِیَن ڑالَر",
            "symbol": "NGN",
            "symbol-alt-narrow": "₦"
          },
          "NIC": {
            "displayName": "نِکٮ۪راگُوٮ۪ن کورڑوبا",
            "symbol": "NIC"
          },
          "NIO": {
            "displayName": "نِکٮ۪راگُوٮ۪ن کورڑوبا اورو",
            "symbol": "NIO",
            "symbol-alt-narrow": "C$"
          },
          "NLG": {
            "displayName": "ڈَچ گِلڑَر",
            "symbol": "NLG"
          },
          "NOK": {
            "displayName": "نورویٚیِنُک کرٛون",
            "symbol": "NOK",
            "symbol-alt-narrow": "kr"
          },
          "NPR": {
            "displayName": "نیپالٕچ رۄپَے",
            "symbol": "NPR",
            "symbol-alt-narrow": "Rs"
          },
          "NZD": {
            "displayName": "نِوزیٖلینٛڑُک ڑالَر",
            "symbol": "NZ$",
            "symbol-alt-narrow": "$"
          },
          "OMR": {
            "displayName": "اومِنی رِیال",
            "symbol": "OMR"
          },
          "PAB": {
            "displayName": "پانامانِیَن بالبوز",
            "symbol": "PAB"
          },
          "PEI": {
            "displayName": "پٔریوٗوِیَن اِنٛٹی",
            "symbol": "PEI"
          },
          "PEN": {
            "displayName": "پٔریوٗوِیَن نیوٗاوز سولٕز",
            "symbol": "PEN"
          },
          "PES": {
            "displayName": "پٔریوٗوِیَن سول",
            "symbol": "PES"
          },
          "PGK": {
            "displayName": "نیوٗ پیپُعا گِنِیَن کیٖنا",
            "symbol": "PGK"
          },
          "PHP": {
            "displayName": "پھِلِپایِٔن پٮ۪سو",
            "symbol": "PHP",
            "symbol-alt-narrow": "₱"
          },
          "PKR": {
            "displayName": "پاکِستٲنۍ رۄپَے",
            "symbol": "PKR",
            "symbol-alt-narrow": "Rs"
          },
          "PLN": {
            "displayName": "پولِش زلوٹی",
            "symbol": "PLN",
            "symbol-alt-narrow": "zł"
          },
          "PLZ": {
            "displayName": "پولِش زلوٹی(۱۹۵٠–۱۹۹۵)",
            "symbol": "PLZ"
          },
          "PTE": {
            "displayName": "پورتُگیٖز اٮ۪سکیوٗڑو",
            "symbol": "PTE"
          },
          "PYG": {
            "displayName": "پٮ۪رٮ۪گیوٗوَیَن گُعارانی",
            "symbol": "PYG",
            "symbol-alt-narrow": "₲"
          },
          "QAR": {
            "displayName": "قطاری رِیال",
            "symbol": "QAR"
          },
          "RHD": {
            "displayName": "رھوڑیشِیَن ڑالَر",
            "symbol": "RHD"
          },
          "ROL": {
            "displayName": "اولڑ رومانِیَن لٮ۪یوٗ",
            "symbol": "ROL"
          },
          "RON": {
            "displayName": "رومانِیَن لٮ۪یوٗ",
            "symbol": "RON"
          },
          "RSD": {
            "displayName": "سٔربِیَن دیٖنار",
            "symbol": "RSD"
          },
          "RUB": {
            "displayName": "رٔشیَن رَبٕل",
            "symbol": "RUB",
            "symbol-alt-variant": "₽"
          },
          "RUR": {
            "displayName": "رٔشیَن رَبٕل(۱۹۹۱–۱۹۹۸)",
            "symbol": "RUR",
            "symbol-alt-narrow": "р."
          },
          "RWF": {
            "displayName": "روانٛڑَن فرانٛک",
            "symbol": "RWF",
            "symbol-alt-narrow": "RF"
          },
          "SAR": {
            "displayName": "سودیٖیُک رِیال",
            "symbol": "SAR"
          },
          "SBD": {
            "displayName": "سولَمَن جٔزیٖرُک ڈالَر",
            "symbol": "SBD",
            "symbol-alt-narrow": "$"
          },
          "SCR": {
            "displayName": "SCR",
            "symbol": "SCR"
          },
          "SDD": {
            "displayName": "پرون سوٗڈانُک دیٖنار",
            "symbol": "SDD"
          },
          "SDG": {
            "displayName": "سوٗڈانُک پونٛڈ",
            "symbol": "SDG"
          },
          "SDP": {
            "displayName": "پرون سوٗڈانُک پونٛڈ",
            "symbol": "SDP"
          },
          "SEK": {
            "displayName": "سویٖڈِش کَرونا",
            "symbol": "SEK",
            "symbol-alt-narrow": "kr"
          },
          "SGD": {
            "displayName": "سِنگاپورُک ڈالَر",
            "symbol": "SGD",
            "symbol-alt-narrow": "$"
          },
          "SHP": {
            "displayName": "سینٹ ہیلِنا پونٛڈ",
            "symbol": "SHP",
            "symbol-alt-narrow": "£"
          },
          "SIT": {
            "displayName": "سلووینُک ٹولَر",
            "symbol": "SIT"
          },
          "SKK": {
            "displayName": "سلووَک کَرونا",
            "symbol": "SKK"
          },
          "SLL": {
            "displayName": "SLL",
            "symbol": "SLL"
          },
          "SOS": {
            "displayName": "سومالی شِلِنٛگ",
            "symbol": "SOS"
          },
          "SRD": {
            "displayName": "سُریٖنامُک ڈالَر",
            "symbol": "SRD",
            "symbol-alt-narrow": "$"
          },
          "SRG": {
            "displayName": "سُریٖنام گِلدَر",
            "symbol": "SRG"
          },
          "SSP": {
            "displayName": "SSP",
            "symbol": "SSP",
            "symbol-alt-narrow": "£"
          },
          "STD": {
            "displayName": "STD",
            "symbol": "STD",
            "symbol-alt-narrow": "Db"
          },
          "SUR": {
            "displayName": "سوویت روبٕل",
            "symbol": "SUR"
          },
          "SVC": {
            "displayName": "سَلویدَرُک کولَن",
            "symbol": "SVC"
          },
          "SYP": {
            "displayName": "سیٖریاہُک پونٛڈ",
            "symbol": "SYP",
            "symbol-alt-narrow": "£"
          },
          "SZL": {
            "displayName": "سوازی لِلَنگیٚنی",
            "symbol": "SZL"
          },
          "THB": {
            "displayName": "تھایھک بات",
            "symbol": "THB",
            "symbol-alt-narrow": "฿"
          },
          "TJR": {
            "displayName": "تاجکِستانُک رَبٕل",
            "symbol": "TJR"
          },
          "TJS": {
            "displayName": "تاجِکتانُک سَمونی",
            "symbol": "TJS"
          },
          "TMM": {
            "displayName": "تُکَمَنِستانُک مَنَت",
            "symbol": "TMM"
          },
          "TMT": {
            "displayName": "TMT",
            "symbol": "TMT"
          },
          "TND": {
            "displayName": "ٹُنیشیاہُک دیٖنار",
            "symbol": "TND"
          },
          "TOP": {
            "displayName": "ٹونگَن پانٛگا",
            "symbol": "TOP",
            "symbol-alt-narrow": "T$"
          },
          "TPE": {
            "displayName": "ٹیموریٚسو ایٚکیٖڈو",
            "symbol": "TPE"
          },
          "TRL": {
            "displayName": "پرون تُرکِش لیرا",
            "symbol": "TRL"
          },
          "TRY": {
            "displayName": "تُرکیہُک لیرا",
            "symbol": "TRY",
            "symbol-alt-narrow": "₺",
            "symbol-alt-variant": "TL"
          },
          "TTD": {
            "displayName": "ٹرِنہِ ڈیڈ تہٕ ٹوبیگو ڈالَر",
            "symbol": "TTD",
            "symbol-alt-narrow": "$"
          },
          "TWD": {
            "displayName": "نوٚو تیوانُک ڈالَر",
            "symbol": "NT$",
            "symbol-alt-narrow": "NT$"
          },
          "TZS": {
            "displayName": "تَنزانیاہُک شِلِنٛگ",
            "symbol": "TZS"
          },
          "UAH": {
            "displayName": "یوٗکرینیاہُک ہرِوِنیا",
            "symbol": "UAH",
            "symbol-alt-narrow": "₴"
          },
          "UAK": {
            "displayName": "یوٗکرینیاہُک کاربووَنیٹس",
            "symbol": "UAK"
          },
          "UGS": {
            "displayName": "اُگاداہُک شِلِنٛگ(۱۹۶۶–۱۹۸۷)",
            "symbol": "UGS"
          },
          "UGX": {
            "displayName": "اُگاداہُک شِلِنٛگ",
            "symbol": "UGX"
          },
          "USD": {
            "displayName": "یوٗ ایٚس ڈالَر",
            "symbol": "US$",
            "symbol-alt-narrow": "$"
          },
          "USN": {
            "displayName": "یوٗ ایٚس ڈالَر(پَگاہ)",
            "symbol": "USN"
          },
          "USS": {
            "displayName": "یوٗ ایٚس ڈالَر(تَمی دًۄہ)",
            "symbol": "USS"
          },
          "UYI": {
            "displayName": "اُرگایَن پیٚسو یوٗنِڈیڈَس اِنڈیٚکسَس",
            "symbol": "UYI"
          },
          "UYP": {
            "displayName": "اُرگایَن پیٚسو(۱۹۷۵–۱۹۹۳)",
            "symbol": "UYP"
          },
          "UYU": {
            "displayName": "اُروٗگایَن پیٚسو",
            "symbol": "UYU",
            "symbol-alt-narrow": "$"
          },
          "UZS": {
            "displayName": "اُبیکِستان سوم",
            "symbol": "UZS"
          },
          "VEB": {
            "displayName": "وینٕزوٗلیُک بولِوَر (۱۸۷۱–۲۰۰۸)",
            "symbol": "VEB"
          },
          "VEF": {
            "displayName": "وینٕزوٗلیُک بولِوَر",
            "symbol": "VEF",
            "symbol-alt-narrow": "Bs"
          },
          "VND": {
            "displayName": "وِیَنَمُک ڈانٛگ",
            "symbol": "₫",
            "symbol-alt-narrow": "₫"
          },
          "VNN": {
            "displayName": "VNN",
            "symbol": "VNN"
          },
          "VUV": {
            "displayName": "وَنوٗاَتوٗ وَتوٗ",
            "symbol": "VUV"
          },
          "WST": {
            "displayName": "سَمون تَلا",
            "symbol": "WST"
          },
          "XAF": {
            "displayName": "سی ایٚف اے فرینک بی ایٖ اے سی",
            "symbol": "FCFA"
          },
          "XAG": {
            "displayName": "رۄپھ",
            "symbol": "XAG"
          },
          "XAU": {
            "displayName": "سۄن",
            "symbol": "XAU"
          },
          "XBA": {
            "displayName": "یوٗرپی کَمپوسِٹ یوٗنِٹ",
            "symbol": "XBA"
          },
          "XBB": {
            "displayName": "یوٗرپی مونِٹَری یوٗنِٹ",
            "symbol": "XBB"
          },
          "XBC": {
            "displayName": "یوٗرپی یوٗنِٹ آف ایٚکاوُنٛٹ (ایکس بی سی)",
            "symbol": "XBC"
          },
          "XBD": {
            "displayName": "یوٗرپی یوٗنِٹ آف ایٚکاوُنٛٹ (ایکس بی ڈی)",
            "symbol": "XBD"
          },
          "XCD": {
            "displayName": "مَشرِقی کیرِبِیَن ڈالَر",
            "symbol": "EC$",
            "symbol-alt-narrow": "$"
          },
          "XDR": {
            "displayName": "خاص ڈرایِنٛگ رایٹس",
            "symbol": "XDR"
          },
          "XEU": {
            "displayName": "یوٗرپی کَرَنسی یوٗنِٹ",
            "symbol": "XEU"
          },
          "XFO": {
            "displayName": "فریٚنچ گولڈ فرینک",
            "symbol": "XFO"
          },
          "XFU": {
            "displayName": "فریٛنچ یوٗ اے سی فرینک",
            "symbol": "XFU"
          },
          "XOF": {
            "displayName": "سی ایٚف اے فرینک بی سی ایٖ اے او",
            "symbol": "CFA"
          },
          "XPD": {
            "displayName": "پُلیڈیَم",
            "symbol": "XPD"
          },
          "XPF": {
            "displayName": "سی ایٚف پی فرینک",
            "symbol": "CFPF"
          },
          "XPT": {
            "displayName": "پلیٹِنَم",
            "symbol": "XPT"
          },
          "XRE": {
            "displayName": "آر آے ایٚن ایٖ ٹی فَنٛڈ",
            "symbol": "XRE"
          },
          "XSU": {
            "displayName": "XSU",
            "symbol": "XSU"
          },
          "XTS": {
            "displayName": "ٹیٚسٹِنٛگ کَرَنسی کوڈ",
            "symbol": "XTS"
          },
          "XUA": {
            "displayName": "XUA",
            "symbol": "XUA"
          },
          "XXX": {
            "displayName": "اَنزٲنۍ یا نالَگہٕ ہار سِکہٕ",
            "symbol": "XXX"
          },
          "YDD": {
            "displayName": "یَمنُک دیٖنار",
            "symbol": "YDD"
          },
          "YER": {
            "displayName": "یَمنُک رِیال",
            "symbol": "YER"
          },
          "YUD": {
            "displayName": "یوگوسلاوِیَن ہاڑ دیٖنار",
            "symbol": "YUD"
          },
          "YUM": {
            "displayName": "یوگوسلاوِیَن نووِے دیٖنار",
            "symbol": "YUM"
          },
          "YUN": {
            "displayName": "یوگوسلاوِیَن کَنؤٹِبٕل دیٖنار",
            "symbol": "YUN"
          },
          "YUR": {
            "displayName": "YUR",
            "symbol": "YUR"
          },
          "ZAL": {
            "displayName": "ZAL",
            "symbol": "ZAL"
          },
          "ZAR": {
            "displayName": "ساوُتھ افریٖکاہُک رینڈ",
            "symbol": "ZAR",
            "symbol-alt-narrow": "R"
          },
          "ZMK": {
            "displayName": "زِمبابیُک کواچا (1968–2012)",
            "symbol": "ZMK"
          },
          "ZMW": {
            "displayName": "زِمبابیُک کواچا",
            "symbol": "ZMW",
            "symbol-alt-narrow": "ZK"
          },
          "ZRN": {
            "displayName": "زایرِیَن نِو زایِر",
            "symbol": "ZRN"
          },
          "ZRZ": {
            "displayName": "زَیرُک ڈالَر",
            "symbol": "ZRZ"
          },
          "ZWD": {
            "displayName": "زِمبابِیُک ڈالَر",
            "symbol": "ZWD"
          },
          "ZWL": {
            "displayName": "ZWL",
            "symbol": "ZWL"
          },
          "ZWR": {
            "displayName": "ZWR",
            "symbol": "ZWR"
          }
        }
      }
    }
  }
}
