{
  "main": {
    "yi": {
      "identity": {
        "version": {
          "_cldrVersion": "27.0.1",
          "_number": "$Revision: 10741 $"
        },
        "generation": {
          "_date": "$Date: 2014-08-07 13:24:47 -0500 (Thu, 07 Aug 2014) $"
        },
        "language": "yi"
      },
      "dates": {
        "calendars": {
          "gregorian": {
            "months": {
              "format": {
                "abbreviated": {
                  "1": "יאַנואַר",
                  "2": "פֿעברואַר",
                  "3": "מערץ",
                  "4": "אַפּריל",
                  "5": "מיי",
                  "6": "יוני",
                  "7": "יולי",
                  "8": "אויגוסט",
                  "9": "סעפּטעמבער",
                  "10": "אקטאבער",
                  "11": "נאוועמבער",
                  "12": "דעצעמבער"
                },
                "narrow": {
                  "1": "1",
                  "2": "2",
                  "3": "3",
                  "4": "4",
                  "5": "5",
                  "6": "6",
                  "7": "7",
                  "8": "8",
                  "9": "9",
                  "10": "10",
                  "11": "11",
                  "12": "12"
                },
                "wide": {
                  "1": "יאַנואַר",
                  "2": "פֿעברואַר",
                  "3": "מערץ",
                  "4": "אַפּריל",
                  "5": "מיי",
                  "6": "יוני",
                  "7": "יולי",
                  "8": "אויגוסט",
                  "9": "סעפּטעמבער",
                  "10": "אקטאבער",
                  "11": "נאוועמבער",
                  "12": "דעצעמבער"
                }
              },
              "stand-alone": {
                "abbreviated": {
                  "1": "יאַנ",
                  "2": "פֿעב",
                  "3": "מערץ",
                  "4": "אַפּר",
                  "5": "מיי",
                  "6": "יוני",
                  "7": "יולי",
                  "8": "אויגוסט",
                  "9": "סעפּ",
                  "10": "אקט",
                  "11": "נאוו",
                  "12": "דעצ"
                },
                "narrow": {
                  "1": "1",
                  "2": "2",
                  "3": "3",
                  "4": "4",
                  "5": "5",
                  "6": "6",
                  "7": "7",
                  "8": "8",
                  "9": "9",
                  "10": "10",
                  "11": "11",
                  "12": "12"
                },
                "wide": {
                  "1": "יאַנואַר",
                  "2": "פֿעברואַר",
                  "3": "מערץ",
                  "4": "אַפּריל",
                  "5": "מיי",
                  "6": "יוני",
                  "7": "יולי",
                  "8": "אויגוסט",
                  "9": "סעפּטעמבער",
                  "10": "אקטאבער",
                  "11": "נאוועמבער",
                  "12": "דעצעמבער"
                }
              }
            },
            "days": {
              "format": {
                "abbreviated": {
                  "sun": "זונטיק",
                  "mon": "מאָנטיק",
                  "tue": "דינסטיק",
                  "wed": "מיטוואך",
                  "thu": "דאנערשטיק",
                  "fri": "פֿרײַטיק",
                  "sat": "שבת"
                },
                "narrow": {
                  "sun": "S",
                  "mon": "M",
                  "tue": "T",
                  "wed": "W",
                  "thu": "T",
                  "fri": "F",
                  "sat": "S"
                },
                "short": {
                  "sun": "זונטיק",
                  "mon": "מאָנטיק",
                  "tue": "דינסטיק",
                  "wed": "מיטוואך",
                  "thu": "דאנערשטיק",
                  "fri": "פֿרײַטיק",
                  "sat": "שבת"
                },
                "wide": {
                  "sun": "זונטיק",
                  "mon": "מאָנטיק",
                  "tue": "דינסטיק",
                  "wed": "מיטוואך",
                  "thu": "דאנערשטיק",
                  "fri": "פֿרײַטיק",
                  "sat": "שבת"
                }
              },
              "stand-alone": {
                "abbreviated": {
                  "sun": "זונטיק",
                  "mon": "מאָנטיק",
                  "tue": "דינסטיק",
                  "wed": "מיטוואך",
                  "thu": "דאנערשטיק",
                  "fri": "פֿרײַטיק",
                  "sat": "שבת"
                },
                "narrow": {
                  "sun": "S",
                  "mon": "M",
                  "tue": "T",
                  "wed": "W",
                  "thu": "T",
                  "fri": "F",
                  "sat": "S"
                },
                "short": {
                  "sun": "זונטיק",
                  "mon": "מאָנטיק",
                  "tue": "דינסטיק",
                  "wed": "מיטוואך",
                  "thu": "דאנערשטיק",
                  "fri": "פֿרײַטיק",
                  "sat": "שבת"
                },
                "wide": {
                  "sun": "זונטיק",
                  "mon": "מאָנטיק",
                  "tue": "דינסטיק",
                  "wed": "מיטוואך",
                  "thu": "דאנערשטיק",
                  "fri": "פֿרײַטיק",
                  "sat": "שבת"
                }
              }
            },
            "quarters": {
              "format": {
                "abbreviated": {
                  "1": "Q1",
                  "2": "Q2",
                  "3": "Q3",
                  "4": "Q4"
                },
                "narrow": {
                  "1": "1",
                  "2": "2",
                  "3": "3",
                  "4": "4"
                },
                "wide": {
                  "1": "Q1",
                  "2": "Q2",
                  "3": "Q3",
                  "4": "Q4"
                }
              },
              "stand-alone": {
                "abbreviated": {
                  "1": "Q1",
                  "2": "Q2",
                  "3": "Q3",
                  "4": "Q4"
                },
                "narrow": {
                  "1": "1",
                  "2": "2",
                  "3": "3",
                  "4": "4"
                },
                "wide": {
                  "1": "Q1",
                  "2": "Q2",
                  "3": "Q3",
                  "4": "Q4"
                }
              }
            },
            "dayPeriods": {
              "format": {
                "abbreviated": {
                  "am": "AM",
                  "noon": "האַלבערטאָג",
                  "pm": "PM"
                },
                "narrow": {
                  "am": "a",
                  "noon": "n",
                  "pm": "p"
                },
                "wide": {
                  "am": "AM",
                  "noon": "האַלבערטאָג",
                  "pm": "PM"
                }
              },
              "stand-alone": {
                "abbreviated": {
                  "am": "AM",
                  "noon": "האַלבערטאָג",
                  "pm": "PM"
                },
                "narrow": {
                  "am": "a",
                  "noon": "n",
                  "pm": "p"
                },
                "wide": {
                  "am": "AM",
                  "noon": "האַלבערטאָג",
                  "pm": "PM"
                }
              }
            },
            "eras": {
              "eraNames": {
                "0": "BCE",
                "0-alt-variant": "BCE",
                "1": "CE",
                "1-alt-variant": "CE"
              },
              "eraAbbr": {
                "0": "BCE",
                "0-alt-variant": "BCE",
                "1": "CE",
                "1-alt-variant": "CE"
              },
              "eraNarrow": {
                "0": "BCE",
                "0-alt-variant": "BCE",
                "1": "CE",
                "1-alt-variant": "CE"
              }
            },
            "dateFormats": {
              "full": "EEEE, dטן MMMM y",
              "long": "dטן MMMM y",
              "medium": "dטן MMM y",
              "short": "dd/MM/yy"
            },
            "timeFormats": {
              "full": "HH:mm:ss zzzz",
              "long": "HH:mm:ss z",
              "medium": "HH:mm:ss",
              "short": "HH:mm"
            },
            "dateTimeFormats": {
              "full": "{1} {0}",
              "long": "{1} {0}",
              "medium": "{1} {0}",
              "short": "{1} {0}",
              "availableFormats": {
                "E": "ccc",
                "EHm": "E HH:mm",
                "EHms": "E HH:mm:ss",
                "Ed": "E דעם dטן",
                "Ehm": "E h:mm a",
                "Ehms": "E h:mm:ss a",
                "Gy": "G y",
                "GyMMM": "G y MMM",
                "GyMMMEd": "E דעם dטן MMM yG",
                "GyMMMd": "dטן MMM y G",
                "H": "HH",
                "Hm": "HH:mm",
                "Hms": "HH:mm:ss",
                "Hmsv": "HH:mm:ss v",
                "Hmv": "HH:mm v",
                "M": "L",
                "MEd": "E, d/M",
                "MMM": "LLL",
                "MMMEd": "MMM d, E",
                "MMMd": "MMM d",
                "Md": "MM-dd",
                "d": "d",
                "h": "h a",
                "hm": "h:mm a",
                "hms": "h:mm:ss a",
                "hmsv": "h:mm:ss a v",
                "hmv": "h:mm a v",
                "ms": "mm:ss",
                "y": "y",
                "yM": "y-MM",
                "yMEd": "E, d/M/y",
                "yMM": "MM/y",
                "yMMM": "MMM y",
                "yMMMEd": "E, dטן MMM y",
                "yMMMd": "dטן MMM y",
                "yMd": "d-M-y",
                "yQQQ": "y QQQ",
                "yQQQQ": "y QQQQ"
              },
              "appendItems": {
                "Day": "{0} ({2}: {1})",
                "Day-Of-Week": "{0} {1}",
                "Era": "{1} {0}",
                "Hour": "{0} ({2}: {1})",
                "Minute": "{0} ({2}: {1})",
                "Month": "{0} ({2}: {1})",
                "Quarter": "{0} ({2}: {1})",
                "Second": "{0} ({2}: {1})",
                "Timezone": "{1} {0}",
                "Week": "{0} ({2}: {1})",
                "Year": "{1} {0}"
              },
              "intervalFormats": {
                "intervalFormatFallback": "{0} – {1}",
                "H": {
                  "H": "HH–HH"
                },
                "Hm": {
                  "H": "HH:mm–HH:mm",
                  "m": "HH:mm–HH:mm"
                },
                "Hmv": {
                  "H": "HH:mm–HH:mm v",
                  "m": "HH:mm–HH:mm v"
                },
                "Hv": {
                  "H": "HH–HH v"
                },
                "M": {
                  "M": "MM–MM"
                },
                "MEd": {
                  "M": "EEEE dd/MM – EEEE dd/MM",
                  "d": "EEEE dd/MM – EEEE dd/MM"
                },
                "MMM": {
                  "M": "LLL–LLL"
                },
                "MMMEd": {
                  "M": "EEEE d MMM – EEEE d MMM",
                  "d": "EEEE d MMM – EEEE d MMM"
                },
                "MMMM": {
                  "M": "LLLL–LLLL"
                },
                "MMMd": {
                  "M": "d MMM – d MMM",
                  "d": "d–d MMM"
                },
                "Md": {
                  "M": "dd/MM – dd/MM",
                  "d": "dd/MM – dd/MM"
                },
                "d": {
                  "d": "d–d"
                },
                "h": {
                  "a": "h a – h a",
                  "h": "h–h a"
                },
                "hm": {
                  "a": "h:mm a – h:mm a",
                  "h": "h:mm–h:mm a",
                  "m": "h:mm–h:mm a"
                },
                "hmv": {
                  "a": "h:mm a – h:mm a v",
                  "h": "h:mm–h:mm a v",
                  "m": "h:mm–h:mm a v"
                },
                "hv": {
                  "a": "h a – h a v",
                  "h": "h–h a v"
                },
                "y": {
                  "y": "y–y"
                },
                "yM": {
                  "M": "MM/y – MM/y",
                  "y": "MM/y – MM/y"
                },
                "yMEd": {
                  "M": "EEEE dd/MM/y – EEEE dd/MM/y",
                  "d": "EEEE dd/MM/y – EEEE dd/MM/y",
                  "y": "EEEE dd/MM/y – EEEE dd/MM/y"
                },
                "yMMM": {
                  "M": "MMM–MMM y",
                  "y": "MMM y – MMM y"
                },
                "yMMMEd": {
                  "M": "EEEE d MMM – EEEE d MMM y",
                  "d": "EEEE d MMM – EEEE d MMM y",
                  "y": "EEEE d MMM y – EEEE d MMM y"
                },
                "yMMMM": {
                  "M": "MMMM–MMMM y",
                  "y": "MMMM y–MMMM y"
                },
                "yMMMd": {
                  "M": "d MMM – d MMM y",
                  "d": "d–d MMM y",
                  "y": "d MMM y – d MMM y"
                },
                "yMd": {
                  "M": "dd/MM/y – dd/MM/y",
                  "d": "y-MM-dd – y-MM-dd",
                  "y": "dd/MM/y – dd/MM/y"
                }
              }
            }
          }
        }
      }
    }
  }
}
