{
  "main": {
    "os-RU": {
      "identity": {
        "version": {
          "_cldrVersion": "27.0.1",
          "_number": "$Revision: 10669 $"
        },
        "generation": {
          "_date": "$Date: 2014-07-23 16:10:33 -0500 (Wed, 23 Jul 2014) $"
        },
        "language": "os",
        "territory": "RU"
      },
      "dates": {
        "fields": {
          "era": {
            "displayName": "Дуг"
          },
          "year": {
            "displayName": "Аз",
            "relative-type--1": "last year",
            "relative-type-0": "this year",
            "relative-type-1": "next year",
            "relativeTime-type-future": {
              "relativeTimePattern-count-other": "+{0} y"
            },
            "relativeTime-type-past": {
              "relativeTimePattern-count-other": "-{0} y"
            }
          },
          "year-short": {
            "displayName": "Аз",
            "relative-type--1": "last year",
            "relative-type-0": "this year",
            "relative-type-1": "next year",
            "relativeTime-type-future": {
              "relativeTimePattern-count-other": "+{0} y"
            },
            "relativeTime-type-past": {
              "relativeTimePattern-count-other": "-{0} y"
            }
          },
          "year-narrow": {
            "displayName": "Аз",
            "relative-type--1": "last year",
            "relative-type-0": "this year",
            "relative-type-1": "next year",
            "relativeTime-type-future": {
              "relativeTimePattern-count-other": "+{0} y"
            },
            "relativeTime-type-past": {
              "relativeTimePattern-count-other": "-{0} y"
            }
          },
          "quarter": {
            "displayName": "Quarter",
            "relative-type--1": "last quarter",
            "relative-type-0": "this quarter",
            "relative-type-1": "next quarter",
            "relativeTime-type-future": {
              "relativeTimePattern-count-other": "+{0} Q"
            },
            "relativeTime-type-past": {
              "relativeTimePattern-count-other": "-{0} Q"
            }
          },
          "quarter-short": {
            "displayName": "Quarter",
            "relative-type--1": "last quarter",
            "relative-type-0": "this quarter",
            "relative-type-1": "next quarter",
            "relativeTime-type-future": {
              "relativeTimePattern-count-other": "+{0} Q"
            },
            "relativeTime-type-past": {
              "relativeTimePattern-count-other": "-{0} Q"
            }
          },
          "quarter-narrow": {
            "displayName": "Quarter",
            "relative-type--1": "last quarter",
            "relative-type-0": "this quarter",
            "relative-type-1": "next quarter",
            "relativeTime-type-future": {
              "relativeTimePattern-count-other": "+{0} Q"
            },
            "relativeTime-type-past": {
              "relativeTimePattern-count-other": "-{0} Q"
            }
          },
          "month": {
            "displayName": "Мӕй",
            "relative-type--1": "last month",
            "relative-type-0": "this month",
            "relative-type-1": "next month",
            "relativeTime-type-future": {
              "relativeTimePattern-count-other": "+{0} m"
            },
            "relativeTime-type-past": {
              "relativeTimePattern-count-other": "-{0} m"
            }
          },
          "month-short": {
            "displayName": "Мӕй",
            "relative-type--1": "last month",
            "relative-type-0": "this month",
            "relative-type-1": "next month",
            "relativeTime-type-future": {
              "relativeTimePattern-count-other": "+{0} m"
            },
            "relativeTime-type-past": {
              "relativeTimePattern-count-other": "-{0} m"
            }
          },
          "month-narrow": {
            "displayName": "Мӕй",
            "relative-type--1": "last month",
            "relative-type-0": "this month",
            "relative-type-1": "next month",
            "relativeTime-type-future": {
              "relativeTimePattern-count-other": "+{0} m"
            },
            "relativeTime-type-past": {
              "relativeTimePattern-count-other": "-{0} m"
            }
          },
          "week": {
            "displayName": "Къуыри",
            "relative-type--1": "last week",
            "relative-type-0": "this week",
            "relative-type-1": "next week",
            "relativeTime-type-future": {
              "relativeTimePattern-count-other": "+{0} w"
            },
            "relativeTime-type-past": {
              "relativeTimePattern-count-other": "-{0} w"
            }
          },
          "week-short": {
            "displayName": "Къуыри",
            "relative-type--1": "last week",
            "relative-type-0": "this week",
            "relative-type-1": "next week",
            "relativeTime-type-future": {
              "relativeTimePattern-count-other": "+{0} w"
            },
            "relativeTime-type-past": {
              "relativeTimePattern-count-other": "-{0} w"
            }
          },
          "week-narrow": {
            "displayName": "Къуыри",
            "relative-type--1": "last week",
            "relative-type-0": "this week",
            "relative-type-1": "next week",
            "relativeTime-type-future": {
              "relativeTimePattern-count-other": "+{0} w"
            },
            "relativeTime-type-past": {
              "relativeTimePattern-count-other": "-{0} w"
            }
          },
          "day": {
            "displayName": "Бон",
            "relative-type--1": "Знон",
            "relative-type--2": "Ӕндӕрӕбон",
            "relative-type-0": "Абон",
            "relative-type-1": "Сом",
            "relative-type-2": "Иннӕбон",
            "relativeTime-type-future": {
              "relativeTimePattern-count-one": "{0} боны фӕстӕ",
              "relativeTimePattern-count-other": "{0} боны фӕстӕ"
            },
            "relativeTime-type-past": {
              "relativeTimePattern-count-one": "{0} бон раздӕр",
              "relativeTimePattern-count-other": "{0} боны размӕ"
            }
          },
          "day-short": {
            "displayName": "Бон",
            "relative-type--1": "Знон",
            "relative-type--2": "Ӕндӕрӕбон",
            "relative-type-0": "Абон",
            "relative-type-1": "Сом",
            "relative-type-2": "Иннӕбон",
            "relativeTime-type-future": {
              "relativeTimePattern-count-one": "{0} боны фӕстӕ",
              "relativeTimePattern-count-other": "{0} боны фӕстӕ"
            },
            "relativeTime-type-past": {
              "relativeTimePattern-count-one": "{0} боны размӕ",
              "relativeTimePattern-count-other": "{0} боны размӕ"
            }
          },
          "day-narrow": {
            "displayName": "Бон",
            "relative-type--1": "Знон",
            "relative-type--2": "Ӕндӕрӕбон",
            "relative-type-0": "Абон",
            "relative-type-1": "Сом",
            "relative-type-2": "Иннӕбон",
            "relativeTime-type-future": {
              "relativeTimePattern-count-one": "{0} боны фӕстӕ",
              "relativeTimePattern-count-other": "{0} боны фӕстӕ"
            },
            "relativeTime-type-past": {
              "relativeTimePattern-count-one": "{0} боны размӕ",
              "relativeTimePattern-count-other": "{0} боны размӕ"
            }
          },
          "weekday": {
            "displayName": "Къуырийы бон"
          },
          "sun": {
            "relative-type--1": "last Sunday",
            "relative-type-0": "this Sunday",
            "relative-type-1": "next Sunday"
          },
          "sun-short": {
            "relative-type--1": "last Sunday",
            "relative-type-0": "this Sunday",
            "relative-type-1": "next Sunday"
          },
          "sun-narrow": {
            "relative-type--1": "last Sunday",
            "relative-type-0": "this Sunday",
            "relative-type-1": "next Sunday"
          },
          "mon": {
            "relative-type--1": "last Monday",
            "relative-type-0": "this Monday",
            "relative-type-1": "next Monday"
          },
          "mon-short": {
            "relative-type--1": "last Monday",
            "relative-type-0": "this Monday",
            "relative-type-1": "next Monday"
          },
          "mon-narrow": {
            "relative-type--1": "last Monday",
            "relative-type-0": "this Monday",
            "relative-type-1": "next Monday"
          },
          "tue": {
            "relative-type--1": "last Tuesday",
            "relative-type-0": "this Tuesday",
            "relative-type-1": "next Tuesday"
          },
          "tue-short": {
            "relative-type--1": "last Tuesday",
            "relative-type-0": "this Tuesday",
            "relative-type-1": "next Tuesday"
          },
          "tue-narrow": {
            "relative-type--1": "last Tuesday",
            "relative-type-0": "this Tuesday",
            "relative-type-1": "next Tuesday"
          },
          "wed": {
            "relative-type--1": "last Wednesday",
            "relative-type-0": "this Wednesday",
            "relative-type-1": "next Wednesday"
          },
          "wed-short": {
            "relative-type--1": "last Wednesday",
            "relative-type-0": "this Wednesday",
            "relative-type-1": "next Wednesday"
          },
          "wed-narrow": {
            "relative-type--1": "last Wednesday",
            "relative-type-0": "this Wednesday",
            "relative-type-1": "next Wednesday"
          },
          "thu": {
            "relative-type--1": "last Thursday",
            "relative-type-0": "this Thursday",
            "relative-type-1": "next Thursday"
          },
          "thu-short": {
            "relative-type--1": "last Thursday",
            "relative-type-0": "this Thursday",
            "relative-type-1": "next Thursday"
          },
          "thu-narrow": {
            "relative-type--1": "last Thursday",
            "relative-type-0": "this Thursday",
            "relative-type-1": "next Thursday"
          },
          "fri": {
            "relative-type--1": "last Friday",
            "relative-type-0": "this Friday",
            "relative-type-1": "next Friday"
          },
          "fri-short": {
            "relative-type--1": "last Friday",
            "relative-type-0": "this Friday",
            "relative-type-1": "next Friday"
          },
          "fri-narrow": {
            "relative-type--1": "last Friday",
            "relative-type-0": "this Friday",
            "relative-type-1": "next Friday"
          },
          "sat": {
            "relative-type--1": "last Saturday",
            "relative-type-0": "this Saturday",
            "relative-type-1": "next Saturday"
          },
          "sat-short": {
            "relative-type--1": "last Saturday",
            "relative-type-0": "this Saturday",
            "relative-type-1": "next Saturday"
          },
          "sat-narrow": {
            "relative-type--1": "last Saturday",
            "relative-type-0": "this Saturday",
            "relative-type-1": "next Saturday"
          },
          "dayperiod": {
            "displayName": "Боны период"
          },
          "hour": {
            "displayName": "Сахат",
            "relativeTime-type-future": {
              "relativeTimePattern-count-one": "{0} сахаты фӕстӕ",
              "relativeTimePattern-count-other": "{0} сахаты фӕстӕ"
            },
            "relativeTime-type-past": {
              "relativeTimePattern-count-one": "{0} сахаты размӕ",
              "relativeTimePattern-count-other": "{0} сахаты размӕ"
            }
          },
          "hour-short": {
            "displayName": "Сахат",
            "relativeTime-type-future": {
              "relativeTimePattern-count-one": "{0} сахаты фӕстӕ",
              "relativeTimePattern-count-other": "{0} сахаты фӕстӕ"
            },
            "relativeTime-type-past": {
              "relativeTimePattern-count-one": "{0} сахаты размӕ",
              "relativeTimePattern-count-other": "{0} сахаты размӕ"
            }
          },
          "hour-narrow": {
            "displayName": "Сахат",
            "relativeTime-type-future": {
              "relativeTimePattern-count-one": "{0} сахаты фӕстӕ",
              "relativeTimePattern-count-other": "{0} сахаты фӕстӕ"
            },
            "relativeTime-type-past": {
              "relativeTimePattern-count-one": "{0} сахаты размӕ",
              "relativeTimePattern-count-other": "{0} сахаты размӕ"
            }
          },
          "minute": {
            "displayName": "Минут",
            "relativeTime-type-future": {
              "relativeTimePattern-count-other": "+{0} min"
            },
            "relativeTime-type-past": {
              "relativeTimePattern-count-other": "-{0} min"
            }
          },
          "minute-short": {
            "displayName": "Минут",
            "relativeTime-type-future": {
              "relativeTimePattern-count-other": "+{0} min"
            },
            "relativeTime-type-past": {
              "relativeTimePattern-count-other": "-{0} min"
            }
          },
          "minute-narrow": {
            "displayName": "Минут",
            "relativeTime-type-future": {
              "relativeTimePattern-count-other": "+{0} min"
            },
            "relativeTime-type-past": {
              "relativeTimePattern-count-other": "-{0} min"
            }
          },
          "second": {
            "displayName": "Секунд",
            "relative-type-0": "now",
            "relativeTime-type-future": {
              "relativeTimePattern-count-other": "+{0} s"
            },
            "relativeTime-type-past": {
              "relativeTimePattern-count-other": "-{0} s"
            }
          },
          "second-short": {
            "displayName": "Секунд",
            "relative-type-0": "now",
            "relativeTime-type-future": {
              "relativeTimePattern-count-other": "+{0} s"
            },
            "relativeTime-type-past": {
              "relativeTimePattern-count-other": "-{0} s"
            }
          },
          "second-narrow": {
            "displayName": "Секунд",
            "relative-type-0": "now",
            "relativeTime-type-future": {
              "relativeTimePattern-count-other": "+{0} s"
            },
            "relativeTime-type-past": {
              "relativeTimePattern-count-other": "-{0} s"
            }
          },
          "zone": {
            "displayName": "Рӕстӕджы зонӕ"
          }
        }
      }
    }
  }
}
