{
  "main": {
    "fy": {
      "identity": {
        "version": {
          "_cldrVersion": "27.0.1",
          "_number": "$Revision: 11093 $"
        },
        "generation": {
          "_date": "$Date: 2015-01-02 21:36:02 -0600 (Fri, 02 Jan 2015) $"
        },
        "language": "fy"
      },
      "dates": {
        "timeZoneNames": {
          "hourFormat": "+HH:mm;-HH:mm",
          "gmtFormat": "GMT{0}",
          "gmtZeroFormat": "GMT",
          "regionFormat": "{0}-tiid",
          "regionFormat-type-standard": "Standaardtiid {0}",
          "regionFormat-type-daylight": "Zomertiid {0}",
          "fallbackFormat": "{1} ({0})",
          "zone": {
            "America": {
              "Adak": {
                "exemplarCity": "Adak"
              },
              "Anchorage": {
                "exemplarCity": "Anchorage"
              },
              "Anguilla": {
                "exemplarCity": "Anguilla"
              },
              "Antigua": {
                "exemplarCity": "Antigua"
              },
              "Araguaina": {
                "exemplarCity": "Araguaina"
              },
              "Argentina": {
                "La_Rioja": {
                  "exemplarCity": "La Rioja"
                },
                "Rio_Gallegos": {
                  "exemplarCity": "Río Gallegos"
                },
                "Salta": {
                  "exemplarCity": "Salta"
                },
                "San_Juan": {
                  "exemplarCity": "San Juan"
                },
                "San_Luis": {
                  "exemplarCity": "San Luis"
                },
                "Tucuman": {
                  "exemplarCity": "Tucumán"
                },
                "Ushuaia": {
                  "exemplarCity": "Ushuaia"
                }
              },
              "Aruba": {
                "exemplarCity": "Aruba"
              },
              "Asuncion": {
                "exemplarCity": "Asunción"
              },
              "Bahia": {
                "exemplarCity": "Bahia"
              },
              "Bahia_Banderas": {
                "exemplarCity": "Bahía de Banderas"
              },
              "Barbados": {
                "exemplarCity": "Barbados"
              },
              "Belem": {
                "exemplarCity": "Belém"
              },
              "Belize": {
                "exemplarCity": "Belize"
              },
              "Blanc-Sablon": {
                "exemplarCity": "Blanc-Sablon"
              },
              "Boa_Vista": {
                "exemplarCity": "Boa Vista"
              },
              "Bogota": {
                "exemplarCity": "Bogotá"
              },
              "Boise": {
                "exemplarCity": "Boise"
              },
              "Buenos_Aires": {
                "exemplarCity": "Buenos Aires"
              },
              "Cambridge_Bay": {
                "exemplarCity": "Cambridge Bay"
              },
              "Campo_Grande": {
                "exemplarCity": "Campo Grande"
              },
              "Cancun": {
                "exemplarCity": "Cancun"
              },
              "Caracas": {
                "exemplarCity": "Caracas"
              },
              "Catamarca": {
                "exemplarCity": "Catamarca"
              },
              "Cayenne": {
                "exemplarCity": "Cayenne"
              },
              "Cayman": {
                "exemplarCity": "Cayman"
              },
              "Chicago": {
                "exemplarCity": "Chicago"
              },
              "Chihuahua": {
                "exemplarCity": "Chihuahua"
              },
              "Coral_Harbour": {
                "exemplarCity": "Atikokan"
              },
              "Cordoba": {
                "exemplarCity": "Córdoba"
              },
              "Costa_Rica": {
                "exemplarCity": "Costa Rica"
              },
              "Creston": {
                "exemplarCity": "Creston"
              },
              "Cuiaba": {
                "exemplarCity": "Cuiabá"
              },
              "Curacao": {
                "exemplarCity": "Curaçao"
              },
              "Danmarkshavn": {
                "exemplarCity": "Danmarkshavn"
              },
              "Dawson": {
                "exemplarCity": "Dawson"
              },
              "Dawson_Creek": {
                "exemplarCity": "Dawson Creek"
              },
              "Denver": {
                "exemplarCity": "Denver"
              },
              "Detroit": {
                "exemplarCity": "Detroit"
              },
              "Dominica": {
                "exemplarCity": "Dominica"
              },
              "Edmonton": {
                "exemplarCity": "Edmonton"
              },
              "Eirunepe": {
                "exemplarCity": "Eirunepe"
              },
              "El_Salvador": {
                "exemplarCity": "Salvador"
              },
              "Fortaleza": {
                "exemplarCity": "Fortaleza"
              },
              "Glace_Bay": {
                "exemplarCity": "Glace Bay"
              },
              "Godthab": {
                "exemplarCity": "Nuuk"
              },
              "Goose_Bay": {
                "exemplarCity": "Goose Bay"
              },
              "Grand_Turk": {
                "exemplarCity": "Grand Turk"
              },
              "Grenada": {
                "exemplarCity": "Grenada"
              },
              "Guadeloupe": {
                "exemplarCity": "Guadeloupe"
              },
              "Guatemala": {
                "exemplarCity": "Guatemala"
              },
              "Guayaquil": {
                "exemplarCity": "Guayaquil"
              },
              "Guyana": {
                "exemplarCity": "Guyana"
              },
              "Halifax": {
                "exemplarCity": "Halifax"
              },
              "Havana": {
                "exemplarCity": "Havana"
              },
              "Hermosillo": {
                "exemplarCity": "Hermosillo"
              },
              "Indiana": {
                "Knox": {
                  "exemplarCity": "Knox, Indiana"
                },
                "Marengo": {
                  "exemplarCity": "Marengo, Indiana"
                },
                "Petersburg": {
                  "exemplarCity": "Petersburg, Indiana"
                },
                "Tell_City": {
                  "exemplarCity": "Tell City, Indiana"
                },
                "Vevay": {
                  "exemplarCity": "Vevay, Indiana"
                },
                "Vincennes": {
                  "exemplarCity": "Vincennes, Indiana"
                },
                "Winamac": {
                  "exemplarCity": "Winamac, Indiana"
                }
              },
              "Indianapolis": {
                "exemplarCity": "Indianapolis"
              },
              "Inuvik": {
                "exemplarCity": "Inuvik"
              },
              "Iqaluit": {
                "exemplarCity": "Iqaluit"
              },
              "Jamaica": {
                "exemplarCity": "Jamaica"
              },
              "Jujuy": {
                "exemplarCity": "Jujuy"
              },
              "Juneau": {
                "exemplarCity": "Juneau"
              },
              "Kentucky": {
                "Monticello": {
                  "exemplarCity": "Monticello, Kentucky"
                }
              },
              "Kralendijk": {
                "exemplarCity": "Kralendijk"
              },
              "La_Paz": {
                "exemplarCity": "La Paz"
              },
              "Lima": {
                "exemplarCity": "Lima"
              },
              "Los_Angeles": {
                "exemplarCity": "Los Angeles"
              },
              "Louisville": {
                "exemplarCity": "Louisville"
              },
              "Lower_Princes": {
                "exemplarCity": "Beneden Prinsen Kwartier"
              },
              "Maceio": {
                "exemplarCity": "Maceió"
              },
              "Managua": {
                "exemplarCity": "Managua"
              },
              "Manaus": {
                "exemplarCity": "Manaus"
              },
              "Marigot": {
                "exemplarCity": "Marigot"
              },
              "Martinique": {
                "exemplarCity": "Martinique"
              },
              "Matamoros": {
                "exemplarCity": "Matamoros"
              },
              "Mazatlan": {
                "exemplarCity": "Mazatlán"
              },
              "Mendoza": {
                "exemplarCity": "Mendoza"
              },
              "Menominee": {
                "exemplarCity": "Menominee"
              },
              "Merida": {
                "exemplarCity": "Mérida"
              },
              "Metlakatla": {
                "exemplarCity": "Metlakatla"
              },
              "Mexico_City": {
                "exemplarCity": "Mexico-stad"
              },
              "Miquelon": {
                "exemplarCity": "Miquelon"
              },
              "Moncton": {
                "exemplarCity": "Moncton"
              },
              "Monterrey": {
                "exemplarCity": "Monterrey"
              },
              "Montevideo": {
                "exemplarCity": "Montevideo"
              },
              "Montserrat": {
                "exemplarCity": "Montserrat"
              },
              "Nassau": {
                "exemplarCity": "Nassau"
              },
              "New_York": {
                "exemplarCity": "New York"
              },
              "Nipigon": {
                "exemplarCity": "Nipigon"
              },
              "Nome": {
                "exemplarCity": "Nome"
              },
              "Noronha": {
                "exemplarCity": "Noronha"
              },
              "North_Dakota": {
                "Beulah": {
                  "exemplarCity": "Beulah, Noard-Dakota"
                },
                "Center": {
                  "exemplarCity": "Center, Noard-Dakota"
                },
                "New_Salem": {
                  "exemplarCity": "New Salem, Noard-Dakota"
                }
              },
              "Ojinaga": {
                "exemplarCity": "Ojinaga"
              },
              "Panama": {
                "exemplarCity": "Panama"
              },
              "Pangnirtung": {
                "exemplarCity": "Pangnirtung"
              },
              "Paramaribo": {
                "exemplarCity": "Paramaribo"
              },
              "Phoenix": {
                "exemplarCity": "Phoenix"
              },
              "Port-au-Prince": {
                "exemplarCity": "Port-au-Prince"
              },
              "Port_of_Spain": {
                "exemplarCity": "Port of Spain"
              },
              "Porto_Velho": {
                "exemplarCity": "Pôrto Velho"
              },
              "Puerto_Rico": {
                "exemplarCity": "Puerto Rico"
              },
              "Rainy_River": {
                "exemplarCity": "Rainy River"
              },
              "Rankin_Inlet": {
                "exemplarCity": "Rankin Inlet"
              },
              "Recife": {
                "exemplarCity": "Recife"
              },
              "Regina": {
                "exemplarCity": "Regina"
              },
              "Resolute": {
                "exemplarCity": "Resolute"
              },
              "Rio_Branco": {
                "exemplarCity": "Rio Branco"
              },
              "Santa_Isabel": {
                "exemplarCity": "Santa Isabel"
              },
              "Santarem": {
                "exemplarCity": "Santarem"
              },
              "Santiago": {
                "exemplarCity": "Santiago"
              },
              "Santo_Domingo": {
                "exemplarCity": "Santo Domingo"
              },
              "Sao_Paulo": {
                "exemplarCity": "São Paulo"
              },
              "Scoresbysund": {
                "exemplarCity": "Ittoqqortoormiit"
              },
              "Sitka": {
                "exemplarCity": "Sitka"
              },
              "St_Barthelemy": {
                "exemplarCity": "Saint-Barthélemy"
              },
              "St_Johns": {
                "exemplarCity": "St. John’s"
              },
              "St_Kitts": {
                "exemplarCity": "St. Kitts"
              },
              "St_Lucia": {
                "exemplarCity": "St. Lucia"
              },
              "St_Thomas": {
                "exemplarCity": "St. Thomas"
              },
              "St_Vincent": {
                "exemplarCity": "St. Vincent"
              },
              "Swift_Current": {
                "exemplarCity": "Swift Current"
              },
              "Tegucigalpa": {
                "exemplarCity": "Tegucigalpa"
              },
              "Thule": {
                "exemplarCity": "Thule"
              },
              "Thunder_Bay": {
                "exemplarCity": "Thunder Bay"
              },
              "Tijuana": {
                "exemplarCity": "Tijuana"
              },
              "Toronto": {
                "exemplarCity": "Toronto"
              },
              "Tortola": {
                "exemplarCity": "Tortola"
              },
              "Vancouver": {
                "exemplarCity": "Vancouver"
              },
              "Whitehorse": {
                "exemplarCity": "Whitehorse"
              },
              "Winnipeg": {
                "exemplarCity": "Winnipeg"
              },
              "Yakutat": {
                "exemplarCity": "Yakutat"
              },
              "Yellowknife": {
                "exemplarCity": "Yellowknife"
              }
            },
            "Atlantic": {
              "Azores": {
                "exemplarCity": "Azoren"
              },
              "Bermuda": {
                "exemplarCity": "Bermuda"
              },
              "Canary": {
                "exemplarCity": "Kanaryske Eilannen"
              },
              "Cape_Verde": {
                "exemplarCity": "Kaapverdië"
              },
              "Faeroe": {
                "exemplarCity": "Faeröer"
              },
              "Madeira": {
                "exemplarCity": "Madeira"
              },
              "Reykjavik": {
                "exemplarCity": "Reykjavik"
              },
              "South_Georgia": {
                "exemplarCity": "Sûd-Georgia"
              },
              "St_Helena": {
                "exemplarCity": "Sint-Helena"
              },
              "Stanley": {
                "exemplarCity": "Stanley"
              }
            },
            "Europe": {
              "Amsterdam": {
                "exemplarCity": "Amsterdam"
              },
              "Andorra": {
                "exemplarCity": "Andorra"
              },
              "Athens": {
                "exemplarCity": "Athene"
              },
              "Belgrade": {
                "exemplarCity": "Belgrado"
              },
              "Berlin": {
                "exemplarCity": "Berlyn"
              },
              "Bratislava": {
                "exemplarCity": "Bratislava"
              },
              "Brussels": {
                "exemplarCity": "Brussel"
              },
              "Bucharest": {
                "exemplarCity": "Boekarest"
              },
              "Budapest": {
                "exemplarCity": "Boedapest"
              },
              "Busingen": {
                "exemplarCity": "Busingen"
              },
              "Chisinau": {
                "exemplarCity": "Chisinau"
              },
              "Copenhagen": {
                "exemplarCity": "Kopenhagen"
              },
              "Dublin": {
                "long": {
                  "daylight": "Ierse simmertiid"
                },
                "exemplarCity": "Dublin"
              },
              "Gibraltar": {
                "exemplarCity": "Gibraltar"
              },
              "Guernsey": {
                "exemplarCity": "Guernsey"
              },
              "Helsinki": {
                "exemplarCity": "Helsinki"
              },
              "Isle_of_Man": {
                "exemplarCity": "Isle of Man"
              },
              "Istanbul": {
                "exemplarCity": "Istanboel"
              },
              "Jersey": {
                "exemplarCity": "Jersey"
              },
              "Kaliningrad": {
                "exemplarCity": "Kaliningrad"
              },
              "Kiev": {
                "exemplarCity": "Kiev"
              },
              "Lisbon": {
                "exemplarCity": "Lissabon"
              },
              "Ljubljana": {
                "exemplarCity": "Ljubljana"
              },
              "London": {
                "long": {
                  "daylight": "Britse simmertiid"
                },
                "exemplarCity": "Londen"
              },
              "Luxembourg": {
                "exemplarCity": "Luxemburg"
              },
              "Madrid": {
                "exemplarCity": "Madrid"
              },
              "Malta": {
                "exemplarCity": "Malta"
              },
              "Mariehamn": {
                "exemplarCity": "Mariehamn"
              },
              "Minsk": {
                "exemplarCity": "Minsk"
              },
              "Monaco": {
                "exemplarCity": "Monaco"
              },
              "Moscow": {
                "exemplarCity": "Moskou"
              },
              "Oslo": {
                "exemplarCity": "Oslo"
              },
              "Paris": {
                "exemplarCity": "Parys"
              },
              "Podgorica": {
                "exemplarCity": "Podgorica"
              },
              "Prague": {
                "exemplarCity": "Praach"
              },
              "Riga": {
                "exemplarCity": "Riga"
              },
              "Rome": {
                "exemplarCity": "Rome"
              },
              "Samara": {
                "exemplarCity": "Samara"
              },
              "San_Marino": {
                "exemplarCity": "San Marino"
              },
              "Sarajevo": {
                "exemplarCity": "Sarajevo"
              },
              "Simferopol": {
                "exemplarCity": "Simferopol"
              },
              "Skopje": {
                "exemplarCity": "Skopje"
              },
              "Sofia": {
                "exemplarCity": "Sofia"
              },
              "Stockholm": {
                "exemplarCity": "Stockholm"
              },
              "Tallinn": {
                "exemplarCity": "Tallinn"
              },
              "Tirane": {
                "exemplarCity": "Tirana"
              },
              "Uzhgorod": {
                "exemplarCity": "Oezjhorod"
              },
              "Vaduz": {
                "exemplarCity": "Vaduz"
              },
              "Vatican": {
                "exemplarCity": "Fatikaanstêd"
              },
              "Vienna": {
                "exemplarCity": "Wenen"
              },
              "Vilnius": {
                "exemplarCity": "Vilnius"
              },
              "Volgograd": {
                "exemplarCity": "Wolgograd"
              },
              "Warsaw": {
                "exemplarCity": "Warschau"
              },
              "Zagreb": {
                "exemplarCity": "Zagreb"
              },
              "Zaporozhye": {
                "exemplarCity": "Zaporizja"
              },
              "Zurich": {
                "exemplarCity": "Zürich"
              }
            },
            "Africa": {
              "Abidjan": {
                "exemplarCity": "Abidjan"
              },
              "Accra": {
                "exemplarCity": "Accra"
              },
              "Addis_Ababa": {
                "exemplarCity": "Addis Abeba"
              },
              "Algiers": {
                "exemplarCity": "Algiers"
              },
              "Asmera": {
                "exemplarCity": "Asmara"
              },
              "Bamako": {
                "exemplarCity": "Bamako"
              },
              "Bangui": {
                "exemplarCity": "Bangui"
              },
              "Banjul": {
                "exemplarCity": "Banjul"
              },
              "Bissau": {
                "exemplarCity": "Bissau"
              },
              "Blantyre": {
                "exemplarCity": "Blantyre"
              },
              "Brazzaville": {
                "exemplarCity": "Brazzaville"
              },
              "Bujumbura": {
                "exemplarCity": "Bujumbura"
              },
              "Cairo": {
                "exemplarCity": "Caïro"
              },
              "Casablanca": {
                "exemplarCity": "Casablanca"
              },
              "Ceuta": {
                "exemplarCity": "Ceuta"
              },
              "Conakry": {
                "exemplarCity": "Conakry"
              },
              "Dakar": {
                "exemplarCity": "Dakar"
              },
              "Dar_es_Salaam": {
                "exemplarCity": "Dar es Salaam"
              },
              "Djibouti": {
                "exemplarCity": "Djibouti"
              },
              "Douala": {
                "exemplarCity": "Douala"
              },
              "El_Aaiun": {
                "exemplarCity": "El Aaiun"
              },
              "Freetown": {
                "exemplarCity": "Freetown"
              },
              "Gaborone": {
                "exemplarCity": "Gaborone"
              },
              "Harare": {
                "exemplarCity": "Harare"
              },
              "Johannesburg": {
                "exemplarCity": "Johannesburg"
              },
              "Juba": {
                "exemplarCity": "Juba"
              },
              "Kampala": {
                "exemplarCity": "Kampala"
              },
              "Khartoum": {
                "exemplarCity": "Khartoem"
              },
              "Kigali": {
                "exemplarCity": "Kigali"
              },
              "Kinshasa": {
                "exemplarCity": "Kinshasa"
              },
              "Lagos": {
                "exemplarCity": "Lagos"
              },
              "Libreville": {
                "exemplarCity": "Libreville"
              },
              "Lome": {
                "exemplarCity": "Lomé"
              },
              "Luanda": {
                "exemplarCity": "Luanda"
              },
              "Lubumbashi": {
                "exemplarCity": "Lubumbashi"
              },
              "Lusaka": {
                "exemplarCity": "Lusaka"
              },
              "Malabo": {
                "exemplarCity": "Malabo"
              },
              "Maputo": {
                "exemplarCity": "Maputo"
              },
              "Maseru": {
                "exemplarCity": "Maseru"
              },
              "Mbabane": {
                "exemplarCity": "Mbabane"
              },
              "Mogadishu": {
                "exemplarCity": "Mogadishu"
              },
              "Monrovia": {
                "exemplarCity": "Monrovia"
              },
              "Nairobi": {
                "exemplarCity": "Nairobi"
              },
              "Ndjamena": {
                "exemplarCity": "Ndjamena"
              },
              "Niamey": {
                "exemplarCity": "Niamey"
              },
              "Nouakchott": {
                "exemplarCity": "Nouakchott"
              },
              "Ouagadougou": {
                "exemplarCity": "Ouagadougou"
              },
              "Porto-Novo": {
                "exemplarCity": "Porto-Novo"
              },
              "Sao_Tome": {
                "exemplarCity": "Sao Tomé"
              },
              "Tripoli": {
                "exemplarCity": "Tripoli"
              },
              "Tunis": {
                "exemplarCity": "Tunis"
              },
              "Windhoek": {
                "exemplarCity": "Windhoek"
              }
            },
            "Asia": {
              "Aden": {
                "exemplarCity": "Aden"
              },
              "Almaty": {
                "exemplarCity": "Alma-Ata"
              },
              "Amman": {
                "exemplarCity": "Amman"
              },
              "Anadyr": {
                "exemplarCity": "Anadyr"
              },
              "Aqtau": {
                "exemplarCity": "Aqtau"
              },
              "Aqtobe": {
                "exemplarCity": "Aqtöbe"
              },
              "Ashgabat": {
                "exemplarCity": "Asjchabad"
              },
              "Baghdad": {
                "exemplarCity": "Bagdad"
              },
              "Bahrain": {
                "exemplarCity": "Bahrein"
              },
              "Baku": {
                "exemplarCity": "Bakoe"
              },
              "Bangkok": {
                "exemplarCity": "Bangkok"
              },
              "Beirut": {
                "exemplarCity": "Beiroet"
              },
              "Bishkek": {
                "exemplarCity": "Bisjkek"
              },
              "Brunei": {
                "exemplarCity": "Brunei"
              },
              "Calcutta": {
                "exemplarCity": "Calcutta"
              },
              "Chita": {
                "exemplarCity": "Chita"
              },
              "Choibalsan": {
                "exemplarCity": "Choibalsan"
              },
              "Colombo": {
                "exemplarCity": "Colombo"
              },
              "Damascus": {
                "exemplarCity": "Damascus"
              },
              "Dhaka": {
                "exemplarCity": "Dhaka"
              },
              "Dili": {
                "exemplarCity": "Dili"
              },
              "Dubai": {
                "exemplarCity": "Dubai"
              },
              "Dushanbe": {
                "exemplarCity": "Dusjanbe"
              },
              "Gaza": {
                "exemplarCity": "Gaza"
              },
              "Hebron": {
                "exemplarCity": "Hebron"
              },
              "Hong_Kong": {
                "exemplarCity": "Hongkong"
              },
              "Hovd": {
                "exemplarCity": "Hovd"
              },
              "Irkutsk": {
                "exemplarCity": "Irkoetsk"
              },
              "Jakarta": {
                "exemplarCity": "Jakarta"
              },
              "Jayapura": {
                "exemplarCity": "Jayapura"
              },
              "Jerusalem": {
                "exemplarCity": "Jeruzalem"
              },
              "Kabul": {
                "exemplarCity": "Kabul"
              },
              "Kamchatka": {
                "exemplarCity": "Kamtsjatka"
              },
              "Karachi": {
                "exemplarCity": "Karachi"
              },
              "Katmandu": {
                "exemplarCity": "Kathmandu"
              },
              "Khandyga": {
                "exemplarCity": "Khandyga"
              },
              "Krasnoyarsk": {
                "exemplarCity": "Krasnojarsk"
              },
              "Kuala_Lumpur": {
                "exemplarCity": "Kuala Lumpur"
              },
              "Kuching": {
                "exemplarCity": "Kuching"
              },
              "Kuwait": {
                "exemplarCity": "Koeweit"
              },
              "Macau": {
                "exemplarCity": "Macau"
              },
              "Magadan": {
                "exemplarCity": "Magadan"
              },
              "Makassar": {
                "exemplarCity": "Makassar"
              },
              "Manila": {
                "exemplarCity": "Manilla"
              },
              "Muscat": {
                "exemplarCity": "Muscat"
              },
              "Nicosia": {
                "exemplarCity": "Nicosia"
              },
              "Novokuznetsk": {
                "exemplarCity": "Novokuznetsk"
              },
              "Novosibirsk": {
                "exemplarCity": "Novosibirsk"
              },
              "Omsk": {
                "exemplarCity": "Omsk"
              },
              "Oral": {
                "exemplarCity": "Oral"
              },
              "Phnom_Penh": {
                "exemplarCity": "Phnom-Penh"
              },
              "Pontianak": {
                "exemplarCity": "Pontianak"
              },
              "Pyongyang": {
                "exemplarCity": "Pyongyang"
              },
              "Qatar": {
                "exemplarCity": "Qatar"
              },
              "Qyzylorda": {
                "exemplarCity": "Qyzylorda"
              },
              "Rangoon": {
                "exemplarCity": "Rangoon"
              },
              "Riyadh": {
                "exemplarCity": "Riyad"
              },
              "Saigon": {
                "exemplarCity": "Ho Chi Minhstad"
              },
              "Sakhalin": {
                "exemplarCity": "Sachalin"
              },
              "Samarkand": {
                "exemplarCity": "Samarkand"
              },
              "Seoul": {
                "exemplarCity": "Seoul"
              },
              "Shanghai": {
                "exemplarCity": "Sjanghai"
              },
              "Singapore": {
                "exemplarCity": "Singapore"
              },
              "Srednekolymsk": {
                "exemplarCity": "Srednekolymsk"
              },
              "Taipei": {
                "exemplarCity": "Taipei"
              },
              "Tashkent": {
                "exemplarCity": "Tasjkent"
              },
              "Tbilisi": {
                "exemplarCity": "Tbilisi"
              },
              "Tehran": {
                "exemplarCity": "Teheran"
              },
              "Thimphu": {
                "exemplarCity": "Thimphu"
              },
              "Tokyo": {
                "exemplarCity": "Tokio"
              },
              "Ulaanbaatar": {
                "exemplarCity": "Ulaanbaatar"
              },
              "Urumqi": {
                "exemplarCity": "Urumqi"
              },
              "Ust-Nera": {
                "exemplarCity": "Ust-Nera"
              },
              "Vientiane": {
                "exemplarCity": "Vientiane"
              },
              "Vladivostok": {
                "exemplarCity": "Vladivostok"
              },
              "Yakutsk": {
                "exemplarCity": "Jakoetsk"
              },
              "Yekaterinburg": {
                "exemplarCity": "Jekaterinenburg"
              },
              "Yerevan": {
                "exemplarCity": "Jerevan"
              }
            },
            "Indian": {
              "Antananarivo": {
                "exemplarCity": "Antananarivo"
              },
              "Chagos": {
                "exemplarCity": "Chagosarchipel"
              },
              "Christmas": {
                "exemplarCity": "Krysteilân"
              },
              "Cocos": {
                "exemplarCity": "Cocoseilannen"
              },
              "Comoro": {
                "exemplarCity": "Comoro"
              },
              "Kerguelen": {
                "exemplarCity": "Kerguelen"
              },
              "Mahe": {
                "exemplarCity": "Mahé"
              },
              "Maldives": {
                "exemplarCity": "Maldiven"
              },
              "Mauritius": {
                "exemplarCity": "Mauritius"
              },
              "Mayotte": {
                "exemplarCity": "Mayotte"
              },
              "Reunion": {
                "exemplarCity": "Réunion"
              }
            },
            "Australia": {
              "Adelaide": {
                "exemplarCity": "Adelaide"
              },
              "Brisbane": {
                "exemplarCity": "Brisbane"
              },
              "Broken_Hill": {
                "exemplarCity": "Broken Hill"
              },
              "Currie": {
                "exemplarCity": "Currie"
              },
              "Darwin": {
                "exemplarCity": "Darwin"
              },
              "Eucla": {
                "exemplarCity": "Eucla"
              },
              "Hobart": {
                "exemplarCity": "Hobart"
              },
              "Lindeman": {
                "exemplarCity": "Lindeman"
              },
              "Lord_Howe": {
                "exemplarCity": "Lord Howe"
              },
              "Melbourne": {
                "exemplarCity": "Melbourne"
              },
              "Perth": {
                "exemplarCity": "Perth"
              },
              "Sydney": {
                "exemplarCity": "Sydney"
              }
            },
            "Pacific": {
              "Apia": {
                "exemplarCity": "Apia"
              },
              "Auckland": {
                "exemplarCity": "Auckland"
              },
              "Bougainville": {
                "exemplarCity": "Bougainville"
              },
              "Chatham": {
                "exemplarCity": "Chatham"
              },
              "Easter": {
                "exemplarCity": "Peaskeeilân"
              },
              "Efate": {
                "exemplarCity": "Efate"
              },
              "Enderbury": {
                "exemplarCity": "Enderbury-eilân"
              },
              "Fakaofo": {
                "exemplarCity": "Fakaofo"
              },
              "Fiji": {
                "exemplarCity": "Fiji"
              },
              "Funafuti": {
                "exemplarCity": "Funafuti"
              },
              "Galapagos": {
                "exemplarCity": "Galápagos"
              },
              "Gambier": {
                "exemplarCity": "Gambiereilannen"
              },
              "Guadalcanal": {
                "exemplarCity": "Guadalcanal"
              },
              "Guam": {
                "exemplarCity": "Guam"
              },
              "Honolulu": {
                "exemplarCity": "Honolulu"
              },
              "Johnston": {
                "exemplarCity": "Johnston"
              },
              "Kiritimati": {
                "exemplarCity": "Kiritimati"
              },
              "Kosrae": {
                "exemplarCity": "Kosrae"
              },
              "Kwajalein": {
                "exemplarCity": "Kwajalein"
              },
              "Majuro": {
                "exemplarCity": "Majuro"
              },
              "Marquesas": {
                "exemplarCity": "Marquesaseilannen"
              },
              "Midway": {
                "exemplarCity": "Midway"
              },
              "Nauru": {
                "exemplarCity": "Nauru"
              },
              "Niue": {
                "exemplarCity": "Niue"
              },
              "Norfolk": {
                "exemplarCity": "Norfolk"
              },
              "Noumea": {
                "exemplarCity": "Nouméa"
              },
              "Pago_Pago": {
                "exemplarCity": "Pago Pago"
              },
              "Palau": {
                "exemplarCity": "Palau"
              },
              "Pitcairn": {
                "exemplarCity": "Pitcairn"
              },
              "Ponape": {
                "exemplarCity": "Pohnpei"
              },
              "Port_Moresby": {
                "exemplarCity": "Port Moresby"
              },
              "Rarotonga": {
                "exemplarCity": "Rarotonga"
              },
              "Saipan": {
                "exemplarCity": "Saipan"
              },
              "Tahiti": {
                "exemplarCity": "Tahiti"
              },
              "Tarawa": {
                "exemplarCity": "Tarawa"
              },
              "Tongatapu": {
                "exemplarCity": "Tongatapu"
              },
              "Truk": {
                "exemplarCity": "Chuuk"
              },
              "Wake": {
                "exemplarCity": "Wake"
              },
              "Wallis": {
                "exemplarCity": "Wallis"
              }
            },
            "Arctic": {
              "Longyearbyen": {
                "exemplarCity": "Longyearbyen"
              }
            },
            "Antarctica": {
              "Casey": {
                "exemplarCity": "Casey"
              },
              "Davis": {
                "exemplarCity": "Davis"
              },
              "DumontDUrville": {
                "exemplarCity": "Dumont d’Urville"
              },
              "Macquarie": {
                "exemplarCity": "Macquarie"
              },
              "Mawson": {
                "exemplarCity": "Mawson"
              },
              "McMurdo": {
                "exemplarCity": "McMurdo"
              },
              "Palmer": {
                "exemplarCity": "Palmer"
              },
              "Rothera": {
                "exemplarCity": "Rothera"
              },
              "Syowa": {
                "exemplarCity": "Syowa"
              },
              "Troll": {
                "exemplarCity": "Troll"
              },
              "Vostok": {
                "exemplarCity": "Vostok"
              }
            },
            "Etc": {
              "GMT": {
                "exemplarCity": "GMT"
              },
              "GMT1": {
                "exemplarCity": "GMT+1"
              },
              "GMT10": {
                "exemplarCity": "GMT+10"
              },
              "GMT11": {
                "exemplarCity": "GMT+11"
              },
              "GMT12": {
                "exemplarCity": "GMT+12"
              },
              "GMT2": {
                "exemplarCity": "GMT+2"
              },
              "GMT3": {
                "exemplarCity": "GMT+3"
              },
              "GMT4": {
                "exemplarCity": "GMT+4"
              },
              "GMT5": {
                "exemplarCity": "GMT+5"
              },
              "GMT6": {
                "exemplarCity": "GMT+6"
              },
              "GMT7": {
                "exemplarCity": "GMT+7"
              },
              "GMT8": {
                "exemplarCity": "GMT+8"
              },
              "GMT9": {
                "exemplarCity": "GMT+9"
              },
              "GMT-1": {
                "exemplarCity": "GMT-1"
              },
              "GMT-10": {
                "exemplarCity": "GMT-10"
              },
              "GMT-11": {
                "exemplarCity": "GMT-11"
              },
              "GMT-12": {
                "exemplarCity": "GMT-12"
              },
              "GMT-13": {
                "exemplarCity": "GMT-13"
              },
              "GMT-14": {
                "exemplarCity": "GMT-14"
              },
              "GMT-2": {
                "exemplarCity": "GMT-2"
              },
              "GMT-3": {
                "exemplarCity": "GMT-3"
              },
              "GMT-4": {
                "exemplarCity": "GMT-4"
              },
              "GMT-5": {
                "exemplarCity": "GMT-5"
              },
              "GMT-6": {
                "exemplarCity": "GMT-6"
              },
              "GMT-7": {
                "exemplarCity": "GMT-7"
              },
              "GMT-8": {
                "exemplarCity": "GMT-8"
              },
              "GMT-9": {
                "exemplarCity": "GMT-9"
              },
              "Unknown": {
                "exemplarCity": "Unbekende stêd"
              }
            }
          },
          "metazone": {
            "Acre": {
              "long": {
                "generic": "Acre-tiid",
                "standard": "Acre-standerttiid",
                "daylight": "Acre-simmertiid"
              }
            },
            "Afghanistan": {
              "long": {
                "standard": "Afghaanske tiid"
              }
            },
            "Africa_Central": {
              "long": {
                "standard": "Sintraal-Afrikaanske tiid"
              }
            },
            "Africa_Eastern": {
              "long": {
                "standard": "East-Afrikaanske tiid"
              }
            },
            "Africa_Southern": {
              "long": {
                "standard": "Sûd-Afrikaanske tiid"
              }
            },
            "Africa_Western": {
              "long": {
                "generic": "West-Afrikaanske tiid",
                "standard": "West-Afrikaanske standerttiid",
                "daylight": "West-Afrikaanske simmertiid"
              }
            },
            "Alaska": {
              "long": {
                "generic": "Alaska-tiid",
                "standard": "Alaska-standerttiid",
                "daylight": "Alaska-simmertiid"
              }
            },
            "Almaty": {
              "long": {
                "generic": "Alma-Ata-tiid",
                "standard": "Alma-Ata-standerttiid",
                "daylight": "Alma-Ata-simmertiid"
              }
            },
            "Amazon": {
              "long": {
                "generic": "Amazone-tiid",
                "standard": "Amazone-standerttiid",
                "daylight": "Amazone-simmertiid"
              }
            },
            "America_Central": {
              "long": {
                "generic": "Central-tiid",
                "standard": "Central-standerttiid",
                "daylight": "Central-simmertiid"
              }
            },
            "America_Eastern": {
              "long": {
                "generic": "Eastern-tiid",
                "standard": "Eastern-standerttiid",
                "daylight": "Eastern-simmertiid"
              }
            },
            "America_Mountain": {
              "long": {
                "generic": "Mountain-tiid",
                "standard": "Mountain-standerttiid",
                "daylight": "Mountain-simmertiid"
              }
            },
            "America_Pacific": {
              "long": {
                "generic": "Pasifik-tiid",
                "standard": "Pasifik-standerttiid",
                "daylight": "Pasifik-simmertiid"
              }
            },
            "Anadyr": {
              "long": {
                "generic": "Anadyr-tiid",
                "standard": "Anadyr-standerttiid",
                "daylight": "Anadyr-simmertiid"
              }
            },
            "Aqtau": {
              "long": {
                "generic": "Aqtau-tiid",
                "standard": "Aqtau-standerttiid",
                "daylight": "Aqtau-simmertiid"
              }
            },
            "Aqtobe": {
              "long": {
                "generic": "Aqtöbe-tiid",
                "standard": "Aqtöbe-standerttiid",
                "daylight": "Aqtöbe-simmertiid"
              }
            },
            "Arabian": {
              "long": {
                "generic": "Arabyske tiid",
                "standard": "Arabyske standerttiid",
                "daylight": "Arabyske simmertiid"
              }
            },
            "Argentina": {
              "long": {
                "generic": "Argentynske tiid",
                "standard": "Argentynske standerttiid",
                "daylight": "Argentynske simmertiid"
              }
            },
            "Argentina_Western": {
              "long": {
                "generic": "West-Argentynske tiid",
                "standard": "West-Argentynske standerttiid",
                "daylight": "West-Argentynske simmertiid"
              }
            },
            "Armenia": {
              "long": {
                "generic": "Armeense tiid",
                "standard": "Armeense standerttiid",
                "daylight": "Armeense simmertiid"
              }
            },
            "Atlantic": {
              "long": {
                "generic": "Atlantic-tiid",
                "standard": "Atlantic-standerttiid",
                "daylight": "Atlantic-simmertiid"
              }
            },
            "Australia_Central": {
              "long": {
                "generic": "Midden-Australyske tiid",
                "standard": "Midden-Australyske standerttiid",
                "daylight": "Midden-Australyske simmertiid"
              }
            },
            "Australia_CentralWestern": {
              "long": {
                "generic": "Midden-Australyske westelijke tiid",
                "standard": "Midden-Australyske westelijke standerttiid",
                "daylight": "Midden-Australyske westelijke simmertiid"
              }
            },
            "Australia_Eastern": {
              "long": {
                "generic": "East-Australyske tiid",
                "standard": "East-Australyske standerttiid",
                "daylight": "East-Australyske simmertiid"
              }
            },
            "Australia_Western": {
              "long": {
                "generic": "West-Australyske tiid",
                "standard": "West-Australyske standerttiid",
                "daylight": "West-Australyske simmertiid"
              }
            },
            "Azerbaijan": {
              "long": {
                "generic": "Azerbeidzjaanske tiid",
                "standard": "Azerbeidzjaanske standerttiid",
                "daylight": "Azerbeidzjaanske simmertiid"
              }
            },
            "Azores": {
              "long": {
                "generic": "Azoren-tiid",
                "standard": "Azoren-standerttiid",
                "daylight": "Azoren-simmertiid"
              }
            },
            "Bangladesh": {
              "long": {
                "generic": "Bengalese tiid",
                "standard": "Bengalese standerttiid",
                "daylight": "Bengalese simmertiid"
              }
            },
            "Bhutan": {
              "long": {
                "standard": "Bhutaanske tiid"
              }
            },
            "Bolivia": {
              "long": {
                "standard": "Boliviaanske tiid"
              }
            },
            "Brasilia": {
              "long": {
                "generic": "Brazyljaanske tiid",
                "standard": "Brazyljaanske standerttiid",
                "daylight": "Brazyljaanske simmertiid"
              }
            },
            "Brunei": {
              "long": {
                "standard": "Bruneise tiid"
              }
            },
            "Cape_Verde": {
              "long": {
                "generic": "Kaapverdyske tiid",
                "standard": "Kaapverdyske standerttiid",
                "daylight": "Kaapverdyske simmertiid"
              }
            },
            "Chamorro": {
              "long": {
                "standard": "Chamorro-tiid"
              }
            },
            "Chatham": {
              "long": {
                "generic": "Chatham tiid",
                "standard": "Chatham standerttiid",
                "daylight": "Chatham simmertiid"
              }
            },
            "Chile": {
              "long": {
                "generic": "Sileenske tiid",
                "standard": "Sileenske standerttiid",
                "daylight": "Sileenske simmertiid"
              }
            },
            "China": {
              "long": {
                "generic": "Sineeske tiid",
                "standard": "Sineeske standerttiid",
                "daylight": "Sineeske simmertiid"
              }
            },
            "Choibalsan": {
              "long": {
                "generic": "Tsjojbalsan tiid",
                "standard": "Tsjojbalsan standerttiid",
                "daylight": "Tsjojbalsan simmertiid"
              }
            },
            "Christmas": {
              "long": {
                "standard": "Krysteilânske tiid"
              }
            },
            "Cocos": {
              "long": {
                "standard": "Kokoseilânske tiid"
              }
            },
            "Colombia": {
              "long": {
                "generic": "Kolombiaanske tiid",
                "standard": "Kolombiaanske standerttiid",
                "daylight": "Kolombiaanske simmertiid"
              }
            },
            "Cook": {
              "long": {
                "generic": "Cookeilânse tiid",
                "standard": "Cookeilânse standerttiid",
                "daylight": "Cookeilânse halve simmertiid"
              }
            },
            "Cuba": {
              "long": {
                "generic": "Kubaanske tiid",
                "standard": "Kubaanske standerttiid",
                "daylight": "Kubaanske simmertiid"
              }
            },
            "Davis": {
              "long": {
                "standard": "Davis tiid"
              }
            },
            "DumontDUrville": {
              "long": {
                "standard": "Dumont-d’Urville tiid"
              }
            },
            "East_Timor": {
              "long": {
                "standard": "East-Timorese tiid"
              }
            },
            "Easter": {
              "long": {
                "generic": "Peaskeeilânske tiid",
                "standard": "Peaskeeilânske standerttiid",
                "daylight": "Peaskeeilânske simmertiid"
              }
            },
            "Ecuador": {
              "long": {
                "standard": "Ecuadoraanske tiid"
              }
            },
            "Europe_Central": {
              "long": {
                "generic": "Midden-Europeeske tiid",
                "standard": "Midden-Europeeske standerttiid",
                "daylight": "Midden-Europeeske simmertiid"
              },
              "short": {
                "generic": "CET",
                "standard": "CET",
                "daylight": "CEST"
              }
            },
            "Europe_Eastern": {
              "long": {
                "generic": "East-Europeeske tiid",
                "standard": "East-Europeeske standerttiid",
                "daylight": "East-Europeeske simmertiid"
              },
              "short": {
                "generic": "EET",
                "standard": "EET",
                "daylight": "EEST"
              }
            },
            "Europe_Western": {
              "long": {
                "generic": "West-Europeeske tiid",
                "standard": "West-Europeeske standerttiid",
                "daylight": "West-Europeeske simmertiid"
              },
              "short": {
                "generic": "WET",
                "standard": "WET",
                "daylight": "WEST"
              }
            },
            "Falkland": {
              "long": {
                "generic": "Falklâneilânske tiid",
                "standard": "Falklâneilânske standerttiid",
                "daylight": "Falklâneilânske simmertiid"
              }
            },
            "Fiji": {
              "long": {
                "generic": "Fijyske tiid",
                "standard": "Fijyske standerttiid",
                "daylight": "Fijyske simmertiid"
              }
            },
            "French_Guiana": {
              "long": {
                "standard": "Frâns-Guyaanske tiid"
              }
            },
            "French_Southern": {
              "long": {
                "standard": "Frânske Súdlike en Antarctyske tiid"
              }
            },
            "GMT": {
              "long": {
                "standard": "Greenwich Mean Time"
              }
            },
            "Galapagos": {
              "long": {
                "standard": "Galapagoseilânske tiid"
              }
            },
            "Gambier": {
              "long": {
                "standard": "Gambiereilânske tiid"
              }
            },
            "Georgia": {
              "long": {
                "generic": "Georgyske tiid",
                "standard": "Georgyske standerttiid",
                "daylight": "Georgyske simmertiid"
              }
            },
            "Gilbert_Islands": {
              "long": {
                "standard": "Gilberteilânske tiid"
              }
            },
            "Greenland_Eastern": {
              "long": {
                "generic": "East-Groenlânske tiid",
                "standard": "East-Groenlânske standerttiid",
                "daylight": "East-Groenlânske simmertiid"
              }
            },
            "Greenland_Western": {
              "long": {
                "generic": "West-Groenlânske tiid",
                "standard": "West-Groenlânske standerttiid",
                "daylight": "West-Groenlânske simmertiid"
              }
            },
            "Guam": {
              "long": {
                "standard": "Guamese standerttiid"
              }
            },
            "Gulf": {
              "long": {
                "standard": "Golf standerttiid"
              }
            },
            "Guyana": {
              "long": {
                "standard": "Guyaanske tiid"
              }
            },
            "Hawaii_Aleutian": {
              "long": {
                "generic": "Hawaii-Aleoetyske tiid",
                "standard": "Hawaii-Aleoetyske standerttiid",
                "daylight": "Hawaii-Aleoetyske simmertiid"
              }
            },
            "Hong_Kong": {
              "long": {
                "generic": "Hongkongse tiid",
                "standard": "Hongkongse standerttiid",
                "daylight": "Hongkongse simmertiid"
              }
            },
            "Hovd": {
              "long": {
                "generic": "Hovd tiid",
                "standard": "Hovd standerttiid",
                "daylight": "Hovd simmertiid"
              }
            },
            "India": {
              "long": {
                "standard": "Yndiaaske tiid"
              }
            },
            "Indian_Ocean": {
              "long": {
                "standard": "Yndyske Oceaan-tiid"
              }
            },
            "Indochina": {
              "long": {
                "standard": "Yndochinese tiid"
              }
            },
            "Indonesia_Central": {
              "long": {
                "standard": "Sintraal-Yndonezyske tiid"
              }
            },
            "Indonesia_Eastern": {
              "long": {
                "standard": "East-Yndonezyske tiid"
              }
            },
            "Indonesia_Western": {
              "long": {
                "standard": "West-Yndonezyske tiid"
              }
            },
            "Iran": {
              "long": {
                "generic": "Iraanske tiid",
                "standard": "Iraanske standerttiid",
                "daylight": "Iraanske simmertiid"
              }
            },
            "Irkutsk": {
              "long": {
                "generic": "Irkoetsk-tiid",
                "standard": "Irkoetsk-standerttiid",
                "daylight": "Irkoetsk-simmertiid"
              }
            },
            "Israel": {
              "long": {
                "generic": "Israëlyske tiid",
                "standard": "Israëlyske standerttiid",
                "daylight": "Israëlyske simmertiid"
              }
            },
            "Japan": {
              "long": {
                "generic": "Japanske tiid",
                "standard": "Japanske standerttiid",
                "daylight": "Japanske simmertiid"
              }
            },
            "Kamchatka": {
              "long": {
                "generic": "Petropavlovsk-Kamtsjatski-tiid",
                "standard": "Petropavlovsk-Kamtsjatski-standerttiid",
                "daylight": "Petropavlovsk-Kamtsjatski-simmertiid"
              }
            },
            "Kazakhstan_Eastern": {
              "long": {
                "standard": "East-Kazachse tiid"
              }
            },
            "Kazakhstan_Western": {
              "long": {
                "standard": "West-Kazachse tiid"
              }
            },
            "Korea": {
              "long": {
                "generic": "Koreaanske tiid",
                "standard": "Koreaanske standerttiid",
                "daylight": "Koreaanske simmertiid"
              }
            },
            "Kosrae": {
              "long": {
                "standard": "Kosraese tiid"
              }
            },
            "Krasnoyarsk": {
              "long": {
                "generic": "Krasnojarsk-tiid",
                "standard": "Krasnojarsk-standerttiid",
                "daylight": "Krasnojarsk-simmertiid"
              }
            },
            "Kyrgystan": {
              "long": {
                "standard": "Kirgizyske tiid"
              }
            },
            "Lanka": {
              "long": {
                "standard": "Lanka-tiid"
              }
            },
            "Line_Islands": {
              "long": {
                "standard": "Line-eilânske tiid"
              }
            },
            "Lord_Howe": {
              "long": {
                "generic": "Lord Howe-eilânske tiid",
                "standard": "Lord Howe-eilânske standerttiid",
                "daylight": "Lord Howe-eilânske simmertiid"
              }
            },
            "Macau": {
              "long": {
                "generic": "Macause tiid",
                "standard": "Macause standerttiid",
                "daylight": "Macause simmertiid"
              }
            },
            "Macquarie": {
              "long": {
                "standard": "Macquarie-eilânske tiid"
              }
            },
            "Magadan": {
              "long": {
                "generic": "Magadan-tiid",
                "standard": "Magadan-standerttiid",
                "daylight": "Magadan-simmertiid"
              }
            },
            "Malaysia": {
              "long": {
                "standard": "Maleisyske tiid"
              }
            },
            "Maldives": {
              "long": {
                "standard": "Maldivyske tiid"
              }
            },
            "Marquesas": {
              "long": {
                "standard": "Marquesaseilânske tiid"
              }
            },
            "Marshall_Islands": {
              "long": {
                "standard": "Marshalleilânske tiid"
              }
            },
            "Mauritius": {
              "long": {
                "generic": "Mauritiaanske tiid",
                "standard": "Mauritiaanske standerttiid",
                "daylight": "Mauritiaanske simmertiid"
              }
            },
            "Mawson": {
              "long": {
                "standard": "Mawson tiid"
              }
            },
            "Mongolia": {
              "long": {
                "generic": "Ulaanbaatar tiid",
                "standard": "Ulaanbaatar standerttiid",
                "daylight": "Ulaanbaatar simmertiid"
              }
            },
            "Moscow": {
              "long": {
                "generic": "Moskou-tiid",
                "standard": "Moskou-standerttiid",
                "daylight": "Moskou-simmertiid"
              }
            },
            "Myanmar": {
              "long": {
                "standard": "Myanmarese tiid"
              }
            },
            "Nauru": {
              "long": {
                "standard": "Nauruaanske tiid"
              }
            },
            "Nepal": {
              "long": {
                "standard": "Nepalese tiid"
              }
            },
            "New_Caledonia": {
              "long": {
                "generic": "Nij-Kaledonyske tiid",
                "standard": "Nij-Kaledonyske standerttiid",
                "daylight": "Nij-Kaledonyske simmertiid"
              }
            },
            "New_Zealand": {
              "long": {
                "generic": "Nij-Seelânske tiid",
                "standard": "Nij-Seelânske standerttiid",
                "daylight": "Nij-Seelânske simmertiid"
              }
            },
            "Newfoundland": {
              "long": {
                "generic": "Newfoundlânske-tiid",
                "standard": "Newfoundlânske-standerttiid",
                "daylight": "Newfoundlânske-simmertiid"
              }
            },
            "Niue": {
              "long": {
                "standard": "Niuese tiid"
              }
            },
            "Norfolk": {
              "long": {
                "standard": "Norfolkeilânske tiid"
              }
            },
            "Noronha": {
              "long": {
                "generic": "Fernando de Noronha-tiid",
                "standard": "Fernando de Noronha-standerttiid",
                "daylight": "Fernando de Noronha-simmertiid"
              }
            },
            "North_Mariana": {
              "long": {
                "standard": "Noardlike Mariaanske tiid"
              }
            },
            "Novosibirsk": {
              "long": {
                "generic": "Novosibirsk-tiid",
                "standard": "Novosibirsk-standerttiid",
                "daylight": "Novosibirsk-simmertiid"
              }
            },
            "Omsk": {
              "long": {
                "generic": "Omsk-tiid",
                "standard": "Omsk-standerttiid",
                "daylight": "Omsk-simmertiid"
              }
            },
            "Pakistan": {
              "long": {
                "generic": "Pakistaanske tiid",
                "standard": "Pakistaanske standerttiid",
                "daylight": "Pakistaanske simmertiid"
              }
            },
            "Palau": {
              "long": {
                "standard": "Belause tiid"
              }
            },
            "Papua_New_Guinea": {
              "long": {
                "standard": "Papoea-Nij-Guineeske tiid"
              }
            },
            "Paraguay": {
              "long": {
                "generic": "Paraguayaanske tiid",
                "standard": "Paraguayaanske standerttiid",
                "daylight": "Paraguayaanske simmertiid"
              }
            },
            "Peru": {
              "long": {
                "generic": "Peruaanske tiid",
                "standard": "Peruaanske standerttiid",
                "daylight": "Peruaanske simmertiid"
              }
            },
            "Philippines": {
              "long": {
                "generic": "Filipijnse tiid",
                "standard": "Filipijnse standerttiid",
                "daylight": "Filipijnse simmertiid"
              }
            },
            "Phoenix_Islands": {
              "long": {
                "standard": "Phoenixeilânske tiid"
              }
            },
            "Pierre_Miquelon": {
              "long": {
                "generic": "Saint Pierre en Miquelon-tiid",
                "standard": "Saint Pierre en Miquelon-standerttiid",
                "daylight": "Saint Pierre en Miquelon-simmertiid"
              }
            },
            "Pitcairn": {
              "long": {
                "standard": "Pitcairneillânske tiid"
              }
            },
            "Ponape": {
              "long": {
                "standard": "Pohnpei tiid"
              }
            },
            "Qyzylorda": {
              "long": {
                "generic": "Qyzylorda-tiid",
                "standard": "Qyzylorda-standerttiid",
                "daylight": "Qyzylorda-simmertiid"
              }
            },
            "Reunion": {
              "long": {
                "standard": "Réunionse tiid"
              }
            },
            "Rothera": {
              "long": {
                "standard": "Rothera tiid"
              }
            },
            "Sakhalin": {
              "long": {
                "generic": "Sachalin-tiid",
                "standard": "Sachalin-standerttiid",
                "daylight": "Sachalin-simmertiid"
              }
            },
            "Samara": {
              "long": {
                "generic": "Samara-tiid",
                "standard": "Samara-standerttiid",
                "daylight": "Samara-simmertiid"
              }
            },
            "Samoa": {
              "long": {
                "generic": "Samoaanske tiid",
                "standard": "Samoaanske standerttiid",
                "daylight": "Samoaanske simmertiid"
              }
            },
            "Seychelles": {
              "long": {
                "standard": "Seychelse tiid"
              }
            },
            "Singapore": {
              "long": {
                "standard": "Singaporese standerttiid"
              }
            },
            "Solomon": {
              "long": {
                "standard": "Salomonseilânske tiid"
              }
            },
            "South_Georgia": {
              "long": {
                "standard": "Sûd-Georgyske tiid"
              }
            },
            "Suriname": {
              "long": {
                "standard": "Surinaamske tiid"
              }
            },
            "Syowa": {
              "long": {
                "standard": "Syowa tiid"
              }
            },
            "Tahiti": {
              "long": {
                "standard": "Tahitiaanske tiid"
              }
            },
            "Taipei": {
              "long": {
                "generic": "Taipei tiid",
                "standard": "Taipei standerttiid",
                "daylight": "Taipei simmertiid"
              }
            },
            "Tajikistan": {
              "long": {
                "standard": "Tadzjiekse tiid"
              }
            },
            "Tokelau": {
              "long": {
                "standard": "Tokelau-eilânske tiid"
              }
            },
            "Tonga": {
              "long": {
                "generic": "Tongaanske tiid",
                "standard": "Tongaanske standerttiid",
                "daylight": "Tongaanske simmertiid"
              }
            },
            "Truk": {
              "long": {
                "standard": "Chuukse tiid"
              }
            },
            "Turkmenistan": {
              "long": {
                "generic": "Turkmeense tiid",
                "standard": "Turkmeense standerttiid",
                "daylight": "Turkmeense simmertiid"
              }
            },
            "Tuvalu": {
              "long": {
                "standard": "Tuvaluaanske tiid"
              }
            },
            "Uruguay": {
              "long": {
                "generic": "Uruguayaanske tiid",
                "standard": "Uruguayaanske standerttiid",
                "daylight": "Uruguayaanske simmertiid"
              }
            },
            "Uzbekistan": {
              "long": {
                "generic": "Oezbeekse tiid",
                "standard": "Oezbeekse standerttiid",
                "daylight": "Oezbeekse simmertiid"
              }
            },
            "Vanuatu": {
              "long": {
                "generic": "Vanuatuaanske tiid",
                "standard": "Vanuatuaanske standerttiid",
                "daylight": "Vanuatuaanske simmertiid"
              }
            },
            "Venezuela": {
              "long": {
                "standard": "Fenezolaanske tiid"
              }
            },
            "Vladivostok": {
              "long": {
                "generic": "Vladivostok-tiid",
                "standard": "Vladivostok-standerttiid",
                "daylight": "Vladivostok-simmertiid"
              }
            },
            "Volgograd": {
              "long": {
                "generic": "Wolgograd-tiid",
                "standard": "Wolgograd-standerttiid",
                "daylight": "Wolgograd-simmertiid"
              }
            },
            "Vostok": {
              "long": {
                "standard": "Vostok tiid"
              }
            },
            "Wake": {
              "long": {
                "standard": "Wake-eilânske tiid"
              }
            },
            "Wallis": {
              "long": {
                "standard": "Wallis en Futunase tiid"
              }
            },
            "Yakutsk": {
              "long": {
                "generic": "Jakoetsk-tiid",
                "standard": "Jakoetsk-standerttiid",
                "daylight": "Jakoetsk-simmertiid"
              }
            },
            "Yekaterinburg": {
              "long": {
                "generic": "Jekaterinenburg-tiid",
                "standard": "Jekaterinenburg-standerttiid",
                "daylight": "Jekaterinenburg-simmertiid"
              }
            }
          }
        }
      }
    }
  }
}
