{
  "main": {
    "yo": {
      "identity": {
        "version": {
          "_cldrVersion": "27.0.1",
          "_number": "$Revision: 10669 $"
        },
        "generation": {
          "_date": "$Date: 2014-07-23 16:10:33 -0500 (Wed, 23 Jul 2014) $"
        },
        "language": "yo"
      },
      "dates": {
        "calendars": {
          "gregorian": {
            "months": {
              "format": {
                "abbreviated": {
                  "1": "Ṣẹ́rẹ́",
                  "2": "Èrèlè",
                  "3": "Ẹrẹ̀nà",
                  "4": "Ìgbé",
                  "5": "Ẹ̀bibi",
                  "6": "Òkúdu",
                  "7": "Agẹmọ",
                  "8": "Ògún",
                  "9": "Owewe",
                  "10": "Ọ̀wàrà",
                  "11": "Bélú",
                  "12": "Ọ̀pẹ̀"
                },
                "narrow": {
                  "1": "1",
                  "2": "2",
                  "3": "3",
                  "4": "4",
                  "5": "5",
                  "6": "6",
                  "7": "7",
                  "8": "8",
                  "9": "9",
                  "10": "10",
                  "11": "11",
                  "12": "12"
                },
                "wide": {
                  "1": "Oṣù Ṣẹ́rẹ́",
                  "2": "Oṣù Èrèlè",
                  "3": "Oṣù Ẹrẹ̀nà",
                  "4": "Oṣù Ìgbé",
                  "5": "Oṣù Ẹ̀bibi",
                  "6": "Oṣù Òkúdu",
                  "7": "Oṣù Agẹmọ",
                  "8": "Oṣù Ògún",
                  "9": "Oṣù Owewe",
                  "10": "Oṣù Ọ̀wàrà",
                  "11": "Oṣù Bélú",
                  "12": "Oṣù Ọ̀pẹ̀"
                }
              },
              "stand-alone": {
                "abbreviated": {
                  "1": "Ṣẹ́rẹ́",
                  "2": "Èrèlè",
                  "3": "Ẹrẹ̀nà",
                  "4": "Ìgbé",
                  "5": "Ẹ̀bibi",
                  "6": "Òkúdu",
                  "7": "Agẹmọ",
                  "8": "Ògún",
                  "9": "Owewe",
                  "10": "Ọ̀wàrà",
                  "11": "Bélú",
                  "12": "Ọ̀pẹ̀"
                },
                "narrow": {
                  "1": "1",
                  "2": "2",
                  "3": "3",
                  "4": "4",
                  "5": "5",
                  "6": "6",
                  "7": "7",
                  "8": "8",
                  "9": "9",
                  "10": "10",
                  "11": "11",
                  "12": "12"
                },
                "wide": {
                  "1": "Oṣù Ṣẹ́rẹ́",
                  "2": "Oṣù Èrèlè",
                  "3": "Oṣù Ẹrẹ̀nà",
                  "4": "Oṣù Ìgbé",
                  "5": "Oṣù Ẹ̀bibi",
                  "6": "Oṣù Òkúdu",
                  "7": "Oṣù Agẹmọ",
                  "8": "Oṣù Ògún",
                  "9": "Oṣù Owewe",
                  "10": "Oṣù Ọ̀wàrà",
                  "11": "Oṣù Bélú",
                  "12": "Oṣù Ọ̀pẹ̀"
                }
              }
            },
            "days": {
              "format": {
                "abbreviated": {
                  "sun": "Àìkú",
                  "mon": "Ajé",
                  "tue": "Ìsẹ́gun",
                  "wed": "Ọjọ́rú",
                  "thu": "Ọjọ́bọ",
                  "fri": "Ẹtì",
                  "sat": "Àbámẹ́ta"
                },
                "narrow": {
                  "sun": "S",
                  "mon": "M",
                  "tue": "T",
                  "wed": "W",
                  "thu": "T",
                  "fri": "F",
                  "sat": "S"
                },
                "short": {
                  "sun": "Àìkú",
                  "mon": "Ajé",
                  "tue": "Ìsẹ́gun",
                  "wed": "Ọjọ́rú",
                  "thu": "Ọjọ́bọ",
                  "fri": "Ẹtì",
                  "sat": "Àbámẹ́ta"
                },
                "wide": {
                  "sun": "Ọjọ́ Àìkú",
                  "mon": "Ọjọ́ Ajé",
                  "tue": "Ọjọ́ Ìsẹ́gun",
                  "wed": "Ọjọ́rú",
                  "thu": "Ọjọ́bọ",
                  "fri": "Ọjọ́ Ẹtì",
                  "sat": "Ọjọ́ Àbámẹ́ta"
                }
              },
              "stand-alone": {
                "abbreviated": {
                  "sun": "Àìkú",
                  "mon": "Ajé",
                  "tue": "Ìsẹ́gun",
                  "wed": "Ọjọ́rú",
                  "thu": "Ọjọ́bọ",
                  "fri": "Ẹtì",
                  "sat": "Àbámẹ́ta"
                },
                "narrow": {
                  "sun": "S",
                  "mon": "M",
                  "tue": "T",
                  "wed": "W",
                  "thu": "T",
                  "fri": "F",
                  "sat": "S"
                },
                "short": {
                  "sun": "Àìkú",
                  "mon": "Ajé",
                  "tue": "Ìsẹ́gun",
                  "wed": "Ọjọ́rú",
                  "thu": "Ọjọ́bọ",
                  "fri": "Ẹtì",
                  "sat": "Àbámẹ́ta"
                },
                "wide": {
                  "sun": "Ọjọ́ Àìkú",
                  "mon": "Ọjọ́ Ajé",
                  "tue": "Ọjọ́ Ìsẹ́gun",
                  "wed": "Ọjọ́rú",
                  "thu": "Ọjọ́bọ",
                  "fri": "Ọjọ́ Ẹtì",
                  "sat": "Ọjọ́ Àbámẹ́ta"
                }
              }
            },
            "quarters": {
              "format": {
                "abbreviated": {
                  "1": "K1",
                  "2": "K2",
                  "3": "K3",
                  "4": "K4"
                },
                "narrow": {
                  "1": "1",
                  "2": "2",
                  "3": "3",
                  "4": "4"
                },
                "wide": {
                  "1": "Kọ́tà Kínní",
                  "2": "Kọ́tà Kejì",
                  "3": "Kọ́à Keta",
                  "4": "Kọ́tà Kẹrin"
                }
              },
              "stand-alone": {
                "abbreviated": {
                  "1": "K1",
                  "2": "K2",
                  "3": "K3",
                  "4": "K4"
                },
                "narrow": {
                  "1": "1",
                  "2": "2",
                  "3": "3",
                  "4": "4"
                },
                "wide": {
                  "1": "Kọ́tà Kínní",
                  "2": "Kọ́tà Kejì",
                  "3": "Kọ́à Keta",
                  "4": "Kọ́tà Kẹrin"
                }
              }
            },
            "dayPeriods": {
              "format": {
                "abbreviated": {
                  "am": "Àárọ̀",
                  "noon": "noon",
                  "pm": "Ọ̀sán"
                },
                "narrow": {
                  "am": "a",
                  "noon": "n",
                  "pm": "p"
                },
                "wide": {
                  "am": "Àárọ̀",
                  "noon": "noon",
                  "pm": "Ọ̀sán"
                }
              },
              "stand-alone": {
                "abbreviated": {
                  "am": "Àárọ̀",
                  "noon": "noon",
                  "pm": "Ọ̀sán"
                },
                "narrow": {
                  "am": "a",
                  "noon": "n",
                  "pm": "p"
                },
                "wide": {
                  "am": "Àárọ̀",
                  "noon": "noon",
                  "pm": "Ọ̀sán"
                }
              }
            },
            "eras": {
              "eraNames": {
                "0": "Saju Kristi",
                "0-alt-variant": "BCE",
                "1": "Lehin Kristi",
                "1-alt-variant": "CE"
              },
              "eraAbbr": {
                "0": "SK",
                "0-alt-variant": "BCE",
                "1": "LK",
                "1-alt-variant": "CE"
              },
              "eraNarrow": {
                "0": "SK",
                "0-alt-variant": "BCE",
                "1": "LK",
                "1-alt-variant": "CE"
              }
            },
            "dateFormats": {
              "full": "EEEE, d MMMM y",
              "long": "d MMMM y",
              "medium": "d MMM y",
              "short": "dd/MM/y"
            },
            "timeFormats": {
              "full": "h:mm:ss a zzzz",
              "long": "h:mm:ss a z",
              "medium": "h:mm:ss a",
              "short": "h:mm a"
            },
            "dateTimeFormats": {
              "full": "{1} {0}",
              "long": "{1} {0}",
              "medium": "{1} {0}",
              "short": "{1} {0}",
              "availableFormats": {
                "E": "ccc",
                "EHm": "E HH:mm",
                "EHms": "E HH:mm:ss",
                "Ed": "d, E",
                "Ehm": "E h:mm a",
                "Ehms": "E h:mm:ss a",
                "Gy": "G y",
                "GyMMM": "G y MMM",
                "GyMMMEd": "G y MMM d, E",
                "GyMMMd": "G y MMM d",
                "H": "HH",
                "Hm": "HH:mm",
                "Hms": "HH:mm:ss",
                "Hmsv": "HH:mm:ss v",
                "Hmv": "HH:mm v",
                "M": "L",
                "MEd": "E, M/d",
                "MMM": "LLL",
                "MMMEd": "E, MMM d",
                "MMMMEd": "E, MMMM d",
                "MMMMd": "MMMM d",
                "MMMd": "MMM d",
                "Md": "M/d",
                "d": "d",
                "h": "h a",
                "hm": "h:mm a",
                "hms": "h:mm:ss a",
                "hmsv": "h:mm:ss a v",
                "hmv": "h:mm a v",
                "ms": "mm:ss",
                "y": "y",
                "yM": "M/y",
                "yMEd": "E, M/d/y",
                "yMMM": "MMM y",
                "yMMMEd": "E, MMM d, y",
                "yMMMM": "MMMM y",
                "yMMMd": "y MMM d",
                "yMd": "y-MM-dd",
                "yQQQ": "QQQ y",
                "yQQQQ": "QQQQ y"
              },
              "appendItems": {
                "Day": "{0} ({2}: {1})",
                "Day-Of-Week": "{0} {1}",
                "Era": "{1} {0}",
                "Hour": "{0} ({2}: {1})",
                "Minute": "{0} ({2}: {1})",
                "Month": "{0} ({2}: {1})",
                "Quarter": "{0} ({2}: {1})",
                "Second": "{0} ({2}: {1})",
                "Timezone": "{0} {1}",
                "Week": "{0} ({2}: {1})",
                "Year": "{1} {0}"
              },
              "intervalFormats": {
                "intervalFormatFallback": "{0} – {1}",
                "H": {
                  "H": "HH–HH"
                },
                "Hm": {
                  "H": "HH:mm–HH:mm",
                  "m": "HH:mm–HH:mm"
                },
                "Hmv": {
                  "H": "HH:mm–HH:mm v",
                  "m": "HH:mm–HH:mm v"
                },
                "Hv": {
                  "H": "HH–HH v"
                },
                "M": {
                  "M": "MM–MM"
                },
                "MEd": {
                  "M": "MM-dd, E – MM-dd, E",
                  "d": "MM-dd, E – MM-dd, E"
                },
                "MMM": {
                  "M": "LLL–LLL"
                },
                "MMMEd": {
                  "M": "MMM d, E – MMM d, E",
                  "d": "MMM d, E – MMM d, E"
                },
                "MMMd": {
                  "M": "MMM d – MMM d",
                  "d": "MMM d–d"
                },
                "Md": {
                  "M": "MM-dd – MM-dd",
                  "d": "MM-dd – MM-dd"
                },
                "d": {
                  "d": "d–d"
                },
                "h": {
                  "a": "h a – h a",
                  "h": "h–h a"
                },
                "hm": {
                  "a": "h:mm a – h:mm a",
                  "h": "h:mm–h:mm a",
                  "m": "h:mm–h:mm a"
                },
                "hmv": {
                  "a": "h:mm a – h:mm a v",
                  "h": "h:mm–h:mm a v",
                  "m": "h:mm–h:mm a v"
                },
                "hv": {
                  "a": "h a – h a v",
                  "h": "h–h a v"
                },
                "y": {
                  "y": "y–y"
                },
                "yM": {
                  "M": "y-MM – y-MM",
                  "y": "y-MM – y-MM"
                },
                "yMEd": {
                  "M": "y-MM-dd, E – y-MM-dd, E",
                  "d": "y-MM-dd, E – y-MM-dd, E",
                  "y": "y-MM-dd, E – y-MM-dd, E"
                },
                "yMMM": {
                  "M": "y MMM–MMM",
                  "y": "y MMM – y MMM"
                },
                "yMMMEd": {
                  "M": "y MMM d, E – MMM d, E",
                  "d": "y MMM d, E – MMM d, E",
                  "y": "y MMM d, E – y MMM d, E"
                },
                "yMMMM": {
                  "M": "y MMMM–MMMM",
                  "y": "y MMMM – y MMMM"
                },
                "yMMMd": {
                  "M": "y MMM d – MMM d",
                  "d": "y MMM d–d",
                  "y": "y MMM d – y MMM d"
                },
                "yMd": {
                  "M": "y-MM-dd – y-MM-dd",
                  "d": "y-MM-dd – y-MM-dd",
                  "y": "y-MM-dd – y-MM-dd"
                }
              }
            }
          }
        }
      }
    }
  }
}
