{
  "main": {
    "rw": {
      "identity": {
        "version": {
          "_cldrVersion": "27.0.1",
          "_number": "$Revision: 10739 $"
        },
        "generation": {
          "_date": "$Date: 2014-08-07 12:54:13 -0500 (Thu, 07 Aug 2014) $"
        },
        "language": "rw"
      },
      "dates": {
        "calendars": {
          "gregorian": {
            "months": {
              "format": {
                "abbreviated": {
                  "1": "mut.",
                  "2": "gas.",
                  "3": "wer.",
                  "4": "mat.",
                  "5": "gic.",
                  "6": "kam.",
                  "7": "nya.",
                  "8": "kan.",
                  "9": "nze.",
                  "10": "ukw.",
                  "11": "ugu.",
                  "12": "uku."
                },
                "narrow": {
                  "1": "1",
                  "2": "2",
                  "3": "3",
                  "4": "4",
                  "5": "5",
                  "6": "6",
                  "7": "7",
                  "8": "8",
                  "9": "9",
                  "10": "10",
                  "11": "11",
                  "12": "12"
                },
                "wide": {
                  "1": "Mutarama",
                  "2": "Gashyantare",
                  "3": "Werurwe",
                  "4": "Mata",
                  "5": "Gicuransi",
                  "6": "Kamena",
                  "7": "Nyakanga",
                  "8": "Kanama",
                  "9": "Nzeli",
                  "10": "Ukwakira",
                  "11": "Ugushyingo",
                  "12": "Ukuboza"
                }
              },
              "stand-alone": {
                "abbreviated": {
                  "1": "mut.",
                  "2": "gas.",
                  "3": "wer.",
                  "4": "mat.",
                  "5": "gic.",
                  "6": "kam.",
                  "7": "nya.",
                  "8": "kan.",
                  "9": "nze.",
                  "10": "ukw.",
                  "11": "ugu.",
                  "12": "uku."
                },
                "narrow": {
                  "1": "1",
                  "2": "2",
                  "3": "3",
                  "4": "4",
                  "5": "5",
                  "6": "6",
                  "7": "7",
                  "8": "8",
                  "9": "9",
                  "10": "10",
                  "11": "11",
                  "12": "12"
                },
                "wide": {
                  "1": "Mutarama",
                  "2": "Gashyantare",
                  "3": "Werurwe",
                  "4": "Mata",
                  "5": "Gicuransi",
                  "6": "Kamena",
                  "7": "Nyakanga",
                  "8": "Kanama",
                  "9": "Nzeli",
                  "10": "Ukwakira",
                  "11": "Ugushyingo",
                  "12": "Ukuboza"
                }
              }
            },
            "days": {
              "format": {
                "abbreviated": {
                  "sun": "cyu.",
                  "mon": "mbe.",
                  "tue": "kab.",
                  "wed": "gtu.",
                  "thu": "kan.",
                  "fri": "gnu.",
                  "sat": "gnd."
                },
                "narrow": {
                  "sun": "S",
                  "mon": "M",
                  "tue": "T",
                  "wed": "W",
                  "thu": "T",
                  "fri": "F",
                  "sat": "S"
                },
                "short": {
                  "sun": "cyu.",
                  "mon": "mbe.",
                  "tue": "kab.",
                  "wed": "gtu.",
                  "thu": "kan.",
                  "fri": "gnu.",
                  "sat": "gnd."
                },
                "wide": {
                  "sun": "Ku cyumweru",
                  "mon": "Kuwa mbere",
                  "tue": "Kuwa kabiri",
                  "wed": "Kuwa gatatu",
                  "thu": "Kuwa kane",
                  "fri": "Kuwa gatanu",
                  "sat": "Kuwa gatandatu"
                }
              },
              "stand-alone": {
                "abbreviated": {
                  "sun": "cyu.",
                  "mon": "mbe.",
                  "tue": "kab.",
                  "wed": "gtu.",
                  "thu": "kan.",
                  "fri": "gnu.",
                  "sat": "gnd."
                },
                "narrow": {
                  "sun": "S",
                  "mon": "M",
                  "tue": "T",
                  "wed": "W",
                  "thu": "T",
                  "fri": "F",
                  "sat": "S"
                },
                "short": {
                  "sun": "cyu.",
                  "mon": "mbe.",
                  "tue": "kab.",
                  "wed": "gtu.",
                  "thu": "kan.",
                  "fri": "gnu.",
                  "sat": "gnd."
                },
                "wide": {
                  "sun": "Ku cyumweru",
                  "mon": "Kuwa mbere",
                  "tue": "Kuwa kabiri",
                  "wed": "Kuwa gatatu",
                  "thu": "Kuwa kane",
                  "fri": "Kuwa gatanu",
                  "sat": "Kuwa gatandatu"
                }
              }
            },
            "quarters": {
              "format": {
                "abbreviated": {
                  "1": "I1",
                  "2": "I2",
                  "3": "I3",
                  "4": "I4"
                },
                "narrow": {
                  "1": "1",
                  "2": "2",
                  "3": "3",
                  "4": "4"
                },
                "wide": {
                  "1": "igihembwe cya mbere",
                  "2": "igihembwe cya kabiri",
                  "3": "igihembwe cya gatatu",
                  "4": "igihembwe cya kane"
                }
              },
              "stand-alone": {
                "abbreviated": {
                  "1": "I1",
                  "2": "I2",
                  "3": "I3",
                  "4": "I4"
                },
                "narrow": {
                  "1": "1",
                  "2": "2",
                  "3": "3",
                  "4": "4"
                },
                "wide": {
                  "1": "igihembwe cya mbere",
                  "2": "igihembwe cya kabiri",
                  "3": "igihembwe cya gatatu",
                  "4": "igihembwe cya kane"
                }
              }
            },
            "dayPeriods": {
              "format": {
                "abbreviated": {
                  "am": "AM",
                  "noon": "noon",
                  "pm": "PM"
                },
                "narrow": {
                  "am": "a",
                  "noon": "n",
                  "pm": "p"
                },
                "wide": {
                  "am": "AM",
                  "noon": "noon",
                  "pm": "PM"
                }
              },
              "stand-alone": {
                "abbreviated": {
                  "am": "AM",
                  "noon": "noon",
                  "pm": "PM"
                },
                "narrow": {
                  "am": "a",
                  "noon": "n",
                  "pm": "p"
                },
                "wide": {
                  "am": "AM",
                  "noon": "noon",
                  "pm": "PM"
                }
              }
            },
            "eras": {
              "eraNames": {
                "0": "BCE",
                "0-alt-variant": "BCE",
                "1": "CE",
                "1-alt-variant": "CE"
              },
              "eraAbbr": {
                "0": "BCE",
                "0-alt-variant": "BCE",
                "1": "CE",
                "1-alt-variant": "CE"
              },
              "eraNarrow": {
                "0": "BCE",
                "0-alt-variant": "BCE",
                "1": "CE",
                "1-alt-variant": "CE"
              }
            },
            "dateFormats": {
              "full": "EEEE, y MMMM dd",
              "long": "y MMMM d",
              "medium": "y MMM d",
              "short": "yy/MM/dd"
            },
            "timeFormats": {
              "full": "HH:mm:ss zzzz",
              "long": "HH:mm:ss z",
              "medium": "HH:mm:ss",
              "short": "HH:mm"
            },
            "dateTimeFormats": {
              "full": "{1} {0}",
              "long": "{1} {0}",
              "medium": "{1} {0}",
              "short": "{1} {0}",
              "availableFormats": {
                "E": "ccc",
                "EHm": "E HH:mm",
                "EHms": "E HH:mm:ss",
                "Ed": "d, E",
                "Ehm": "E h:mm a",
                "Ehms": "E h:mm:ss a",
                "Gy": "G y",
                "GyMMM": "G y MMM",
                "GyMMMEd": "G y MMM d, E",
                "GyMMMd": "G y MMM d",
                "H": "HH",
                "Hm": "HH:mm",
                "Hms": "HH:mm:ss",
                "Hmsv": "HH:mm:ss v",
                "Hmv": "HH:mm v",
                "M": "L",
                "MEd": "MM-dd, E",
                "MMM": "LLL",
                "MMMEd": "MMM d, E",
                "MMMd": "MMM d",
                "Md": "MM-dd",
                "d": "d",
                "h": "h a",
                "hm": "h:mm a",
                "hms": "h:mm:ss a",
                "hmsv": "h:mm:ss a v",
                "hmv": "h:mm a v",
                "ms": "mm:ss",
                "y": "y",
                "yM": "y-MM",
                "yMEd": "y-MM-dd, E",
                "yMMM": "y MMM",
                "yMMMEd": "y MMM d, E",
                "yMMMd": "y MMM d",
                "yMd": "y-MM-dd",
                "yQQQ": "y QQQ",
                "yQQQQ": "y QQQQ"
              },
              "appendItems": {
                "Day": "{0} ({2}: {1})",
                "Day-Of-Week": "{0} {1}",
                "Era": "{1} {0}",
                "Hour": "{0} ({2}: {1})",
                "Minute": "{0} ({2}: {1})",
                "Month": "{0} ({2}: {1})",
                "Quarter": "{0} ({2}: {1})",
                "Second": "{0} ({2}: {1})",
                "Timezone": "{0} {1}",
                "Week": "{0} ({2}: {1})",
                "Year": "{1} {0}"
              },
              "intervalFormats": {
                "intervalFormatFallback": "{0} – {1}",
                "H": {
                  "H": "HH–HH"
                },
                "Hm": {
                  "H": "HH:mm–HH:mm",
                  "m": "HH:mm–HH:mm"
                },
                "Hmv": {
                  "H": "HH:mm–HH:mm v",
                  "m": "HH:mm–HH:mm v"
                },
                "Hv": {
                  "H": "HH–HH v"
                },
                "M": {
                  "M": "MM–MM"
                },
                "MEd": {
                  "M": "MM-dd, E – MM-dd, E",
                  "d": "MM-dd, E – MM-dd, E"
                },
                "MMM": {
                  "M": "LLL–LLL"
                },
                "MMMEd": {
                  "M": "MMM d, E – MMM d, E",
                  "d": "MMM d, E – MMM d, E"
                },
                "MMMd": {
                  "M": "MMM d – MMM d",
                  "d": "MMM d–d"
                },
                "Md": {
                  "M": "MM-dd – MM-dd",
                  "d": "MM-dd – MM-dd"
                },
                "d": {
                  "d": "d–d"
                },
                "h": {
                  "a": "h a – h a",
                  "h": "h–h a"
                },
                "hm": {
                  "a": "h:mm a – h:mm a",
                  "h": "h:mm–h:mm a",
                  "m": "h:mm–h:mm a"
                },
                "hmv": {
                  "a": "h:mm a – h:mm a v",
                  "h": "h:mm–h:mm a v",
                  "m": "h:mm–h:mm a v"
                },
                "hv": {
                  "a": "h a – h a v",
                  "h": "h–h a v"
                },
                "y": {
                  "y": "y–y"
                },
                "yM": {
                  "M": "y-MM – y-MM",
                  "y": "y-MM – y-MM"
                },
                "yMEd": {
                  "M": "y-MM-dd, E – y-MM-dd, E",
                  "d": "y-MM-dd, E – y-MM-dd, E",
                  "y": "y-MM-dd, E – y-MM-dd, E"
                },
                "yMMM": {
                  "M": "y MMM–MMM",
                  "y": "y MMM – y MMM"
                },
                "yMMMEd": {
                  "M": "y MMM d, E – MMM d, E",
                  "d": "y MMM d, E – MMM d, E",
                  "y": "y MMM d, E – y MMM d, E"
                },
                "yMMMM": {
                  "M": "y MMMM–MMMM",
                  "y": "y MMMM – y MMMM"
                },
                "yMMMd": {
                  "M": "y MMM d – MMM d",
                  "d": "y MMM d–d",
                  "y": "y MMM d – y MMM d"
                },
                "yMd": {
                  "M": "y-MM-dd – y-MM-dd",
                  "d": "y-MM-dd – y-MM-dd",
                  "y": "y-MM-dd – y-MM-dd"
                }
              }
            }
          }
        }
      }
    }
  }
}
