{
  "main": {
    "gsw": {
      "identity": {
        "version": {
          "_cldrVersion": "27.0.1",
          "_number": "$Revision: 11093 $"
        },
        "generation": {
          "_date": "$Date: 2015-01-02 21:36:02 -0600 (Fri, 02 Jan 2015) $"
        },
        "language": "gsw"
      },
      "dates": {
        "calendars": {
          "gregorian": {
            "months": {
              "format": {
                "abbreviated": {
                  "1": "Jan",
                  "2": "Feb",
                  "3": "Mär",
                  "4": "Apr",
                  "5": "Mai",
                  "6": "Jun",
                  "7": "Jul",
                  "8": "Aug",
                  "9": "Sep",
                  "10": "Okt",
                  "11": "Nov",
                  "12": "Dez"
                },
                "narrow": {
                  "1": "J",
                  "2": "F",
                  "3": "M",
                  "4": "A",
                  "5": "M",
                  "6": "J",
                  "7": "J",
                  "8": "A",
                  "9": "S",
                  "10": "O",
                  "11": "N",
                  "12": "D"
                },
                "wide": {
                  "1": "Januar",
                  "2": "Februar",
                  "3": "März",
                  "4": "April",
                  "5": "Mai",
                  "6": "Juni",
                  "7": "Juli",
                  "8": "Auguscht",
                  "9": "Septämber",
                  "10": "Oktoober",
                  "11": "Novämber",
                  "12": "Dezämber"
                }
              },
              "stand-alone": {
                "abbreviated": {
                  "1": "Jan",
                  "2": "Feb",
                  "3": "Mär",
                  "4": "Apr",
                  "5": "Mai",
                  "6": "Jun",
                  "7": "Jul",
                  "8": "Aug",
                  "9": "Sep",
                  "10": "Okt",
                  "11": "Nov",
                  "12": "Dez"
                },
                "narrow": {
                  "1": "J",
                  "2": "F",
                  "3": "M",
                  "4": "A",
                  "5": "M",
                  "6": "J",
                  "7": "J",
                  "8": "A",
                  "9": "S",
                  "10": "O",
                  "11": "N",
                  "12": "D"
                },
                "wide": {
                  "1": "Januar",
                  "2": "Februar",
                  "3": "März",
                  "4": "April",
                  "5": "Mai",
                  "6": "Juni",
                  "7": "Juli",
                  "8": "Auguscht",
                  "9": "Septämber",
                  "10": "Oktoober",
                  "11": "Novämber",
                  "12": "Dezämber"
                }
              }
            },
            "days": {
              "format": {
                "abbreviated": {
                  "sun": "Su.",
                  "mon": "Mä.",
                  "tue": "Zi.",
                  "wed": "Mi.",
                  "thu": "Du.",
                  "fri": "Fr.",
                  "sat": "Sa."
                },
                "narrow": {
                  "sun": "S",
                  "mon": "M",
                  "tue": "D",
                  "wed": "M",
                  "thu": "D",
                  "fri": "F",
                  "sat": "S"
                },
                "short": {
                  "sun": "Su.",
                  "mon": "Mä.",
                  "tue": "Zi.",
                  "wed": "Mi.",
                  "thu": "Du.",
                  "fri": "Fr.",
                  "sat": "Sa."
                },
                "wide": {
                  "sun": "Sunntig",
                  "mon": "Määntig",
                  "tue": "Ziischtig",
                  "wed": "Mittwuch",
                  "thu": "Dunschtig",
                  "fri": "Friitig",
                  "sat": "Samschtig"
                }
              },
              "stand-alone": {
                "abbreviated": {
                  "sun": "Su.",
                  "mon": "Mä.",
                  "tue": "Zi.",
                  "wed": "Mi.",
                  "thu": "Du.",
                  "fri": "Fr.",
                  "sat": "Sa."
                },
                "narrow": {
                  "sun": "S",
                  "mon": "M",
                  "tue": "D",
                  "wed": "M",
                  "thu": "D",
                  "fri": "F",
                  "sat": "S"
                },
                "short": {
                  "sun": "Su.",
                  "mon": "Mä.",
                  "tue": "Zi.",
                  "wed": "Mi.",
                  "thu": "Du.",
                  "fri": "Fr.",
                  "sat": "Sa."
                },
                "wide": {
                  "sun": "Sunntig",
                  "mon": "Määntig",
                  "tue": "Ziischtig",
                  "wed": "Mittwuch",
                  "thu": "Dunschtig",
                  "fri": "Friitig",
                  "sat": "Samschtig"
                }
              }
            },
            "quarters": {
              "format": {
                "abbreviated": {
                  "1": "Q1",
                  "2": "Q2",
                  "3": "Q3",
                  "4": "Q4"
                },
                "narrow": {
                  "1": "1",
                  "2": "2",
                  "3": "3",
                  "4": "4"
                },
                "wide": {
                  "1": "1. Quartal",
                  "2": "2. Quartal",
                  "3": "3. Quartal",
                  "4": "4. Quartal"
                }
              },
              "stand-alone": {
                "abbreviated": {
                  "1": "Q1",
                  "2": "Q2",
                  "3": "Q3",
                  "4": "Q4"
                },
                "narrow": {
                  "1": "1",
                  "2": "2",
                  "3": "3",
                  "4": "4"
                },
                "wide": {
                  "1": "1. Quartal",
                  "2": "2. Quartal",
                  "3": "3. Quartal",
                  "4": "4. Quartal"
                }
              }
            },
            "dayPeriods": {
              "format": {
                "abbreviated": {
                  "am": "vorm.",
                  "noon": "noon",
                  "pm": "nam."
                },
                "narrow": {
                  "am": "a",
                  "noon": "n",
                  "pm": "p"
                },
                "wide": {
                  "am": "vorm.",
                  "noon": "noon",
                  "pm": "nam."
                }
              },
              "stand-alone": {
                "abbreviated": {
                  "am": "vorm.",
                  "noon": "noon",
                  "pm": "nam."
                },
                "narrow": {
                  "am": "a",
                  "noon": "n",
                  "pm": "p"
                },
                "wide": {
                  "am": "vorm.",
                  "noon": "noon",
                  "pm": "nam."
                }
              }
            },
            "eras": {
              "eraNames": {
                "0": "v. Chr.",
                "0-alt-variant": "BCE",
                "1": "n. Chr.",
                "1-alt-variant": "CE"
              },
              "eraAbbr": {
                "0": "v. Chr.",
                "0-alt-variant": "BCE",
                "1": "n. Chr.",
                "1-alt-variant": "CE"
              },
              "eraNarrow": {
                "0": "v. Chr.",
                "0-alt-variant": "BCE",
                "1": "n. Chr.",
                "1-alt-variant": "CE"
              }
            },
            "dateFormats": {
              "full": "EEEE, d. MMMM y",
              "long": "d. MMMM y",
              "medium": "dd.MM.y",
              "short": "dd.MM.yy"
            },
            "timeFormats": {
              "full": "HH:mm:ss zzzz",
              "long": "HH:mm:ss z",
              "medium": "HH:mm:ss",
              "short": "HH:mm"
            },
            "dateTimeFormats": {
              "full": "{1} {0}",
              "long": "{1} {0}",
              "medium": "{1} {0}",
              "short": "{1} {0}",
              "availableFormats": {
                "E": "ccc",
                "EHm": "E HH:mm",
                "EHms": "E HH:mm:ss",
                "Ed": "E d.",
                "Ehm": "E h:mm a",
                "Ehms": "E h:mm:ss a",
                "Gy": "G y",
                "GyMMM": "G y MMM",
                "GyMMMEd": "G y MMM d, E",
                "GyMMMd": "G y MMM d",
                "H": "H",
                "HHmm": "HH:mm",
                "HHmmss": "HH:mm:ss",
                "Hm": "H:mm",
                "Hms": "HH:mm:ss",
                "Hmsv": "HH:mm:ss v",
                "Hmv": "HH:mm v",
                "M": "L",
                "MEd": "E, d.M.",
                "MMM": "LLL",
                "MMMEd": "E d. MMM",
                "MMMMEd": "E d. MMMM",
                "MMMMd": "d. MMMM",
                "MMMd": "d. MMM",
                "MMd": "d.MM.",
                "MMdd": "dd.MM.",
                "Md": "d.M.",
                "d": "d",
                "h": "h a",
                "hm": "h:mm a",
                "hms": "h:mm:ss a",
                "hmsv": "h:mm:ss a v",
                "hmv": "h:mm a v",
                "mmss": "mm:ss",
                "ms": "mm:ss",
                "y": "y",
                "yM": "y-M",
                "yMEd": "E, y-M-d",
                "yMM": "MM.y",
                "yMMM": "MMM y",
                "yMMMEd": "E, d. MMM y",
                "yMMMM": "MMMM y",
                "yMMMd": "y MMM d",
                "yMMdd": "dd.MM.y",
                "yMd": "y-MM-dd",
                "yQQQ": "QQQ y",
                "yQQQQ": "QQQQ y"
              },
              "appendItems": {
                "Day": "{0} ({2}: {1})",
                "Day-Of-Week": "{0} {1}",
                "Era": "{1} {0}",
                "Hour": "{0} ({2}: {1})",
                "Minute": "{0} ({2}: {1})",
                "Month": "{0} ({2}: {1})",
                "Quarter": "{0} ({2}: {1})",
                "Second": "{0} ({2}: {1})",
                "Timezone": "{0} {1}",
                "Week": "{0} ({2}: {1})",
                "Year": "{1} {0}"
              },
              "intervalFormats": {
                "intervalFormatFallback": "{0} – {1}",
                "H": {
                  "H": "HH–HH"
                },
                "Hm": {
                  "H": "HH:mm–HH:mm",
                  "m": "HH:mm–HH:mm"
                },
                "Hmv": {
                  "H": "HH:mm–HH:mm v",
                  "m": "HH:mm–HH:mm v"
                },
                "Hv": {
                  "H": "HH–HH v"
                },
                "M": {
                  "M": "M.–M."
                },
                "MEd": {
                  "M": "E, dd.MM. – E, dd.MM.",
                  "d": "E, dd.MM. – E, dd.MM."
                },
                "MMM": {
                  "M": "MMM–MMM"
                },
                "MMMEd": {
                  "M": "E, d. MMM – E, d. MMM",
                  "d": "E, d. – E, d. MMM"
                },
                "MMMM": {
                  "M": "LLLL–LLLL"
                },
                "MMMd": {
                  "M": "d. MMM – d. MMM",
                  "d": "d.–d. MMM"
                },
                "Md": {
                  "M": "dd.MM. – dd.MM.",
                  "d": "dd.MM. – dd.MM."
                },
                "d": {
                  "d": "d.–d."
                },
                "h": {
                  "a": "h a – h a",
                  "h": "h–h a"
                },
                "hm": {
                  "a": "h:mm a – h:mm a",
                  "h": "h:mm–h:mm a",
                  "m": "h:mm–h:mm a"
                },
                "hmv": {
                  "a": "h:mm a – h:mm a v",
                  "h": "h:mm–h:mm a v",
                  "m": "h:mm–h:mm a v"
                },
                "hv": {
                  "a": "h a – h a v",
                  "h": "h–h a v"
                },
                "y": {
                  "y": "y–y"
                },
                "yM": {
                  "M": "MM.y – MM.y",
                  "y": "MM.y – MM.y"
                },
                "yMEd": {
                  "M": "E, dd.MM.y – E, dd.MM.y",
                  "d": "E, dd.MM.y – E, dd.MM.y",
                  "y": "E, dd.MM.y – E, dd.MM.y"
                },
                "yMMM": {
                  "M": "MMM–MMM y",
                  "y": "MMM y – MMM y"
                },
                "yMMMEd": {
                  "M": "E, d. MMM – E, d. MMM y",
                  "d": "E, d. – E, d. MMM y",
                  "y": "E, d. MMM y – E, d. MMM y"
                },
                "yMMMM": {
                  "M": "MM – MM.y",
                  "y": "MM.y – MM.y"
                },
                "yMMMd": {
                  "M": "d. MMM – d. MMM y",
                  "d": "d.–d. MMM y",
                  "y": "d. MMM y – d. MMM y"
                },
                "yMd": {
                  "M": "dd.MM.y – dd.MM.y",
                  "d": "dd.MM.y – dd.MM.y",
                  "y": "dd.MM.y – dd.MM.y"
                }
              }
            }
          }
        }
      }
    }
  }
}
