{
  "main": {
    "dsb": {
      "identity": {
        "version": {
          "_cldrVersion": "27.0.1",
          "_number": "$Revision: 11294 $"
        },
        "generation": {
          "_date": "$Date: 2015-02-23 16:50:24 -0600 (Mon, 23 Feb 2015) $"
        },
        "language": "dsb"
      },
      "dates": {
        "fields": {
          "era": {
            "displayName": "epocha"
          },
          "year": {
            "displayName": "lěto",
            "relative-type--1": "łoni",
            "relative-type-0": "lětosa",
            "relative-type-1": "znowa",
            "relativeTime-type-future": {
              "relativeTimePattern-count-one": "za {0} lěto",
              "relativeTimePattern-count-two": "za {0} lěśe",
              "relativeTimePattern-count-few": "za {0} lěta",
              "relativeTimePattern-count-other": "za {0} lět"
            },
            "relativeTime-type-past": {
              "relativeTimePattern-count-one": "pśed {0} lětom",
              "relativeTimePattern-count-two": "pśed {0} lětoma",
              "relativeTimePattern-count-few": "pśed {0} lětami",
              "relativeTimePattern-count-other": "pśed {0} lětami"
            }
          },
          "year-short": {
            "displayName": "l.",
            "relative-type--1": "łoni",
            "relative-type-0": "lětosa",
            "relative-type-1": "znowa",
            "relativeTime-type-future": {
              "relativeTimePattern-count-one": "za {0} l.",
              "relativeTimePattern-count-two": "za {0} l.",
              "relativeTimePattern-count-few": "za {0} l.",
              "relativeTimePattern-count-other": "za {0} l."
            },
            "relativeTime-type-past": {
              "relativeTimePattern-count-one": "pśed {0} l.",
              "relativeTimePattern-count-two": "pśed {0} l.",
              "relativeTimePattern-count-few": "pśed {0} l.",
              "relativeTimePattern-count-other": "pśed {0} l."
            }
          },
          "year-narrow": {
            "displayName": "l.",
            "relative-type--1": "łoni",
            "relative-type-0": "lětosa",
            "relative-type-1": "znowa",
            "relativeTime-type-future": {
              "relativeTimePattern-count-one": "za {0} l.",
              "relativeTimePattern-count-two": "za {0} l.",
              "relativeTimePattern-count-few": "za {0} l.",
              "relativeTimePattern-count-other": "za {0} l."
            },
            "relativeTime-type-past": {
              "relativeTimePattern-count-one": "pśed {0} l.",
              "relativeTimePattern-count-two": "pśed {0} l.",
              "relativeTimePattern-count-few": "pśed {0} l.",
              "relativeTimePattern-count-other": "pśed {0} l."
            }
          },
          "quarter": {
            "displayName": "kwartal",
            "relative-type--1": "last quarter",
            "relative-type-0": "this quarter",
            "relative-type-1": "next quarter",
            "relativeTime-type-future": {
              "relativeTimePattern-count-one": "za {0} kwartal",
              "relativeTimePattern-count-two": "za {0} kwartala",
              "relativeTimePattern-count-few": "za {0} kwartale",
              "relativeTimePattern-count-other": "za {0} kwartalow"
            },
            "relativeTime-type-past": {
              "relativeTimePattern-count-one": "pśed {0} kwartalom",
              "relativeTimePattern-count-two": "pśed {0} kwartaloma",
              "relativeTimePattern-count-few": "pśed {0} kwartalami",
              "relativeTimePattern-count-other": "pśed {0} kwartalami"
            }
          },
          "quarter-short": {
            "displayName": "kwart.",
            "relative-type--1": "last quarter",
            "relative-type-0": "this quarter",
            "relative-type-1": "next quarter",
            "relativeTime-type-future": {
              "relativeTimePattern-count-one": "za {0} kwart.",
              "relativeTimePattern-count-two": "za {0} kwart.",
              "relativeTimePattern-count-few": "za {0} kwart.",
              "relativeTimePattern-count-other": "za {0} kwart."
            },
            "relativeTime-type-past": {
              "relativeTimePattern-count-one": "pśed {0} kwart.",
              "relativeTimePattern-count-two": "pśed {0} kwart.",
              "relativeTimePattern-count-few": "pśed {0} kwart.",
              "relativeTimePattern-count-other": "pśed {0} kwart."
            }
          },
          "quarter-narrow": {
            "displayName": "kw.",
            "relative-type--1": "last quarter",
            "relative-type-0": "this quarter",
            "relative-type-1": "next quarter",
            "relativeTime-type-future": {
              "relativeTimePattern-count-one": "za {0} kw.",
              "relativeTimePattern-count-two": "za {0} kw.",
              "relativeTimePattern-count-few": "za {0} kw.",
              "relativeTimePattern-count-other": "za {0} kw."
            },
            "relativeTime-type-past": {
              "relativeTimePattern-count-one": "pśed {0} kw.",
              "relativeTimePattern-count-two": "pśed {0} kw.",
              "relativeTimePattern-count-few": "pśed {0} kw.",
              "relativeTimePattern-count-other": "pśed {0} kw."
            }
          },
          "month": {
            "displayName": "mjasec",
            "relative-type--1": "slědny mjasec",
            "relative-type-0": "ten mjasec",
            "relative-type-1": "pśiducy mjasec",
            "relativeTime-type-future": {
              "relativeTimePattern-count-one": "za {0} mjasec",
              "relativeTimePattern-count-two": "za {0} mjaseca",
              "relativeTimePattern-count-few": "za {0} mjasecy",
              "relativeTimePattern-count-other": "za {0} mjasecow"
            },
            "relativeTime-type-past": {
              "relativeTimePattern-count-one": "pśed {0} mjasecom",
              "relativeTimePattern-count-two": "pśed {0} mjasecoma",
              "relativeTimePattern-count-few": "pśed {0} mjasecami",
              "relativeTimePattern-count-other": "pśed {0} mjasecami"
            }
          },
          "month-short": {
            "displayName": "mjas.",
            "relative-type--1": "slědny mjasec",
            "relative-type-0": "ten mjasec",
            "relative-type-1": "pśiducy mjasec",
            "relativeTime-type-future": {
              "relativeTimePattern-count-one": "za {0} mjas.",
              "relativeTimePattern-count-two": "za {0} mjas.",
              "relativeTimePattern-count-few": "za {0} mjas.",
              "relativeTimePattern-count-other": "za {0} mjas."
            },
            "relativeTime-type-past": {
              "relativeTimePattern-count-one": "pśed {0} mjas.",
              "relativeTimePattern-count-two": "pśed {0} mjas.",
              "relativeTimePattern-count-few": "pśed {0} mjas.",
              "relativeTimePattern-count-other": "pśed {0} mjas."
            }
          },
          "month-narrow": {
            "displayName": "mjas.",
            "relative-type--1": "slědny mjasec",
            "relative-type-0": "ten mjasec",
            "relative-type-1": "pśiducy mjasec",
            "relativeTime-type-future": {
              "relativeTimePattern-count-one": "za {0} mjas.",
              "relativeTimePattern-count-two": "za {0} mjas.",
              "relativeTimePattern-count-few": "za {0} mjas.",
              "relativeTimePattern-count-other": "za {0} mjas."
            },
            "relativeTime-type-past": {
              "relativeTimePattern-count-one": "pśed {0} mjas.",
              "relativeTimePattern-count-two": "pśed {0} mjas.",
              "relativeTimePattern-count-few": "pśed {0} mjas.",
              "relativeTimePattern-count-other": "pśed {0} mjas."
            }
          },
          "week": {
            "displayName": "tyźeń",
            "relative-type--1": "slědny tyźeń",
            "relative-type-0": "ten tyźeń",
            "relative-type-1": "pśiducy tyźeń",
            "relativeTime-type-future": {
              "relativeTimePattern-count-one": "za {0} tyźeń",
              "relativeTimePattern-count-two": "za {0} tyźenja",
              "relativeTimePattern-count-few": "za {0} tyźenje",
              "relativeTimePattern-count-other": "za {0} tyźenjow"
            },
            "relativeTime-type-past": {
              "relativeTimePattern-count-one": "pśed {0} tyźenjom",
              "relativeTimePattern-count-two": "pśed {0} tyźenjoma",
              "relativeTimePattern-count-few": "pśed {0} tyźenjami",
              "relativeTimePattern-count-other": "pśed {0} tyźenjami"
            }
          },
          "week-short": {
            "displayName": "tyź.",
            "relative-type--1": "slědny tyźeń",
            "relative-type-0": "ten tyźeń",
            "relative-type-1": "pśiducy tyźeń",
            "relativeTime-type-future": {
              "relativeTimePattern-count-one": "za {0} tyź.",
              "relativeTimePattern-count-two": "za {0} tyź.",
              "relativeTimePattern-count-few": "za {0} tyź.",
              "relativeTimePattern-count-other": "za {0} tyź."
            },
            "relativeTime-type-past": {
              "relativeTimePattern-count-one": "pśed {0} tyź.",
              "relativeTimePattern-count-two": "pśed {0} tyź.",
              "relativeTimePattern-count-few": "pśed {0} tyź.",
              "relativeTimePattern-count-other": "pśed {0} tyź."
            }
          },
          "week-narrow": {
            "displayName": "tyź.",
            "relative-type--1": "slědny tyźeń",
            "relative-type-0": "ten tyźeń",
            "relative-type-1": "pśiducy tyźeń",
            "relativeTime-type-future": {
              "relativeTimePattern-count-one": "za {0} tyź.",
              "relativeTimePattern-count-two": "za {0} tyź.",
              "relativeTimePattern-count-few": "za {0} tyź.",
              "relativeTimePattern-count-other": "za {0} tyź."
            },
            "relativeTime-type-past": {
              "relativeTimePattern-count-one": "pśed {0} tyź.",
              "relativeTimePattern-count-two": "pśed {0} tyź.",
              "relativeTimePattern-count-few": "pśed {0} tyź.",
              "relativeTimePattern-count-other": "pśed {0} tyź."
            }
          },
          "day": {
            "displayName": "źeń",
            "relative-type--1": "cora",
            "relative-type-0": "źinsa",
            "relative-type-1": "witśe",
            "relativeTime-type-future": {
              "relativeTimePattern-count-one": "za {0} źeń",
              "relativeTimePattern-count-two": "za {0} dnja",
              "relativeTimePattern-count-few": "za {0} dny",
              "relativeTimePattern-count-other": "za {0} dnjow"
            },
            "relativeTime-type-past": {
              "relativeTimePattern-count-one": "pśed {0} dnjom",
              "relativeTimePattern-count-two": "pśed {0} dnjoma",
              "relativeTimePattern-count-few": "pśed {0} dnjami",
              "relativeTimePattern-count-other": "pśed {0} dnjami"
            }
          },
          "day-short": {
            "displayName": "źeń",
            "relative-type--1": "cora",
            "relative-type-0": "źinsa",
            "relative-type-1": "witśe",
            "relativeTime-type-future": {
              "relativeTimePattern-count-one": "za {0} źeń",
              "relativeTimePattern-count-two": "za {0} dnj.",
              "relativeTimePattern-count-few": "za {0} dny",
              "relativeTimePattern-count-other": "za {0} dnj."
            },
            "relativeTime-type-past": {
              "relativeTimePattern-count-one": "pśed {0} dnj.",
              "relativeTimePattern-count-two": "pśed {0} dnj.",
              "relativeTimePattern-count-few": "pśed {0} dnj.",
              "relativeTimePattern-count-other": "pśed {0} dnj."
            }
          },
          "day-narrow": {
            "displayName": "ź",
            "relative-type--1": "cora",
            "relative-type-0": "źinsa",
            "relative-type-1": "witśe",
            "relativeTime-type-future": {
              "relativeTimePattern-count-one": "za {0} ź",
              "relativeTimePattern-count-two": "za {0} ź",
              "relativeTimePattern-count-few": "za {0} ź",
              "relativeTimePattern-count-other": "za {0} ź"
            },
            "relativeTime-type-past": {
              "relativeTimePattern-count-one": "pśed {0} d",
              "relativeTimePattern-count-two": "pśed {0} d",
              "relativeTimePattern-count-few": "pśed {0} d",
              "relativeTimePattern-count-other": "pśed {0} d"
            }
          },
          "weekday": {
            "displayName": "źeń tyźenja"
          },
          "sun": {
            "relative-type--1": "slědnu njeźelu",
            "relative-type-0": "tu njeźelu",
            "relative-type-1": "pśiducu njeźelu"
          },
          "sun-short": {
            "relative-type--1": "slědnu nje.",
            "relative-type-0": "tu nje.",
            "relative-type-1": "pśiducu nje."
          },
          "sun-narrow": {
            "relative-type--1": "slědnu nj.",
            "relative-type-0": "tu nj.",
            "relative-type-1": "pśiducu nj."
          },
          "mon": {
            "relative-type--1": "slědne pónjeźele",
            "relative-type-0": "to pónjeźele",
            "relative-type-1": "pśiduce pónjeźele"
          },
          "mon-short": {
            "relative-type--1": "slědne pónj.",
            "relative-type-0": "to pónj.",
            "relative-type-1": "pśiduce pónj."
          },
          "mon-narrow": {
            "relative-type--1": "slědne pó.",
            "relative-type-0": "to pó.",
            "relative-type-1": "pśiduce pó."
          },
          "tue": {
            "relative-type--1": "slědnu wałtoru",
            "relative-type-0": "tu wałtoru",
            "relative-type-1": "pśiducu wałtoru"
          },
          "tue-short": {
            "relative-type--1": "slědnu wałt.",
            "relative-type-0": "tu wałt.",
            "relative-type-1": "pśiducu wałt."
          },
          "tue-narrow": {
            "relative-type--1": "slědnu wa.",
            "relative-type-0": "tu wa.",
            "relative-type-1": "pśiducu wa."
          },
          "wed": {
            "relative-type--1": "slědnu srjodu",
            "relative-type-0": "tu srjodu",
            "relative-type-1": "pśiducu srjodu"
          },
          "wed-short": {
            "relative-type--1": "slědnu srj.",
            "relative-type-0": "tu srj.",
            "relative-type-1": "pśiducu srj."
          },
          "wed-narrow": {
            "relative-type--1": "slědnu sr.",
            "relative-type-0": "tu sr.",
            "relative-type-1": "pśiducu sr."
          },
          "thu": {
            "relative-type--1": "slědny stwórtk",
            "relative-type-0": "ten stwórtk",
            "relative-type-1": "pśiducy stwórtk"
          },
          "thu-short": {
            "relative-type--1": "slědny stw.",
            "relative-type-0": "ten stw.",
            "relative-type-1": "pśiducy stw."
          },
          "thu-narrow": {
            "relative-type--1": "slědny st.",
            "relative-type-0": "ten st.",
            "relative-type-1": "pśiducy st."
          },
          "fri": {
            "relative-type--1": "slědny pětk",
            "relative-type-0": "ten pětk",
            "relative-type-1": "pśiducy pětk"
          },
          "fri-short": {
            "relative-type--1": "slědny pět.",
            "relative-type-0": "ten pět.",
            "relative-type-1": "pśiducy pět."
          },
          "fri-narrow": {
            "relative-type--1": "slědny pě.",
            "relative-type-0": "ten pě.",
            "relative-type-1": "pśiducy pě."
          },
          "sat": {
            "relative-type--1": "slědnu sobotu",
            "relative-type-0": "tu sobotu",
            "relative-type-1": "pśiducu sobotu"
          },
          "sat-short": {
            "relative-type--1": "slědnu sob.",
            "relative-type-0": "tu sob.",
            "relative-type-1": "pśiducu sob."
          },
          "sat-narrow": {
            "relative-type--1": "slědnu so.",
            "relative-type-0": "tu so.",
            "relative-type-1": "pśiducu so."
          },
          "dayperiod": {
            "displayName": "połojca dnja"
          },
          "hour": {
            "displayName": "góźina",
            "relativeTime-type-future": {
              "relativeTimePattern-count-one": "za {0} góźinu",
              "relativeTimePattern-count-two": "za {0} góźinje",
              "relativeTimePattern-count-few": "za {0} góźiny",
              "relativeTimePattern-count-other": "za {0} góźin"
            },
            "relativeTime-type-past": {
              "relativeTimePattern-count-one": "pśed {0} góźinu",
              "relativeTimePattern-count-two": "pśed {0} góźinoma",
              "relativeTimePattern-count-few": "pśed {0} góźinami",
              "relativeTimePattern-count-other": "pśed {0} góźinami"
            }
          },
          "hour-short": {
            "displayName": "góź.",
            "relativeTime-type-future": {
              "relativeTimePattern-count-one": "za {0} góź.",
              "relativeTimePattern-count-two": "za {0} góź.",
              "relativeTimePattern-count-few": "za {0} góź.",
              "relativeTimePattern-count-other": "za {0} góź."
            },
            "relativeTime-type-past": {
              "relativeTimePattern-count-one": "pśed {0} góź.",
              "relativeTimePattern-count-two": "pśed {0} góź.",
              "relativeTimePattern-count-few": "pśed {0} góź.",
              "relativeTimePattern-count-other": "pśed {0} góź."
            }
          },
          "hour-narrow": {
            "displayName": "g",
            "relativeTime-type-future": {
              "relativeTimePattern-count-one": "za {0} g",
              "relativeTimePattern-count-two": "za {0} g",
              "relativeTimePattern-count-few": "za {0} g",
              "relativeTimePattern-count-other": "za {0} g"
            },
            "relativeTime-type-past": {
              "relativeTimePattern-count-one": "pśed {0} g",
              "relativeTimePattern-count-two": "pśed {0} g",
              "relativeTimePattern-count-few": "pśed {0} g",
              "relativeTimePattern-count-other": "pśed {0} g"
            }
          },
          "minute": {
            "displayName": "minuta",
            "relativeTime-type-future": {
              "relativeTimePattern-count-one": "za {0} minutu",
              "relativeTimePattern-count-two": "za {0} minuśe",
              "relativeTimePattern-count-few": "za {0} minuty",
              "relativeTimePattern-count-other": "za {0} minutow"
            },
            "relativeTime-type-past": {
              "relativeTimePattern-count-one": "pśed {0} minutu",
              "relativeTimePattern-count-two": "pśed {0} minutoma",
              "relativeTimePattern-count-few": "pśed {0} minutami",
              "relativeTimePattern-count-other": "pśed {0} minutami"
            }
          },
          "minute-short": {
            "displayName": "min.",
            "relativeTime-type-future": {
              "relativeTimePattern-count-one": "za {0} min.",
              "relativeTimePattern-count-two": "za {0} min.",
              "relativeTimePattern-count-few": "za {0} min.",
              "relativeTimePattern-count-other": "za {0} min."
            },
            "relativeTime-type-past": {
              "relativeTimePattern-count-one": "pśed {0} min.",
              "relativeTimePattern-count-two": "pśed {0} min.",
              "relativeTimePattern-count-few": "pśed {0} min.",
              "relativeTimePattern-count-other": "pśed {0} min."
            }
          },
          "minute-narrow": {
            "displayName": "m",
            "relativeTime-type-future": {
              "relativeTimePattern-count-one": "za {0} m",
              "relativeTimePattern-count-two": "za {0} m",
              "relativeTimePattern-count-few": "za {0} m",
              "relativeTimePattern-count-other": "za {0} m"
            },
            "relativeTime-type-past": {
              "relativeTimePattern-count-one": "pśed {0} m",
              "relativeTimePattern-count-two": "pśed {0} m",
              "relativeTimePattern-count-few": "pśed {0} m",
              "relativeTimePattern-count-other": "pśed {0} m"
            }
          },
          "second": {
            "displayName": "sekunda",
            "relative-type-0": "now",
            "relativeTime-type-future": {
              "relativeTimePattern-count-one": "za {0} sekundu",
              "relativeTimePattern-count-two": "za {0} sekunźe",
              "relativeTimePattern-count-few": "za {0} sekundy",
              "relativeTimePattern-count-other": "za {0} sekundow"
            },
            "relativeTime-type-past": {
              "relativeTimePattern-count-one": "pśed {0} sekundu",
              "relativeTimePattern-count-two": "pśed {0} sekundoma",
              "relativeTimePattern-count-few": "pśed {0} sekundami",
              "relativeTimePattern-count-other": "pśed {0} sekundami"
            }
          },
          "second-short": {
            "displayName": "sek.",
            "relative-type-0": "now",
            "relativeTime-type-future": {
              "relativeTimePattern-count-one": "za {0} sek.",
              "relativeTimePattern-count-two": "za {0} sek.",
              "relativeTimePattern-count-few": "za {0} sek.",
              "relativeTimePattern-count-other": "za {0} sek."
            },
            "relativeTime-type-past": {
              "relativeTimePattern-count-one": "pśed {0} sek.",
              "relativeTimePattern-count-two": "pśed {0} sek.",
              "relativeTimePattern-count-few": "pśed {0} sek.",
              "relativeTimePattern-count-other": "pśed {0} sek."
            }
          },
          "second-narrow": {
            "displayName": "s",
            "relative-type-0": "now",
            "relativeTime-type-future": {
              "relativeTimePattern-count-one": "za {0} s",
              "relativeTimePattern-count-two": "za {0} s",
              "relativeTimePattern-count-few": "za {0} s",
              "relativeTimePattern-count-other": "za {0} s"
            },
            "relativeTime-type-past": {
              "relativeTimePattern-count-one": "pśed {0} s",
              "relativeTimePattern-count-two": "pśed {0} s",
              "relativeTimePattern-count-few": "pśed {0} s",
              "relativeTimePattern-count-other": "pśed {0} s"
            }
          },
          "zone": {
            "displayName": "casowe pasmo"
          }
        }
      }
    }
  }
}
