{
  "main": {
    "luo": {
      "identity": {
        "version": {
          "_cldrVersion": "27.0.1",
          "_number": "$Revision: 10739 $"
        },
        "generation": {
          "_date": "$Date: 2014-08-07 12:54:13 -0500 (Thu, 07 Aug 2014) $"
        },
        "language": "luo"
      },
      "dates": {
        "calendars": {
          "gregorian": {
            "months": {
              "format": {
                "abbreviated": {
                  "1": "DAC",
                  "2": "DAR",
                  "3": "DAD",
                  "4": "DAN",
                  "5": "DAH",
                  "6": "DAU",
                  "7": "DAO",
                  "8": "DAB",
                  "9": "DOC",
                  "10": "DAP",
                  "11": "DGI",
                  "12": "DAG"
                },
                "narrow": {
                  "1": "C",
                  "2": "R",
                  "3": "D",
                  "4": "N",
                  "5": "B",
                  "6": "U",
                  "7": "B",
                  "8": "B",
                  "9": "C",
                  "10": "P",
                  "11": "C",
                  "12": "P"
                },
                "wide": {
                  "1": "Dwe mar Achiel",
                  "2": "Dwe mar Ariyo",
                  "3": "Dwe mar Adek",
                  "4": "Dwe mar Ang’wen",
                  "5": "Dwe mar Abich",
                  "6": "Dwe mar Auchiel",
                  "7": "Dwe mar Abiriyo",
                  "8": "Dwe mar Aboro",
                  "9": "Dwe mar Ochiko",
                  "10": "Dwe mar Apar",
                  "11": "Dwe mar gi achiel",
                  "12": "Dwe mar Apar gi ariyo"
                }
              },
              "stand-alone": {
                "abbreviated": {
                  "1": "DAC",
                  "2": "DAR",
                  "3": "DAD",
                  "4": "DAN",
                  "5": "DAH",
                  "6": "DAU",
                  "7": "DAO",
                  "8": "DAB",
                  "9": "DOC",
                  "10": "DAP",
                  "11": "DGI",
                  "12": "DAG"
                },
                "narrow": {
                  "1": "C",
                  "2": "R",
                  "3": "D",
                  "4": "N",
                  "5": "B",
                  "6": "U",
                  "7": "B",
                  "8": "B",
                  "9": "C",
                  "10": "P",
                  "11": "C",
                  "12": "P"
                },
                "wide": {
                  "1": "Dwe mar Achiel",
                  "2": "Dwe mar Ariyo",
                  "3": "Dwe mar Adek",
                  "4": "Dwe mar Ang’wen",
                  "5": "Dwe mar Abich",
                  "6": "Dwe mar Auchiel",
                  "7": "Dwe mar Abiriyo",
                  "8": "Dwe mar Aboro",
                  "9": "Dwe mar Ochiko",
                  "10": "Dwe mar Apar",
                  "11": "Dwe mar gi achiel",
                  "12": "Dwe mar Apar gi ariyo"
                }
              }
            },
            "days": {
              "format": {
                "abbreviated": {
                  "sun": "JMP",
                  "mon": "WUT",
                  "tue": "TAR",
                  "wed": "TAD",
                  "thu": "TAN",
                  "fri": "TAB",
                  "sat": "NGS"
                },
                "narrow": {
                  "sun": "J",
                  "mon": "W",
                  "tue": "T",
                  "wed": "T",
                  "thu": "T",
                  "fri": "T",
                  "sat": "N"
                },
                "short": {
                  "sun": "JMP",
                  "mon": "WUT",
                  "tue": "TAR",
                  "wed": "TAD",
                  "thu": "TAN",
                  "fri": "TAB",
                  "sat": "NGS"
                },
                "wide": {
                  "sun": "Jumapil",
                  "mon": "Wuok Tich",
                  "tue": "Tich Ariyo",
                  "wed": "Tich Adek",
                  "thu": "Tich Ang’wen",
                  "fri": "Tich Abich",
                  "sat": "Ngeso"
                }
              },
              "stand-alone": {
                "abbreviated": {
                  "sun": "JMP",
                  "mon": "WUT",
                  "tue": "TAR",
                  "wed": "TAD",
                  "thu": "TAN",
                  "fri": "TAB",
                  "sat": "NGS"
                },
                "narrow": {
                  "sun": "J",
                  "mon": "W",
                  "tue": "T",
                  "wed": "T",
                  "thu": "T",
                  "fri": "T",
                  "sat": "N"
                },
                "short": {
                  "sun": "JMP",
                  "mon": "WUT",
                  "tue": "TAR",
                  "wed": "TAD",
                  "thu": "TAN",
                  "fri": "TAB",
                  "sat": "NGS"
                },
                "wide": {
                  "sun": "Jumapil",
                  "mon": "Wuok Tich",
                  "tue": "Tich Ariyo",
                  "wed": "Tich Adek",
                  "thu": "Tich Ang’wen",
                  "fri": "Tich Abich",
                  "sat": "Ngeso"
                }
              }
            },
            "quarters": {
              "format": {
                "abbreviated": {
                  "1": "NMN1",
                  "2": "NMN2",
                  "3": "NMN3",
                  "4": "NMN4"
                },
                "narrow": {
                  "1": "1",
                  "2": "2",
                  "3": "3",
                  "4": "4"
                },
                "wide": {
                  "1": "nus mar nus 1",
                  "2": "nus mar nus 2",
                  "3": "nus mar nus 3",
                  "4": "nus mar nus 4"
                }
              },
              "stand-alone": {
                "abbreviated": {
                  "1": "NMN1",
                  "2": "NMN2",
                  "3": "NMN3",
                  "4": "NMN4"
                },
                "narrow": {
                  "1": "1",
                  "2": "2",
                  "3": "3",
                  "4": "4"
                },
                "wide": {
                  "1": "nus mar nus 1",
                  "2": "nus mar nus 2",
                  "3": "nus mar nus 3",
                  "4": "nus mar nus 4"
                }
              }
            },
            "dayPeriods": {
              "format": {
                "abbreviated": {
                  "am": "OD",
                  "noon": "noon",
                  "pm": "OT"
                },
                "narrow": {
                  "am": "a",
                  "noon": "n",
                  "pm": "p"
                },
                "wide": {
                  "am": "OD",
                  "noon": "noon",
                  "pm": "OT"
                }
              },
              "stand-alone": {
                "abbreviated": {
                  "am": "OD",
                  "noon": "noon",
                  "pm": "OT"
                },
                "narrow": {
                  "am": "a",
                  "noon": "n",
                  "pm": "p"
                },
                "wide": {
                  "am": "OD",
                  "noon": "noon",
                  "pm": "OT"
                }
              }
            },
            "eras": {
              "eraNames": {
                "0": "Kapok Kristo obiro",
                "0-alt-variant": "BCE",
                "1": "Ka Kristo osebiro",
                "1-alt-variant": "CE"
              },
              "eraAbbr": {
                "0": "BC",
                "0-alt-variant": "BCE",
                "1": "AD",
                "1-alt-variant": "CE"
              },
              "eraNarrow": {
                "0": "BC",
                "0-alt-variant": "BCE",
                "1": "AD",
                "1-alt-variant": "CE"
              }
            },
            "dateFormats": {
              "full": "EEEE, d MMMM y",
              "long": "d MMMM y",
              "medium": "d MMM y",
              "short": "dd/MM/y"
            },
            "timeFormats": {
              "full": "h:mm:ss a zzzz",
              "long": "h:mm:ss a z",
              "medium": "h:mm:ss a",
              "short": "h:mm a"
            },
            "dateTimeFormats": {
              "full": "{1} {0}",
              "long": "{1} {0}",
              "medium": "{1} {0}",
              "short": "{1} {0}",
              "availableFormats": {
                "E": "ccc",
                "EHm": "E HH:mm",
                "EHms": "E HH:mm:ss",
                "Ed": "d, E",
                "Ehm": "E h:mm a",
                "Ehms": "E h:mm:ss a",
                "Gy": "G y",
                "GyMMM": "G y MMM",
                "GyMMMEd": "G y MMM d, E",
                "GyMMMd": "G y MMM d",
                "H": "HH",
                "Hm": "HH:mm",
                "Hms": "HH:mm:ss",
                "Hmsv": "HH:mm:ss v",
                "Hmv": "HH:mm v",
                "M": "L",
                "MEd": "E, M/d",
                "MMM": "LLL",
                "MMMEd": "E, MMM d",
                "MMMMEd": "E, MMMM d",
                "MMMMd": "MMMM d",
                "MMMd": "MMM d",
                "Md": "M/d",
                "d": "d",
                "h": "h a",
                "hm": "h:mm a",
                "hms": "h:mm:ss a",
                "hmsv": "h:mm:ss a v",
                "hmv": "h:mm a v",
                "ms": "mm:ss",
                "y": "y",
                "yM": "M/y",
                "yMEd": "E, M/d/y",
                "yMMM": "MMM y",
                "yMMMEd": "E, MMM d, y",
                "yMMMM": "MMMM y",
                "yMMMd": "y MMM d",
                "yMd": "y-MM-dd",
                "yQQQ": "QQQ y",
                "yQQQQ": "QQQQ y"
              },
              "appendItems": {
                "Day": "{0} ({2}: {1})",
                "Day-Of-Week": "{0} {1}",
                "Era": "{1} {0}",
                "Hour": "{0} ({2}: {1})",
                "Minute": "{0} ({2}: {1})",
                "Month": "{0} ({2}: {1})",
                "Quarter": "{0} ({2}: {1})",
                "Second": "{0} ({2}: {1})",
                "Timezone": "{0} {1}",
                "Week": "{0} ({2}: {1})",
                "Year": "{1} {0}"
              },
              "intervalFormats": {
                "intervalFormatFallback": "{0} – {1}",
                "H": {
                  "H": "HH–HH"
                },
                "Hm": {
                  "H": "HH:mm–HH:mm",
                  "m": "HH:mm–HH:mm"
                },
                "Hmv": {
                  "H": "HH:mm–HH:mm v",
                  "m": "HH:mm–HH:mm v"
                },
                "Hv": {
                  "H": "HH–HH v"
                },
                "M": {
                  "M": "MM–MM"
                },
                "MEd": {
                  "M": "MM-dd, E – MM-dd, E",
                  "d": "MM-dd, E – MM-dd, E"
                },
                "MMM": {
                  "M": "LLL–LLL"
                },
                "MMMEd": {
                  "M": "MMM d, E – MMM d, E",
                  "d": "MMM d, E – MMM d, E"
                },
                "MMMd": {
                  "M": "MMM d – MMM d",
                  "d": "MMM d–d"
                },
                "Md": {
                  "M": "MM-dd – MM-dd",
                  "d": "MM-dd – MM-dd"
                },
                "d": {
                  "d": "d–d"
                },
                "h": {
                  "a": "h a – h a",
                  "h": "h–h a"
                },
                "hm": {
                  "a": "h:mm a – h:mm a",
                  "h": "h:mm–h:mm a",
                  "m": "h:mm–h:mm a"
                },
                "hmv": {
                  "a": "h:mm a – h:mm a v",
                  "h": "h:mm–h:mm a v",
                  "m": "h:mm–h:mm a v"
                },
                "hv": {
                  "a": "h a – h a v",
                  "h": "h–h a v"
                },
                "y": {
                  "y": "y–y"
                },
                "yM": {
                  "M": "y-MM – y-MM",
                  "y": "y-MM – y-MM"
                },
                "yMEd": {
                  "M": "y-MM-dd, E – y-MM-dd, E",
                  "d": "y-MM-dd, E – y-MM-dd, E",
                  "y": "y-MM-dd, E – y-MM-dd, E"
                },
                "yMMM": {
                  "M": "y MMM–MMM",
                  "y": "y MMM – y MMM"
                },
                "yMMMEd": {
                  "M": "y MMM d, E – MMM d, E",
                  "d": "y MMM d, E – MMM d, E",
                  "y": "y MMM d, E – y MMM d, E"
                },
                "yMMMM": {
                  "M": "y MMMM–MMMM",
                  "y": "y MMMM – y MMMM"
                },
                "yMMMd": {
                  "M": "y MMM d – MMM d",
                  "d": "y MMM d–d",
                  "y": "y MMM d – y MMM d"
                },
                "yMd": {
                  "M": "y-MM-dd – y-MM-dd",
                  "d": "y-MM-dd – y-MM-dd",
                  "y": "y-MM-dd – y-MM-dd"
                }
              }
            }
          }
        }
      }
    }
  }
}
