{
  "main": {
    "se-FI": {
      "identity": {
        "version": {
          "_cldrVersion": "27.0.1",
          "_number": "$Revision: 10819 $"
        },
        "generation": {
          "_date": "$Date: 2014-08-14 22:53:08 -0500 (Thu, 14 Aug 2014) $"
        },
        "language": "se",
        "territory": "FI"
      },
      "dates": {
        "fields": {
          "era": {
            "displayName": "áigodat"
          },
          "year": {
            "displayName": "jahki",
            "relative-type--1": "mannan jagi",
            "relative-type-0": "dán jagi",
            "relative-type-1": "boahtte jagi",
            "relativeTime-type-future": {
              "relativeTimePattern-count-one": "{0} jagi siste",
              "relativeTimePattern-count-two": "{0} jagi siste",
              "relativeTimePattern-count-other": "{0} jagi siste"
            },
            "relativeTime-type-past": {
              "relativeTimePattern-count-one": "{0} jagi árat",
              "relativeTimePattern-count-two": "{0} jagi árat",
              "relativeTimePattern-count-other": "{0} jagi árat"
            }
          },
          "year-short": {
            "displayName": "j.",
            "relative-type--1": "mannan jagi",
            "relative-type-0": "dán jagi",
            "relative-type-1": "boahtte jagi",
            "relativeTime-type-future": {
              "relativeTimePattern-count-one": "{0} jagi siste",
              "relativeTimePattern-count-two": "{0} jagi siste",
              "relativeTimePattern-count-other": "{0} jagi siste"
            },
            "relativeTime-type-past": {
              "relativeTimePattern-count-one": "{0} jagi árat",
              "relativeTimePattern-count-two": "{0} jagi árat",
              "relativeTimePattern-count-other": "{0} jagi árat"
            }
          },
          "year-narrow": {
            "displayName": "j.",
            "relative-type--1": "mannan jagi",
            "relative-type-0": "dán jagi",
            "relative-type-1": "boahtte jagi",
            "relativeTime-type-future": {
              "relativeTimePattern-count-one": "{0} jagi siste",
              "relativeTimePattern-count-two": "{0} jagi siste",
              "relativeTimePattern-count-other": "{0} jagi siste"
            },
            "relativeTime-type-past": {
              "relativeTimePattern-count-one": "{0} jagi árat",
              "relativeTimePattern-count-two": "{0} jagi árat",
              "relativeTimePattern-count-other": "{0} jagi árat"
            }
          },
          "quarter": {
            "displayName": "jahkenjealjádas",
            "relative-type--1": "last quarter",
            "relative-type-0": "this quarter",
            "relative-type-1": "next quarter",
            "relativeTime-type-future": {
              "relativeTimePattern-count-other": "+{0} Q"
            },
            "relativeTime-type-past": {
              "relativeTimePattern-count-other": "-{0} Q"
            }
          },
          "quarter-short": {
            "displayName": "jahkenjealjádas",
            "relative-type--1": "last quarter",
            "relative-type-0": "this quarter",
            "relative-type-1": "next quarter",
            "relativeTime-type-future": {
              "relativeTimePattern-count-other": "+{0} Q"
            },
            "relativeTime-type-past": {
              "relativeTimePattern-count-other": "-{0} Q"
            }
          },
          "quarter-narrow": {
            "displayName": "jahkenjealjádas",
            "relative-type--1": "last quarter",
            "relative-type-0": "this quarter",
            "relative-type-1": "next quarter",
            "relativeTime-type-future": {
              "relativeTimePattern-count-other": "+{0} Q"
            },
            "relativeTime-type-past": {
              "relativeTimePattern-count-other": "-{0} Q"
            }
          },
          "month": {
            "displayName": "mánnu",
            "relative-type--1": "last month",
            "relative-type-0": "this month",
            "relative-type-1": "next month",
            "relativeTime-type-future": {
              "relativeTimePattern-count-one": "{0} mánotbadji maŋŋilit",
              "relativeTimePattern-count-two": "{0} mánotbadji maŋŋilit",
              "relativeTimePattern-count-other": "{0} mánotbadji maŋŋilit"
            },
            "relativeTime-type-past": {
              "relativeTimePattern-count-one": "{0} mánotbadji árat",
              "relativeTimePattern-count-two": "{0} mánotbadji árat",
              "relativeTimePattern-count-other": "{0} mánotbadji árat"
            }
          },
          "month-short": {
            "displayName": "mánnu",
            "relative-type--1": "last month",
            "relative-type-0": "this month",
            "relative-type-1": "next month",
            "relativeTime-type-future": {
              "relativeTimePattern-count-one": "{0} mánotbadji maŋŋilit",
              "relativeTimePattern-count-two": "{0} mánotbadji maŋŋilit",
              "relativeTimePattern-count-other": "{0} mánotbadji maŋŋilit"
            },
            "relativeTime-type-past": {
              "relativeTimePattern-count-one": "{0} mánotbadji árat",
              "relativeTimePattern-count-two": "{0} mánotbadji árat",
              "relativeTimePattern-count-other": "{0} mánotbadji árat"
            }
          },
          "month-narrow": {
            "displayName": "mánnu",
            "relative-type--1": "last month",
            "relative-type-0": "this month",
            "relative-type-1": "next month",
            "relativeTime-type-future": {
              "relativeTimePattern-count-one": "{0} mánotbadji maŋŋilit",
              "relativeTimePattern-count-two": "{0} mánotbadji maŋŋilit",
              "relativeTimePattern-count-other": "{0} mánotbadji maŋŋilit"
            },
            "relativeTime-type-past": {
              "relativeTimePattern-count-one": "{0} mánotbadji árat",
              "relativeTimePattern-count-two": "{0} mánotbadji árat",
              "relativeTimePattern-count-other": "{0} mánotbadji árat"
            }
          },
          "week": {
            "displayName": "vahkku",
            "relative-type--1": "last week",
            "relative-type-0": "this week",
            "relative-type-1": "next week",
            "relativeTime-type-future": {
              "relativeTimePattern-count-one": "{0} vahku maŋŋilit",
              "relativeTimePattern-count-two": "{0} vahkku maŋŋilit",
              "relativeTimePattern-count-other": "{0} vahkku maŋŋilit"
            },
            "relativeTime-type-past": {
              "relativeTimePattern-count-one": "{0} vahku árat",
              "relativeTimePattern-count-two": "{0} vahkku árat",
              "relativeTimePattern-count-other": "{0} vahkku árat"
            }
          },
          "week-short": {
            "displayName": "vahkku",
            "relative-type--1": "last week",
            "relative-type-0": "this week",
            "relative-type-1": "next week",
            "relativeTime-type-future": {
              "relativeTimePattern-count-one": "{0} vahkku maŋŋilit",
              "relativeTimePattern-count-two": "{0} vahkku maŋŋilit",
              "relativeTimePattern-count-other": "{0} vahkku maŋŋilit"
            },
            "relativeTime-type-past": {
              "relativeTimePattern-count-one": "{0} vahkku árat",
              "relativeTimePattern-count-two": "{0} vahkku árat",
              "relativeTimePattern-count-other": "{0} vahkku árat"
            }
          },
          "week-narrow": {
            "displayName": "vahkku",
            "relative-type--1": "last week",
            "relative-type-0": "this week",
            "relative-type-1": "next week",
            "relativeTime-type-future": {
              "relativeTimePattern-count-one": "{0} vahkku maŋŋilit",
              "relativeTimePattern-count-two": "{0} vahkku maŋŋilit",
              "relativeTimePattern-count-other": "{0} vahkku maŋŋilit"
            },
            "relativeTime-type-past": {
              "relativeTimePattern-count-one": "{0} vahkku árat",
              "relativeTimePattern-count-two": "{0} vahkku árat",
              "relativeTimePattern-count-other": "{0} vahkku árat"
            }
          },
          "day": {
            "displayName": "beaivi",
            "relative-type--1": "ikte",
            "relative-type--2": "oovdebpeivvi",
            "relative-type-0": "odne",
            "relative-type-1": "ihttin",
            "relative-type-2": "paijeelittáá",
            "relativeTime-type-future": {
              "relativeTimePattern-count-one": "{0} jándor maŋŋilit",
              "relativeTimePattern-count-two": "{0} jándor amaŋŋilit",
              "relativeTimePattern-count-other": "{0} jándora maŋŋilit"
            },
            "relativeTime-type-past": {
              "relativeTimePattern-count-one": "{0} jándor árat",
              "relativeTimePattern-count-two": "{0} jándora árat",
              "relativeTimePattern-count-other": "{0} jándora árat"
            }
          },
          "day-short": {
            "displayName": "beaivi",
            "relative-type--1": "ikte",
            "relative-type--2": "oovdebpeivvi",
            "relative-type-0": "odne",
            "relative-type-1": "ihttin",
            "relative-type-2": "paijeelittáá",
            "relativeTime-type-future": {
              "relativeTimePattern-count-one": "{0} jándora maŋŋilit",
              "relativeTimePattern-count-two": "{0} jándora maŋŋilit",
              "relativeTimePattern-count-other": "{0} jándora maŋŋilit"
            },
            "relativeTime-type-past": {
              "relativeTimePattern-count-one": "{0} jándora árat",
              "relativeTimePattern-count-two": "{0} jándora árat",
              "relativeTimePattern-count-other": "{0} jándora árat"
            }
          },
          "day-narrow": {
            "displayName": "beaivi",
            "relative-type--1": "ikte",
            "relative-type--2": "oovdebpeivvi",
            "relative-type-0": "odne",
            "relative-type-1": "ihttin",
            "relative-type-2": "paijeelittáá",
            "relativeTime-type-future": {
              "relativeTimePattern-count-one": "{0} jándora maŋŋilit",
              "relativeTimePattern-count-two": "{0} jándora maŋŋilit",
              "relativeTimePattern-count-other": "{0} jándora maŋŋilit"
            },
            "relativeTime-type-past": {
              "relativeTimePattern-count-one": "{0} jándora árat",
              "relativeTimePattern-count-two": "{0} jándora árat",
              "relativeTimePattern-count-other": "{0} jándora árat"
            }
          },
          "weekday": {
            "displayName": "vahkkobeaivi"
          },
          "sun": {
            "relative-type--1": "last Sunday",
            "relative-type-0": "this Sunday",
            "relative-type-1": "next Sunday"
          },
          "sun-short": {
            "relative-type--1": "last Sunday",
            "relative-type-0": "this Sunday",
            "relative-type-1": "next Sunday"
          },
          "sun-narrow": {
            "relative-type--1": "last Sunday",
            "relative-type-0": "this Sunday",
            "relative-type-1": "next Sunday"
          },
          "mon": {
            "relative-type--1": "last Monday",
            "relative-type-0": "this Monday",
            "relative-type-1": "next Monday"
          },
          "mon-short": {
            "relative-type--1": "last Monday",
            "relative-type-0": "this Monday",
            "relative-type-1": "next Monday"
          },
          "mon-narrow": {
            "relative-type--1": "last Monday",
            "relative-type-0": "this Monday",
            "relative-type-1": "next Monday"
          },
          "tue": {
            "relative-type--1": "last Tuesday",
            "relative-type-0": "this Tuesday",
            "relative-type-1": "next Tuesday"
          },
          "tue-short": {
            "relative-type--1": "last Tuesday",
            "relative-type-0": "this Tuesday",
            "relative-type-1": "next Tuesday"
          },
          "tue-narrow": {
            "relative-type--1": "last Tuesday",
            "relative-type-0": "this Tuesday",
            "relative-type-1": "next Tuesday"
          },
          "wed": {
            "relative-type--1": "last Wednesday",
            "relative-type-0": "this Wednesday",
            "relative-type-1": "next Wednesday"
          },
          "wed-short": {
            "relative-type--1": "last Wednesday",
            "relative-type-0": "this Wednesday",
            "relative-type-1": "next Wednesday"
          },
          "wed-narrow": {
            "relative-type--1": "last Wednesday",
            "relative-type-0": "this Wednesday",
            "relative-type-1": "next Wednesday"
          },
          "thu": {
            "relative-type--1": "last Thursday",
            "relative-type-0": "this Thursday",
            "relative-type-1": "next Thursday"
          },
          "thu-short": {
            "relative-type--1": "last Thursday",
            "relative-type-0": "this Thursday",
            "relative-type-1": "next Thursday"
          },
          "thu-narrow": {
            "relative-type--1": "last Thursday",
            "relative-type-0": "this Thursday",
            "relative-type-1": "next Thursday"
          },
          "fri": {
            "relative-type--1": "last Friday",
            "relative-type-0": "this Friday",
            "relative-type-1": "next Friday"
          },
          "fri-short": {
            "relative-type--1": "last Friday",
            "relative-type-0": "this Friday",
            "relative-type-1": "next Friday"
          },
          "fri-narrow": {
            "relative-type--1": "last Friday",
            "relative-type-0": "this Friday",
            "relative-type-1": "next Friday"
          },
          "sat": {
            "relative-type--1": "last Saturday",
            "relative-type-0": "this Saturday",
            "relative-type-1": "next Saturday"
          },
          "sat-short": {
            "relative-type--1": "last Saturday",
            "relative-type-0": "this Saturday",
            "relative-type-1": "next Saturday"
          },
          "sat-narrow": {
            "relative-type--1": "last Saturday",
            "relative-type-0": "this Saturday",
            "relative-type-1": "next Saturday"
          },
          "dayperiod": {
            "displayName": "beaivi ráidodássi"
          },
          "hour": {
            "displayName": "diibmu",
            "relativeTime-type-future": {
              "relativeTimePattern-count-one": "{0} diibmu maŋŋilit",
              "relativeTimePattern-count-two": "{0} diibmur maŋŋilit",
              "relativeTimePattern-count-other": "{0} diibmur maŋŋilit"
            },
            "relativeTime-type-past": {
              "relativeTimePattern-count-one": "{0} diibmu árat",
              "relativeTimePattern-count-two": "{0} diibmur árat",
              "relativeTimePattern-count-other": "{0} diibmur árat"
            }
          },
          "hour-short": {
            "displayName": "diibmu",
            "relativeTime-type-future": {
              "relativeTimePattern-count-one": "{0} diibmur maŋŋilit",
              "relativeTimePattern-count-two": "{0} diibmur maŋŋilit",
              "relativeTimePattern-count-other": "{0} diibmur maŋŋilit"
            },
            "relativeTime-type-past": {
              "relativeTimePattern-count-one": "{0} diibmur árat",
              "relativeTimePattern-count-two": "{0} diibmur árat",
              "relativeTimePattern-count-other": "{0} diibmur árat"
            }
          },
          "hour-narrow": {
            "displayName": "diibmu",
            "relativeTime-type-future": {
              "relativeTimePattern-count-one": "{0} diibmur maŋŋilit",
              "relativeTimePattern-count-two": "{0} diibmur maŋŋilit",
              "relativeTimePattern-count-other": "{0} diibmur maŋŋilit"
            },
            "relativeTime-type-past": {
              "relativeTimePattern-count-one": "{0} diibmur árat",
              "relativeTimePattern-count-two": "{0} diibmur árat",
              "relativeTimePattern-count-other": "{0} diibmur árat"
            }
          },
          "minute": {
            "displayName": "minuhtta",
            "relativeTime-type-future": {
              "relativeTimePattern-count-one": "{0} minuhta maŋŋilit",
              "relativeTimePattern-count-two": "{0} minuhtta maŋŋilit",
              "relativeTimePattern-count-other": "{0} minuhtta maŋŋilit"
            },
            "relativeTime-type-past": {
              "relativeTimePattern-count-one": "{0} minuhta árat",
              "relativeTimePattern-count-two": "{0} minuhtta árat",
              "relativeTimePattern-count-other": "{0} minuhtta árat"
            }
          },
          "minute-short": {
            "displayName": "minuhtta",
            "relativeTime-type-future": {
              "relativeTimePattern-count-one": "{0} minuhtta maŋŋilit",
              "relativeTimePattern-count-two": "{0} minuhtta maŋŋilit",
              "relativeTimePattern-count-other": "{0} minuhtta maŋŋilit"
            },
            "relativeTime-type-past": {
              "relativeTimePattern-count-one": "{0} minuhtta árat",
              "relativeTimePattern-count-two": "{0} minuhtta árat",
              "relativeTimePattern-count-other": "{0} minuhtta árat"
            }
          },
          "minute-narrow": {
            "displayName": "minuhtta",
            "relativeTime-type-future": {
              "relativeTimePattern-count-one": "{0} minuhtta maŋŋilit",
              "relativeTimePattern-count-two": "{0} minuhtta maŋŋilit",
              "relativeTimePattern-count-other": "{0} minuhtta maŋŋilit"
            },
            "relativeTime-type-past": {
              "relativeTimePattern-count-one": "{0} minuhtta árat",
              "relativeTimePattern-count-two": "{0} minuhtta árat",
              "relativeTimePattern-count-other": "{0} minuhtta árat"
            }
          },
          "second": {
            "displayName": "sekunda",
            "relative-type-0": "now",
            "relativeTime-type-future": {
              "relativeTimePattern-count-one": "{0} sekunda maŋŋilit",
              "relativeTimePattern-count-two": "{0} sekundda maŋŋilit",
              "relativeTimePattern-count-other": "{0} sekundda maŋŋilit"
            },
            "relativeTime-type-past": {
              "relativeTimePattern-count-one": "{0} sekunda árat",
              "relativeTimePattern-count-two": "{0} sekundda árat",
              "relativeTimePattern-count-other": "{0} sekundda árat"
            }
          },
          "second-short": {
            "displayName": "sekunda",
            "relative-type-0": "now",
            "relativeTime-type-future": {
              "relativeTimePattern-count-one": "{0} sekundda maŋŋilit",
              "relativeTimePattern-count-two": "{0} sekundda maŋŋilit",
              "relativeTimePattern-count-other": "{0} sekundda maŋŋilit"
            },
            "relativeTime-type-past": {
              "relativeTimePattern-count-one": "{0} sekundda árat",
              "relativeTimePattern-count-two": "{0} sekundda árat",
              "relativeTimePattern-count-other": "{0} sekundda árat"
            }
          },
          "second-narrow": {
            "displayName": "sekunda",
            "relative-type-0": "now",
            "relativeTime-type-future": {
              "relativeTimePattern-count-one": "{0} sekundda maŋŋilit",
              "relativeTimePattern-count-two": "{0} sekundda maŋŋilit",
              "relativeTimePattern-count-other": "{0} sekundda maŋŋilit"
            },
            "relativeTime-type-past": {
              "relativeTimePattern-count-one": "{0} sekundda árat",
              "relativeTimePattern-count-two": "{0} sekundda árat",
              "relativeTimePattern-count-other": "{0} sekundda árat"
            }
          },
          "zone": {
            "displayName": "áigeavádat"
          }
        }
      }
    }
  }
}
